solid OpenSCAD_Model
  facet normal -0.998009 0 0.0630771
    outer loop
      vertex -7.8315 11.2239 -7.04768
      vertex -6.94063 3.8285 7.04771
      vertex -6.94063 6.1715 7.04771
    endloop
  endfacet
  facet normal -0.998009 0 0.0630771
    outer loop
      vertex -6.94063 3.8285 7.04771
      vertex -7.8315 11.2239 -7.04768
      vertex -7.8315 -1.22387 -7.04768
    endloop
  endfacet
  facet normal 0 0 -1
    outer loop
      vertex -1.82415 -2.28303 -7.04771
      vertex -1.73042 -1.62344 -7.04771
      vertex -1.71151 -1.64422 -7.04771
    endloop
  endfacet
  facet normal -0 0 -1
    outer loop
      vertex -1.73042 -1.62344 -7.04771
      vertex -1.82415 -2.28303 -7.04771
      vertex -1.75576 -1.59558 -7.04771
    endloop
  endfacet
  facet normal 0 0 -1
    outer loop
      vertex -1.82415 -2.28303 -7.04771
      vertex -1.85701 -1.42185 -7.04771
      vertex -1.75576 -1.59558 -7.04771
    endloop
  endfacet
  facet normal 0 0 -1
    outer loop
      vertex -1.82415 -2.28303 -7.04771
      vertex -1.99239 -1.18956 -7.04771
      vertex -1.85701 -1.42185 -7.04771
    endloop
  endfacet
  facet normal 0 0 -1
    outer loop
      vertex -7.83148 -1.22377 -7.04771
      vertex -1.99239 -1.18956 -7.04771
      vertex -1.82415 -2.28303 -7.04771
    endloop
  endfacet
  facet normal -0 0 -1
    outer loop
      vertex -1.99239 -1.18956 -7.04771
      vertex -7.83148 -1.22377 -7.04771
      vertex -2.05711 -0.995939 -7.04771
    endloop
  endfacet
  facet normal -0 0 -1
    outer loop
      vertex -2.14318 -0.738439 -7.04771
      vertex -7.83148 -1.22377 -7.04771
      vertex -2.2015 -0.261925 -7.04771
    endloop
  endfacet
  facet normal -0 0 -1
    outer loop
      vertex -2.05711 -0.995939 -7.04771
      vertex -7.83148 -1.22377 -7.04771
      vertex -2.14318 -0.738439 -7.04771
    endloop
  endfacet
  facet normal 0 0 -1
    outer loop
      vertex 2.14216 -0.0229725 -7.04771
      vertex 6.94063 -3.8285 -7.04771
      vertex 2.14589 -0.0534528 -7.04771
    endloop
  endfacet
  facet normal 0 0 -1
    outer loop
      vertex 6.94063 -3.8285 -7.04771
      vertex 2.10923 -0.534505 -7.04771
      vertex 2.14589 -0.0534528 -7.04771
    endloop
  endfacet
  facet normal 0 0 -1
    outer loop
      vertex 6.94063 -3.8285 -7.04771
      vertex 2.05297 -0.735444 -7.04771
      vertex 2.10923 -0.534505 -7.04771
    endloop
  endfacet
  facet normal 0 0 -1
    outer loop
      vertex 6.94063 -3.8285 -7.04771
      vertex 1.97915 -0.999087 -7.04771
      vertex 2.05297 -0.735444 -7.04771
    endloop
  endfacet
  facet normal 0 0 -1
    outer loop
      vertex 6.94063 -3.8285 -7.04771
      vertex 1.88531 -1.18344 -7.04771
      vertex 1.97915 -0.999087 -7.04771
    endloop
  endfacet
  facet normal 0 0 -1
    outer loop
      vertex 6.94063 -3.8285 -7.04771
      vertex 1.76137 -1.42692 -7.04771
      vertex 1.88531 -1.18344 -7.04771
    endloop
  endfacet
  facet normal 0 0 -1
    outer loop
      vertex 6.94063 -3.8285 -7.04771
      vertex 1.63427 -1.5868 -7.04771
      vertex 1.76137 -1.42692 -7.04771
    endloop
  endfacet
  facet normal 0 0 -1
    outer loop
      vertex 6.94063 -3.8285 -7.04771
      vertex 1.46538 -1.79926 -7.04771
      vertex 1.63427 -1.5868 -7.04771
    endloop
  endfacet
  facet normal 0 0 -1
    outer loop
      vertex 0.933299 -2.76924 -7.04771
      vertex 1.46538 -1.79926 -7.04771
      vertex 6.94063 -3.8285 -7.04771
    endloop
  endfacet
  facet normal 0 0 -1
    outer loop
      vertex 1.46538 -1.79926 -7.04771
      vertex 0.933299 -2.76924 -7.04771
      vertex 1.31075 -1.92793 -7.04771
    endloop
  endfacet
  facet normal 0 0 -1
    outer loop
      vertex 1.31075 -1.92793 -7.04771
      vertex 0.933299 -2.76924 -7.04771
      vertex 1.10415 -2.09986 -7.04771
    endloop
  endfacet
  facet normal 0 0 -1
    outer loop
      vertex 1.10415 -2.09986 -7.04771
      vertex 0.933299 -2.76924 -7.04771
      vertex 1.04594 -2.13044 -7.04771
    endloop
  endfacet
  facet normal 0 0 -1
    outer loop
      vertex 2.13929 0.00049117 -7.04771
      vertex 6.94063 -3.8285 -7.04771
      vertex 2.14216 -0.0229725 -7.04771
    endloop
  endfacet
  facet normal 0 0 -1
    outer loop
      vertex 6.94063 -3.8285 -7.04771
      vertex 2.13929 0.00049117 -7.04771
      vertex 6.94063 13.8285 -7.04771
    endloop
  endfacet
  facet normal 0 0 -1
    outer loop
      vertex 2.13929 0.00049117 -7.04771
      vertex 0.785584 12.7432 -7.04771
      vertex 6.94063 13.8285 -7.04771
    endloop
  endfacet
  facet normal 0 0 -1
    outer loop
      vertex -0.204931 0.41384 -7.04771
      vertex 0.785584 12.7432 -7.04771
      vertex 2.13929 0.00049117 -7.04771
    endloop
  endfacet
  facet normal 0 0 -1
    outer loop
      vertex -1.67644 12.3091 -7.04771
      vertex 0.785584 12.7432 -7.04771
      vertex -0.204931 0.41384 -7.04771
    endloop
  endfacet
  facet normal -0 0 -1
    outer loop
      vertex 0.785584 12.7432 -7.04771
      vertex -1.70806 12.4884 -7.04771
      vertex 0.729449 13.0616 -7.04771
    endloop
  endfacet
  facet normal 0 -0 -1
    outer loop
      vertex -0.101683 14.7854 -7.04771
      vertex 0.660958 13.45 -7.04771
      vertex -0.157281 14.6191 -7.04771
    endloop
  endfacet
  facet normal 0 0 -1
    outer loop
      vertex 0.338698 15.5388 -7.04771
      vertex -0.101683 14.7854 -7.04771
      vertex -0.080179 14.9611 -7.04771
    endloop
  endfacet
  facet normal 0 0 -1
    outer loop
      vertex 0.660958 13.45 -7.04771
      vertex -0.101683 14.7854 -7.04771
      vertex 0.338698 15.5388 -7.04771
    endloop
  endfacet
  facet normal 0 0 -1
    outer loop
      vertex -1.70806 12.4884 -7.04771
      vertex 0.785584 12.7432 -7.04771
      vertex -1.67644 12.3091 -7.04771
    endloop
  endfacet
  facet normal 0 0 -1
    outer loop
      vertex 0.660958 13.45 -7.04771
      vertex -0.20802 14.532 -7.04771
      vertex -0.157281 14.6191 -7.04771
    endloop
  endfacet
  facet normal 0 0 -1
    outer loop
      vertex 0.660958 13.45 -7.04771
      vertex -0.244519 14.4694 -7.04771
      vertex -0.20802 14.532 -7.04771
    endloop
  endfacet
  facet normal 0 -0 -1
    outer loop
      vertex -0.652172 14.1802 -7.04771
      vertex 0.729449 13.0616 -7.04771
      vertex -1.70806 12.4884 -7.04771
    endloop
  endfacet
  facet normal 0 0 -1
    outer loop
      vertex 0.660958 13.45 -7.04771
      vertex -0.311406 14.3958 -7.04771
      vertex -0.244519 14.4694 -7.04771
    endloop
  endfacet
  facet normal 0 0 -1
    outer loop
      vertex 0.660958 13.45 -7.04771
      vertex -0.359599 14.3429 -7.04771
      vertex -0.311406 14.3958 -7.04771
    endloop
  endfacet
  facet normal 0 0 -1
    outer loop
      vertex 0.660958 13.45 -7.04771
      vertex -0.497494 14.245 -7.04771
      vertex -0.359599 14.3429 -7.04771
    endloop
  endfacet
  facet normal 0 0 -1
    outer loop
      vertex 0.660958 13.45 -7.04771
      vertex -0.652172 14.1802 -7.04771
      vertex -0.497494 14.245 -7.04771
    endloop
  endfacet
  facet normal 0 0 -1
    outer loop
      vertex 0.729449 13.0616 -7.04771
      vertex -0.652172 14.1802 -7.04771
      vertex 0.660958 13.45 -7.04771
    endloop
  endfacet
  facet normal 0 0 -1
    outer loop
      vertex -0.652172 14.1802 -7.04771
      vertex -1.70806 12.4884 -7.04771
      vertex -0.816868 14.1511 -7.04771
    endloop
  endfacet
  facet normal 0 0 -1
    outer loop
      vertex -1.80106 13.0159 -7.04771
      vertex -0.816868 14.1511 -7.04771
      vertex -1.70806 12.4884 -7.04771
    endloop
  endfacet
  facet normal -0 0 -1
    outer loop
      vertex -0.816868 14.1511 -7.04771
      vertex -1.80106 13.0159 -7.04771
      vertex -0.984398 14.1592 -7.04771
    endloop
  endfacet
  facet normal -0 0 -1
    outer loop
      vertex -0.984398 14.1592 -7.04771
      vertex -1.80106 13.0159 -7.04771
      vertex -1.07912 14.1852 -7.04771
    endloop
  endfacet
  facet normal -0 0 -1
    outer loop
      vertex -1.07912 14.1852 -7.04771
      vertex -1.80106 13.0159 -7.04771
      vertex -1.14743 14.2039 -7.04771
    endloop
  endfacet
  facet normal -0 0 -1
    outer loop
      vertex -1.14743 14.2039 -7.04771
      vertex -1.80106 13.0159 -7.04771
      vertex -1.23544 14.2502 -7.04771
    endloop
  endfacet
  facet normal -0 0 -1
    outer loop
      vertex -1.23544 14.2502 -7.04771
      vertex -1.80106 13.0159 -7.04771
      vertex -1.29884 14.2835 -7.04771
    endloop
  endfacet
  facet normal 0 0 -1
    outer loop
      vertex -1.9822 13.111 -7.04771
      vertex -1.29884 14.2835 -7.04771
      vertex -1.80106 13.0159 -7.04771
    endloop
  endfacet
  facet normal 0 0 -1
    outer loop
      vertex -2.13029 13.2342 -7.04771
      vertex -1.29884 14.2835 -7.04771
      vertex -1.9822 13.111 -7.04771
    endloop
  endfacet
  facet normal -0 0 -1
    outer loop
      vertex -1.29884 14.2835 -7.04771
      vertex -2.13029 13.2342 -7.04771
      vertex -1.43202 14.3943 -7.04771
    endloop
  endfacet
  facet normal 0 0 -1
    outer loop
      vertex -2.33344 13.4033 -7.04771
      vertex -1.43202 14.3943 -7.04771
      vertex -2.13029 13.2342 -7.04771
    endloop
  endfacet
  facet normal 0 0 -1
    outer loop
      vertex -2.01011 0.732142 -7.04771
      vertex -1.67644 12.3091 -7.04771
      vertex -0.204931 0.41384 -7.04771
    endloop
  endfacet
  facet normal 0 0 -1
    outer loop
      vertex -7.83148 -1.22377 -7.04771
      vertex -2.01011 0.732142 -7.04771
      vertex -2.02404 0.704775 -7.04771
    endloop
  endfacet
  facet normal 0 0 -1
    outer loop
      vertex -7.83148 -1.22377 -7.04771
      vertex -2.02404 0.704775 -7.04771
      vertex -2.03476 0.683709 -7.04771
    endloop
  endfacet
  facet normal 0 0 -1
    outer loop
      vertex -7.83148 -1.22377 -7.04771
      vertex -2.03476 0.683709 -7.04771
      vertex -2.10839 0.420727 -7.04771
    endloop
  endfacet
  facet normal 0 0 -1
    outer loop
      vertex -7.83148 -1.22377 -7.04771
      vertex -2.10839 0.420727 -7.04771
      vertex -2.16484 0.219128 -7.04771
    endloop
  endfacet
  facet normal 0 0 -1
    outer loop
      vertex -7.83148 -1.22377 -7.04771
      vertex -2.16484 0.219128 -7.04771
      vertex -2.2015 -0.261925 -7.04771
    endloop
  endfacet
  facet normal -0 0 -1
    outer loop
      vertex -2.01011 0.732142 -7.04771
      vertex -7.83148 -1.22377 -7.04771
      vertex -7.83148 11.2238 -7.04771
    endloop
  endfacet
  facet normal 0 0 -1
    outer loop
      vertex -2.01011 0.732142 -7.04771
      vertex -7.83148 11.2238 -7.04771
      vertex -1.67644 12.3091 -7.04771
    endloop
  endfacet
  facet normal 0 0 -1
    outer loop
      vertex 0.338698 15.5388 -7.04771
      vertex 1.23206 14.8981 -7.04771
      vertex 1.20831 14.7041 -7.04771
    endloop
  endfacet
  facet normal 0 0 -1
    outer loop
      vertex 0.338698 15.5388 -7.04771
      vertex 1.20831 14.7041 -7.04771
      vertex 1.17533 14.4348 -7.04771
    endloop
  endfacet
  facet normal 0 0 -1
    outer loop
      vertex 1.23206 14.8981 -7.04771
      vertex 0.338698 15.5388 -7.04771
      vertex 1.19639 15.3659 -7.04771
    endloop
  endfacet
  facet normal 0 0 -1
    outer loop
      vertex 1.19639 15.3659 -7.04771
      vertex 0.338698 15.5388 -7.04771
      vertex 1.14586 15.5463 -7.04771
    endloop
  endfacet
  facet normal 0 0 -1
    outer loop
      vertex 0.338698 15.5388 -7.04771
      vertex 1.17533 14.4348 -7.04771
      vertex 1.02872 13.9961 -7.04771
    endloop
  endfacet
  facet normal 0 0 -1
    outer loop
      vertex 0.338698 15.5388 -7.04771
      vertex 1.02872 13.9961 -7.04771
      vertex 0.798633 13.6013 -7.04771
    endloop
  endfacet
  facet normal 0 0 -1
    outer loop
      vertex 0.338698 15.5388 -7.04771
      vertex 0.798633 13.6013 -7.04771
      vertex 0.660958 13.45 -7.04771
    endloop
  endfacet
  facet normal -0 0 -1
    outer loop
      vertex 1.14586 15.5463 -7.04771
      vertex 0.338698 15.5388 -7.04771
      vertex 1.10991 15.6748 -7.04771
    endloop
  endfacet
  facet normal 0 0 -1
    outer loop
      vertex -0.0858173 15.035 -7.04771
      vertex 0.338698 15.5388 -7.04771
      vertex -0.080179 14.9611 -7.04771
    endloop
  endfacet
  facet normal 0 0 -1
    outer loop
      vertex -0.0937083 15.1384 -7.04771
      vertex 0.338698 15.5388 -7.04771
      vertex -0.0858173 15.035 -7.04771
    endloop
  endfacet
  facet normal 0 0 -1
    outer loop
      vertex -0.113659 15.2097 -7.04771
      vertex 0.338698 15.5388 -7.04771
      vertex -0.0937083 15.1384 -7.04771
    endloop
  endfacet
  facet normal 0 0 -1
    outer loop
      vertex -0.141649 15.3097 -7.04771
      vertex 0.338698 15.5388 -7.04771
      vertex -0.113659 15.2097 -7.04771
    endloop
  endfacet
  facet normal 0 0 -1
    outer loop
      vertex 0.338698 15.5388 -7.04771
      vertex -0.141649 15.3097 -7.04771
      vertex -0.209116 15.4422 -7.04771
    endloop
  endfacet
  facet normal 0 0 -1
    outer loop
      vertex -2.62124 13.7654 -7.04771
      vertex -1.43202 14.3943 -7.04771
      vertex -2.33344 13.4033 -7.04771
    endloop
  endfacet
  facet normal -0 0 -1
    outer loop
      vertex -1.43202 14.3943 -7.04771
      vertex -2.62124 13.7654 -7.04771
      vertex -1.49555 14.4742 -7.04771
    endloop
  endfacet
  facet normal 0 0 -1
    outer loop
      vertex -2.98386 14.9529 -7.04771
      vertex -1.67235 15.1242 -7.04771
      vertex -1.68291 15.0379 -7.04771
    endloop
  endfacet
  facet normal 0 0 -1
    outer loop
      vertex -2.70995 13.9396 -7.04771
      vertex -1.54115 14.5316 -7.04771
      vertex -2.62124 13.7654 -7.04771
    endloop
  endfacet
  facet normal -0 0 -1
    outer loop
      vertex -1.49555 14.4742 -7.04771
      vertex -2.62124 13.7654 -7.04771
      vertex -1.54115 14.5316 -7.04771
    endloop
  endfacet
  facet normal -0 0 -1
    outer loop
      vertex -1.54115 14.5316 -7.04771
      vertex -2.70995 13.9396 -7.04771
      vertex -1.58793 14.6235 -7.04771
    endloop
  endfacet
  facet normal -0 0 -1
    outer loop
      vertex -1.58793 14.6235 -7.04771
      vertex -2.70995 13.9396 -7.04771
      vertex -1.62144 14.6893 -7.04771
    endloop
  endfacet
  facet normal 0 0 -1
    outer loop
      vertex -2.83301 14.1813 -7.04771
      vertex -1.62144 14.6893 -7.04771
      vertex -2.70995 13.9396 -7.04771
    endloop
  endfacet
  facet normal 0 0 -1
    outer loop
      vertex -2.88579 14.3699 -7.04771
      vertex -1.62144 14.6893 -7.04771
      vertex -2.83301 14.1813 -7.04771
    endloop
  endfacet
  facet normal -0 0 -1
    outer loop
      vertex -1.62144 14.6893 -7.04771
      vertex -2.88579 14.3699 -7.04771
      vertex -1.66938 14.8606 -7.04771
    endloop
  endfacet
  facet normal 0 0 -1
    outer loop
      vertex -2.95947 14.6331 -7.04771
      vertex -1.66938 14.8606 -7.04771
      vertex -2.88579 14.3699 -7.04771
    endloop
  endfacet
  facet normal 0 0 -1
    outer loop
      vertex -2.98386 14.9529 -7.04771
      vertex -1.66938 14.8606 -7.04771
      vertex -2.95947 14.6331 -7.04771
    endloop
  endfacet
  facet normal 0 0 -1
    outer loop
      vertex -1.66938 14.8606 -7.04771
      vertex -2.98386 14.9529 -7.04771
      vertex -1.68291 15.0379 -7.04771
    endloop
  endfacet
  facet normal -0 0 -1
    outer loop
      vertex -1.67235 15.1242 -7.04771
      vertex -2.98386 14.9529 -7.04771
      vertex -1.66484 15.1855 -7.04771
    endloop
  endfacet
  facet normal -0.063422 -0.359682 -0.930917
    outer loop
      vertex -1.82416 -2.28308 -7.04769
      vertex -7.83148 -1.22377 -7.04771
      vertex -1.82415 -2.28303 -7.04771
    endloop
  endfacet
  facet normal -0.0490176 -0.277996 -0.959331
    outer loop
      vertex -7.83148 -1.22377 -7.04771
      vertex -1.82416 -2.28308 -7.04769
      vertex -7.8315 -1.22387 -7.04768
    endloop
  endfacet
  facet normal -0.04169 -0.236435 -0.970753
    outer loop
      vertex 6.94063 -3.8285 -7.04771
      vertex 0.933293 -2.76928 -7.0477
      vertex 0.933299 -2.76924 -7.04771
    endloop
  endfacet
  facet normal -0.163176 0.925417 0.342019
    outer loop
      vertex -1.30526 10.204 -1.1746
      vertex -6.94063 6.1715 7.04771
      vertex -0.785584 7.2568 7.04771
    endloop
  endfacet
  facet normal -0.163171 0.925417 0.342022
    outer loop
      vertex -6.94063 6.1715 7.04771
      vertex -1.30526 10.204 -1.1746
      vertex -7.8315 11.2239 -7.04768
    endloop
  endfacet
  facet normal -0.163176 0.925417 0.34202
    outer loop
      vertex 7.83148 8.77623 7.04771
      vertex 1.30524 9.79608 1.17463
      vertex 1.67644 7.69093 7.04771
    endloop
  endfacet
  facet normal -0.163175 -0.925417 0.34202
    outer loop
      vertex -1.46188 -0.228491 -1.31555
      vertex -7.8315 -1.22387 -7.04768
      vertex -1.82417 -2.28312 -7.04768
    endloop
  endfacet
  facet normal -0.163177 -0.925417 0.34202
    outer loop
      vertex 6.94062 -3.82859 -7.04768
      vertex 1.46186 0.228399 1.31558
      vertex 0.933283 -2.76933 -7.04768
    endloop
  endfacet
  facet normal -0.163176 -0.925417 0.34202
    outer loop
      vertex 1.46186 0.228399 1.31558
      vertex 6.94062 -3.82859 -7.04768
      vertex 7.83148 1.22377 7.04771
    endloop
  endfacet
  facet normal -0.172713 0.979506 -0.103628
    outer loop
      vertex 0.785584 12.7432 -7.04771
      vertex 0.785578 12.7432 -7.0477
      vertex 6.94063 13.8285 -7.04771
    endloop
  endfacet
  facet normal -0.172997 0.981117 -0.0864987
    outer loop
      vertex -7.83148 11.2238 -7.04771
      vertex -1.67645 12.3091 -7.04769
      vertex -1.67644 12.3091 -7.04771
    endloop
  endfacet
  facet normal -0.0490152 0.277996 -0.959331
    outer loop
      vertex -1.67645 12.3091 -7.04769
      vertex -7.83148 11.2238 -7.04771
      vertex -7.8315 11.2239 -7.04768
    endloop
  endfacet
  facet normal 0.992888 -0.117232 -0.0207327
    outer loop
      vertex 7.8315 1.22387 7.04768
      vertex 6.94062 -3.82859 -7.04768
      vertex 6.94063 -3.8285 -7.04771
    endloop
  endfacet
  facet normal -0.163177 -0.925417 0.34202
    outer loop
      vertex -6.94063 3.8285 7.04771
      vertex -1.46188 -0.228491 -1.31555
      vertex -0.933299 2.76924 7.04771
    endloop
  endfacet
  facet normal -0.163176 -0.925416 0.342021
    outer loop
      vertex -1.46188 -0.228491 -1.31555
      vertex -6.94063 3.8285 7.04771
      vertex -7.8315 -1.22387 -7.04768
    endloop
  endfacet
  facet normal -0.163177 -0.925416 0.342021
    outer loop
      vertex 1.82415 2.28303 7.04771
      vertex 1.46186 0.228399 1.31558
      vertex 7.83148 1.22377 7.04771
    endloop
  endfacet
  facet normal 0 0 1
    outer loop
      vertex -2.09299 9.90057 7.04771
      vertex -0.784188 10.0497 7.04771
      vertex -0.77397 10.1332 7.04771
    endloop
  endfacet
  facet normal 0 0 1
    outer loop
      vertex -0.778507 9.80819 7.04771
      vertex -0.910192 7.96349 7.04771
      vertex -0.841345 7.57304 7.04771
    endloop
  endfacet
  facet normal 0 0 1
    outer loop
      vertex -0.778507 9.80819 7.04771
      vertex -1.09133 8.05863 7.04771
      vertex -0.910192 7.96349 7.04771
    endloop
  endfacet
  facet normal 0 0 1
    outer loop
      vertex -0.784188 10.0497 7.04771
      vertex -2.09299 9.90057 7.04771
      vertex -0.792036 9.98553 7.04771
    endloop
  endfacet
  facet normal 0 0 1
    outer loop
      vertex -0.778507 9.80819 7.04771
      vertex -1.29204 8.22565 7.04771
      vertex -1.09133 8.05863 7.04771
    endloop
  endfacet
  facet normal 0 0 1
    outer loop
      vertex -0.778507 9.80819 7.04771
      vertex -1.44257 8.35092 7.04771
      vertex -1.29204 8.22565 7.04771
    endloop
  endfacet
  facet normal 0 0 1
    outer loop
      vertex -0.778507 9.80819 7.04771
      vertex -1.73037 8.71298 7.04771
      vertex -1.44257 8.35092 7.04771
    endloop
  endfacet
  facet normal 0 0 1
    outer loop
      vertex -0.778507 9.80819 7.04771
      vertex -1.85079 8.94953 7.04771
      vertex -1.73037 8.71298 7.04771
    endloop
  endfacet
  facet normal 0 0 1
    outer loop
      vertex -0.778507 9.80819 7.04771
      vertex -1.94214 9.12896 7.04771
      vertex -1.85079 8.94953 7.04771
    endloop
  endfacet
  facet normal 0 0 1
    outer loop
      vertex -0.778507 9.80819 7.04771
      vertex -2.01386 9.38515 7.04771
      vertex -1.94214 9.12896 7.04771
    endloop
  endfacet
  facet normal 0 0 1
    outer loop
      vertex -0.778507 9.80819 7.04771
      vertex -2.0686 9.58071 7.04771
      vertex -2.01386 9.38515 7.04771
    endloop
  endfacet
  facet normal 0 0 1
    outer loop
      vertex -0.778507 9.80819 7.04771
      vertex -2.09299 9.90057 7.04771
      vertex -2.0686 9.58071 7.04771
    endloop
  endfacet
  facet normal -0 0 1
    outer loop
      vertex -2.09299 9.90057 7.04771
      vertex -0.778507 9.80819 7.04771
      vertex -0.792036 9.98553 7.04771
    endloop
  endfacet
  facet normal 0 0 1
    outer loop
      vertex -0.778507 9.80819 7.04771
      vertex -0.841345 7.57304 7.04771
      vertex -0.785584 7.2568 7.04771
    endloop
  endfacet
  facet normal 0 0 1
    outer loop
      vertex 1.91959 8.94376 7.04771
      vertex 0.64635 9.417 7.04771
      vertex 1.6895 8.54897 7.04771
    endloop
  endfacet
  facet normal 0 0 1
    outer loop
      vertex 1.6895 8.54897 7.04771
      vertex 0.64635 9.417 7.04771
      vertex 1.55183 8.39761 7.04771
    endloop
  endfacet
  facet normal -0 0 1
    outer loop
      vertex 0.59672 9.36244 7.04771
      vertex 1.55183 8.39761 7.04771
      vertex 0.64635 9.417 7.04771
    endloop
  endfacet
  facet normal -0 0 1
    outer loop
      vertex 0.53127 9.29049 7.04771
      vertex 1.55183 8.39761 7.04771
      vertex 0.59672 9.36244 7.04771
    endloop
  endfacet
  facet normal -0 0 1
    outer loop
      vertex 0.393376 9.19267 7.04771
      vertex 1.55183 8.39761 7.04771
      vertex 0.53127 9.29049 7.04771
    endloop
  endfacet
  facet normal -0 0 1
    outer loop
      vertex 0.238698 9.12782 7.04771
      vertex 1.55183 8.39761 7.04771
      vertex 0.393376 9.19267 7.04771
    endloop
  endfacet
  facet normal 0 0 1
    outer loop
      vertex 1.55183 8.39761 7.04771
      vertex 0.238698 9.12782 7.04771
      vertex 1.64463 7.87129 7.04771
    endloop
  endfacet
  facet normal -0 0 1
    outer loop
      vertex 0.0740018 9.09878 7.04771
      vertex 1.64463 7.87129 7.04771
      vertex 0.238698 9.12782 7.04771
    endloop
  endfacet
  facet normal 0 0 1
    outer loop
      vertex 1.64463 7.87129 7.04771
      vertex 0.0740018 9.09878 7.04771
      vertex -0.785584 7.2568 7.04771
    endloop
  endfacet
  facet normal 0 0 1
    outer loop
      vertex -0.785584 7.2568 7.04771
      vertex 0.0740018 9.09878 7.04771
      vertex -0.0935284 9.10681 7.04771
    endloop
  endfacet
  facet normal 0 0 1
    outer loop
      vertex -0.785584 7.2568 7.04771
      vertex -0.0935284 9.10681 7.04771
      vertex -0.163785 9.1261 7.04771
    endloop
  endfacet
  facet normal 0 0 1
    outer loop
      vertex -0.785584 7.2568 7.04771
      vertex -0.163785 9.1261 7.04771
      vertex -0.256564 9.15157 7.04771
    endloop
  endfacet
  facet normal 0 0 1
    outer loop
      vertex -0.785584 7.2568 7.04771
      vertex -0.256564 9.15157 7.04771
      vertex -0.321855 9.18586 7.04771
    endloop
  endfacet
  facet normal 0 0 1
    outer loop
      vertex -0.785584 7.2568 7.04771
      vertex -0.321855 9.18586 7.04771
      vertex -0.407973 9.23109 7.04771
    endloop
  endfacet
  facet normal 0 0 1
    outer loop
      vertex -0.785584 7.2568 7.04771
      vertex -0.407973 9.23109 7.04771
      vertex -0.54115 9.34193 7.04771
    endloop
  endfacet
  facet normal 0 0 1
    outer loop
      vertex -0.785584 7.2568 7.04771
      vertex -0.54115 9.34193 7.04771
      vertex -0.588305 9.40124 7.04771
    endloop
  endfacet
  facet normal 0 0 1
    outer loop
      vertex -0.785584 7.2568 7.04771
      vertex -0.588305 9.40124 7.04771
      vertex -0.650277 9.47919 7.04771
    endloop
  endfacet
  facet normal 0 0 1
    outer loop
      vertex -0.785584 7.2568 7.04771
      vertex -0.650277 9.47919 7.04771
      vertex -0.685015 9.54743 7.04771
    endloop
  endfacet
  facet normal 0 0 1
    outer loop
      vertex -0.785584 7.2568 7.04771
      vertex -0.685015 9.54743 7.04771
      vertex -0.730566 9.63691 7.04771
    endloop
  endfacet
  facet normal 0 0 1
    outer loop
      vertex -0.785584 7.2568 7.04771
      vertex -0.730566 9.63691 7.04771
      vertex -0.778507 9.80819 7.04771
    endloop
  endfacet
  facet normal 0 0 1
    outer loop
      vertex 1.64463 7.87129 7.04771
      vertex -0.785584 7.2568 7.04771
      vertex 1.30835 5.35647 7.04771
    endloop
  endfacet
  facet normal 0 0 1
    outer loop
      vertex -0.785584 7.2568 7.04771
      vertex -1.11924 5.78452 7.04771
      vertex 1.30835 5.35647 7.04771
    endloop
  endfacet
  facet normal 0 0 1
    outer loop
      vertex -0.785584 7.2568 7.04771
      vertex -1.12947 5.76441 7.04771
      vertex -1.11924 5.78452 7.04771
    endloop
  endfacet
  facet normal 0 0 1
    outer loop
      vertex -0.785584 7.2568 7.04771
      vertex -1.14389 5.73608 7.04771
      vertex -1.12947 5.76441 7.04771
    endloop
  endfacet
  facet normal -0 0 1
    outer loop
      vertex -6.94063 6.1715 7.04771
      vertex -1.14389 5.73608 7.04771
      vertex -0.785584 7.2568 7.04771
    endloop
  endfacet
  facet normal 0 0 1
    outer loop
      vertex -1.14389 5.73608 7.04771
      vertex -6.94063 6.1715 7.04771
      vertex -1.19798 5.5429 7.04771
    endloop
  endfacet
  facet normal 0 0 1
    outer loop
      vertex -1.27397 5.2715 7.04771
      vertex -6.94063 6.1715 7.04771
      vertex -1.31063 4.79045 7.04771
    endloop
  endfacet
  facet normal 0 0 1
    outer loop
      vertex -1.19798 5.5429 7.04771
      vertex -6.94063 6.1715 7.04771
      vertex -1.27397 5.2715 7.04771
    endloop
  endfacet
  facet normal 0 0 1
    outer loop
      vertex 1.42742 10.5213 7.04771
      vertex 2.12293 9.84574 7.04771
      vertex 2.08726 10.3135 7.04771
    endloop
  endfacet
  facet normal -0 0 1
    outer loop
      vertex 0.810691 9.90868 7.04771
      vertex 2.12293 9.84574 7.04771
      vertex 1.42742 10.5213 7.04771
    endloop
  endfacet
  facet normal 0 0 1
    outer loop
      vertex 1.42742 10.5213 7.04771
      vertex 2.08726 10.3135 7.04771
      vertex 2.04972 10.4476 7.04771
    endloop
  endfacet
  facet normal -0 0 1
    outer loop
      vertex 1.42742 10.5213 7.04771
      vertex 2.04972 10.4476 7.04771
      vertex 2.00078 10.6224 7.04771
    endloop
  endfacet
  facet normal 0 0 1
    outer loop
      vertex 2.12293 9.84574 7.04771
      vertex 0.810691 9.90868 7.04771
      vertex 2.09066 9.58217 7.04771
    endloop
  endfacet
  facet normal -0 0 1
    outer loop
      vertex 0.789186 9.73301 7.04771
      vertex 2.09066 9.58217 7.04771
      vertex 0.810691 9.90868 7.04771
    endloop
  endfacet
  facet normal 0 0 1
    outer loop
      vertex 2.09066 9.58217 7.04771
      vertex 0.789186 9.73301 7.04771
      vertex 2.0662 9.38242 7.04771
    endloop
  endfacet
  facet normal -0 0 1
    outer loop
      vertex 0.733588 9.5667 7.04771
      vertex 2.0662 9.38242 7.04771
      vertex 0.789186 9.73301 7.04771
    endloop
  endfacet
  facet normal 0 0 1
    outer loop
      vertex 7.83148 8.77623 7.04771
      vertex 3.03676 4.99892 7.04771
      vertex 7.83148 1.22377 7.04771
    endloop
  endfacet
  facet normal 0 0 1
    outer loop
      vertex 7.83148 8.77623 7.04771
      vertex 3.03402 5.02131 7.04771
      vertex 3.03676 4.99892 7.04771
    endloop
  endfacet
  facet normal 0 0 1
    outer loop
      vertex 7.83148 8.77623 7.04771
      vertex 3.03016 5.05286 7.04771
      vertex 3.03402 5.02131 7.04771
    endloop
  endfacet
  facet normal -0 0 1
    outer loop
      vertex 1.67644 7.69093 7.04771
      vertex 3.03016 5.05286 7.04771
      vertex 7.83148 8.77623 7.04771
    endloop
  endfacet
  facet normal 0 0 1
    outer loop
      vertex 1.67644 7.69093 7.04771
      vertex 1.30835 5.35647 7.04771
      vertex 3.03016 5.05286 7.04771
    endloop
  endfacet
  facet normal 0 0 1
    outer loop
      vertex 1.64463 7.87129 7.04771
      vertex 1.30835 5.35647 7.04771
      vertex 1.67644 7.69093 7.04771
    endloop
  endfacet
  facet normal -0 0 1
    outer loop
      vertex 0.695929 9.50208 7.04771
      vertex 1.91959 8.94376 7.04771
      vertex 0.733588 9.5667 7.04771
    endloop
  endfacet
  facet normal 0 0 1
    outer loop
      vertex 2.0662 9.38242 7.04771
      vertex 0.733588 9.5667 7.04771
      vertex 1.91959 8.94376 7.04771
    endloop
  endfacet
  facet normal -0 0 1
    outer loop
      vertex 0.64635 9.417 7.04771
      vertex 1.91959 8.94376 7.04771
      vertex 0.695929 9.50208 7.04771
    endloop
  endfacet
  facet normal 0 0 1
    outer loop
      vertex 1.42742 10.5213 7.04771
      vertex 0.803024 10.0092 7.04771
      vertex 0.810691 9.90868 7.04771
    endloop
  endfacet
  facet normal 0 0 1
    outer loop
      vertex 1.42742 10.5213 7.04771
      vertex 0.797161 10.086 7.04771
      vertex 0.803024 10.0092 7.04771
    endloop
  endfacet
  facet normal 0 0 1
    outer loop
      vertex 1.42742 10.5213 7.04771
      vertex 0.770023 10.183 7.04771
      vertex 0.797161 10.086 7.04771
    endloop
  endfacet
  facet normal 0 0 1
    outer loop
      vertex 1.42742 10.5213 7.04771
      vertex 0.749221 10.2573 7.04771
      vertex 0.770023 10.183 7.04771
    endloop
  endfacet
  facet normal 0 -0 1
    outer loop
      vertex 0.749221 10.2573 7.04771
      vertex 1.42742 10.5213 7.04771
      vertex 0.681753 10.3898 7.04771
    endloop
  endfacet
  facet normal -0 0 1
    outer loop
      vertex 3.0001 4.51787 7.04771
      vertex 7.83148 1.22377 7.04771
      vertex 3.03676 4.99892 7.04771
    endloop
  endfacet
  facet normal -0 0 1
    outer loop
      vertex 2.92436 4.24736 7.04771
      vertex 7.83148 1.22377 7.04771
      vertex 3.0001 4.51787 7.04771
    endloop
  endfacet
  facet normal -0 0 1
    outer loop
      vertex 2.87002 4.05329 7.04771
      vertex 7.83148 1.22377 7.04771
      vertex 2.92436 4.24736 7.04771
    endloop
  endfacet
  facet normal -0 0 1
    outer loop
      vertex 2.74356 3.80486 7.04771
      vertex 7.83148 1.22377 7.04771
      vertex 2.87002 4.05329 7.04771
    endloop
  endfacet
  facet normal -0 0 1
    outer loop
      vertex 2.65224 3.62546 7.04771
      vertex 7.83148 1.22377 7.04771
      vertex 2.74356 3.80486 7.04771
    endloop
  endfacet
  facet normal -0 0 1
    outer loop
      vertex 2.48081 3.4098 7.04771
      vertex 7.83148 1.22377 7.04771
      vertex 2.65224 3.62546 7.04771
    endloop
  endfacet
  facet normal -0 0 1
    outer loop
      vertex 2.35625 3.25312 7.04771
      vertex 7.83148 1.22377 7.04771
      vertex 2.48081 3.4098 7.04771
    endloop
  endfacet
  facet normal 0 0 1
    outer loop
      vertex 1.82415 2.28303 7.04771
      vertex 2.35625 3.25312 7.04771
      vertex 2.1475 3.07941 7.04771
    endloop
  endfacet
  facet normal 0 0 1
    outer loop
      vertex 1.82415 2.28303 7.04771
      vertex 2.1475 3.07941 7.04771
      vertex 1.99502 2.95251 7.04771
    endloop
  endfacet
  facet normal 0 0 1
    outer loop
      vertex 1.82415 2.28303 7.04771
      vertex 1.99502 2.95251 7.04771
      vertex 1.93681 2.92194 7.04771
    endloop
  endfacet
  facet normal 0 0 1
    outer loop
      vertex 2.35625 3.25312 7.04771
      vertex 1.82415 2.28303 7.04771
      vertex 7.83148 1.22377 7.04771
    endloop
  endfacet
  facet normal 0 0 1
    outer loop
      vertex -0.933299 2.76924 7.04771
      vertex -0.846184 3.43623 7.04771
      vertex -0.864886 3.45679 7.04771
    endloop
  endfacet
  facet normal 0 0 1
    outer loop
      vertex -0.846184 3.43623 7.04771
      vertex -0.933299 2.76924 7.04771
      vertex -0.820642 3.40815 7.04771
    endloop
  endfacet
  facet normal 0 0 1
    outer loop
      vertex -1.00167 3.6915 7.04771
      vertex -0.933299 2.76924 7.04771
      vertex -0.864886 3.45679 7.04771
    endloop
  endfacet
  facet normal 0 0 1
    outer loop
      vertex -1.10152 3.86281 7.04771
      vertex -0.933299 2.76924 7.04771
      vertex -1.00167 3.6915 7.04771
    endloop
  endfacet
  facet normal 0 0 1
    outer loop
      vertex -6.94063 3.8285 7.04771
      vertex -1.10152 3.86281 7.04771
      vertex -1.18889 4.1242 7.04771
    endloop
  endfacet
  facet normal 0 0 1
    outer loop
      vertex -6.94063 3.8285 7.04771
      vertex -1.18889 4.1242 7.04771
      vertex -1.25231 4.31393 7.04771
    endloop
  endfacet
  facet normal 0 0 1
    outer loop
      vertex -6.94063 3.8285 7.04771
      vertex -1.31063 4.79045 7.04771
      vertex -6.94063 6.1715 7.04771
    endloop
  endfacet
  facet normal 0 0 1
    outer loop
      vertex -1.31063 4.79045 7.04771
      vertex -6.94063 3.8285 7.04771
      vertex -1.25231 4.31393 7.04771
    endloop
  endfacet
  facet normal 0 0 1
    outer loop
      vertex -1.10152 3.86281 7.04771
      vertex -6.94063 3.8285 7.04771
      vertex -0.933299 2.76924 7.04771
    endloop
  endfacet
  facet normal 0.83205 0 0.5547
    outer loop
      vertex 7.83148 8.77623 7.04771
      vertex 7.8315 1.22387 7.04768
      vertex 7.8315 8.77613 7.04768
    endloop
  endfacet
  facet normal 0.83205 0 0.5547
    outer loop
      vertex 7.8315 1.22387 7.04768
      vertex 7.83148 8.77623 7.04771
      vertex 7.83148 1.22377 7.04771
    endloop
  endfacet
  facet normal 0.998009 0 -0.0630771
    outer loop
      vertex 7.8315 1.22387 7.04768
      vertex 6.94063 13.8285 -7.04771
      vertex 7.8315 8.77613 7.04768
    endloop
  endfacet
  facet normal 0.998009 0 -0.0630771
    outer loop
      vertex 6.94063 13.8285 -7.04771
      vertex 7.8315 1.22387 7.04768
      vertex 6.94063 -3.8285 -7.04771
    endloop
  endfacet
  facet normal 0.980984 -0.193942 0.00751629
    outer loop
      vertex 7.83148 1.22377 7.04771
      vertex 6.94062 -3.82859 -7.04768
      vertex 7.8315 1.22387 7.04768
    endloop
  endfacet
  facet normal -0.0497996 0.282419 -0.957998
    outer loop
      vertex 0.785578 12.7432 -7.0477
      vertex 6.94062 13.8286 -7.04768
      vertex 6.94063 13.8285 -7.04771
    endloop
  endfacet
  facet normal -0.0339842 0.192734 -0.980662
    outer loop
      vertex 6.94062 13.8286 -7.04768
      vertex 0.785578 12.7432 -7.0477
      vertex 0.785568 12.7433 -7.04768
    endloop
  endfacet
  facet normal -0.0175425 0.0994884 -0.994884
    outer loop
      vertex -1.67645 12.3091 -7.04769
      vertex -7.8315 11.2239 -7.04768
      vertex -1.67645 12.3092 -7.04768
    endloop
  endfacet
  facet normal -0.163175 0.925414 0.342027
    outer loop
      vertex -1.67645 12.3092 -7.04768
      vertex -7.8315 11.2239 -7.04768
      vertex -1.30526 10.204 -1.1746
    endloop
  endfacet
  facet normal -0.163176 0.925416 0.342021
    outer loop
      vertex 6.94062 13.8286 -7.04768
      vertex 1.30524 9.79608 1.17463
      vertex 7.83148 8.77623 7.04771
    endloop
  endfacet
  facet normal -0.163176 0.925416 0.342021
    outer loop
      vertex 1.30524 9.79608 1.17463
      vertex 6.94062 13.8286 -7.04768
      vertex 0.785568 12.7433 -7.04768
    endloop
  endfacet
  facet normal 0.993981 0.106764 -0.0245538
    outer loop
      vertex 6.94063 13.8285 -7.04771
      vertex 6.94062 13.8286 -7.04768
      vertex 7.8315 8.77613 7.04768
    endloop
  endfacet
  facet normal 0.980984 0.193942 0.00751641
    outer loop
      vertex 7.8315 8.77613 7.04768
      vertex 6.94062 13.8286 -7.04768
      vertex 7.83148 8.77623 7.04771
    endloop
  endfacet
  facet normal -0.0410252 -0.232666 -0.971691
    outer loop
      vertex -1.82417 -2.28312 -7.04768
      vertex -7.8315 -1.22387 -7.04768
      vertex -1.82416 -2.28308 -7.04769
    endloop
  endfacet
  facet normal -0.0547101 -0.310278 -0.94907
    outer loop
      vertex 6.94062 -3.82859 -7.04768
      vertex 0.933293 -2.76928 -7.0477
      vertex 6.94063 -3.8285 -7.04771
    endloop
  endfacet
  facet normal -0.063422 -0.359682 -0.930917
    outer loop
      vertex 0.933293 -2.76928 -7.0477
      vertex 6.94062 -3.82859 -7.04768
      vertex 0.933283 -2.76933 -7.04768
    endloop
  endfacet
  facet normal -0.83205 0 -0.5547
    outer loop
      vertex -7.83148 -1.22377 -7.04771
      vertex -7.8315 11.2239 -7.04768
      vertex -7.83148 11.2238 -7.04771
    endloop
  endfacet
  facet normal -0.83205 -0 -0.5547
    outer loop
      vertex -7.8315 11.2239 -7.04768
      vertex -7.83148 -1.22377 -7.04771
      vertex -7.8315 -1.22387 -7.04768
    endloop
  endfacet
  facet normal -0.446795 0.850767 -0.276711
    outer loop
      vertex 1.10415 -2.09986 -7.04771
      vertex 1.93681 2.92194 7.04771
      vertex 1.99502 2.95251 7.04771
    endloop
  endfacet
  facet normal -0.446913 0.850714 -0.276685
    outer loop
      vertex 1.93681 2.92194 7.04771
      vertex 1.10415 -2.09986 -7.04771
      vertex 1.04594 -2.13044 -7.04771
    endloop
  endfacet
  facet normal -0.622713 0.748238 -0.228842
    outer loop
      vertex 1.31075 -1.92793 -7.04771
      vertex 1.99502 2.95251 7.04771
      vertex 2.1475 3.07941 7.04771
    endloop
  endfacet
  facet normal -0.622689 0.748255 -0.228849
    outer loop
      vertex 1.99502 2.95251 7.04771
      vertex 1.31075 -1.92793 -7.04771
      vertex 1.10415 -2.09986 -7.04771
    endloop
  endfacet
  facet normal -0.622669 0.74827 -0.228857
    outer loop
      vertex 1.46538 -1.79926 -7.04771
      vertex 2.1475 3.07941 7.04771
      vertex 2.35625 3.25312 7.04771
    endloop
  endfacet
  facet normal -0.622655 0.74828 -0.228861
    outer loop
      vertex 2.1475 3.07941 7.04771
      vertex 1.46538 -1.79926 -7.04771
      vertex 1.31075 -1.92793 -7.04771
    endloop
  endfacet
  facet normal -0.771243 0.613135 -0.171027
    outer loop
      vertex 1.63427 -1.5868 -7.04771
      vertex 2.35625 3.25312 7.04771
      vertex 2.48081 3.4098 7.04771
    endloop
  endfacet
  facet normal -0.771271 0.613103 -0.171015
    outer loop
      vertex 2.35625 3.25312 7.04771
      vertex 1.63427 -1.5868 -7.04771
      vertex 1.46538 -1.79926 -7.04771
    endloop
  endfacet
  facet normal -0.771278 0.613095 -0.171012
    outer loop
      vertex 1.76137 -1.42692 -7.04771
      vertex 2.48081 3.4098 7.04771
      vertex 2.65224 3.62546 7.04771
    endloop
  endfacet
  facet normal -0.771253 0.613124 -0.171023
    outer loop
      vertex 2.48081 3.4098 7.04771
      vertex 1.76137 -1.42692 -7.04771
      vertex 1.63427 -1.5868 -7.04771
    endloop
  endfacet
  facet normal -0.886194 0.4511 -0.105683
    outer loop
      vertex 1.88531 -1.18344 -7.04771
      vertex 2.65224 3.62546 7.04771
      vertex 2.74356 3.80486 7.04771
    endloop
  endfacet
  facet normal -0.886192 0.451103 -0.105684
    outer loop
      vertex 2.65224 3.62546 7.04771
      vertex 1.88531 -1.18344 -7.04771
      vertex 1.76137 -1.42692 -7.04771
    endloop
  endfacet
  facet normal -0.886192 0.451104 -0.105684
    outer loop
      vertex 1.97915 -0.999087 -7.04771
      vertex 2.74356 3.80486 7.04771
      vertex 2.87002 4.05329 7.04771
    endloop
  endfacet
  facet normal -0.886197 0.451095 -0.105681
    outer loop
      vertex 2.74356 3.80486 7.04771
      vertex 1.97915 -0.999087 -7.04771
      vertex 1.88531 -1.18344 -7.04771
    endloop
  endfacet
  facet normal -0.962348 0.269459 -0.0357622
    outer loop
      vertex 2.05297 -0.735444 -7.04771
      vertex 2.87002 4.05329 7.04771
      vertex 2.92436 4.24736 7.04771
    endloop
  endfacet
  facet normal -0.962348 0.269457 -0.0357615
    outer loop
      vertex 2.87002 4.05329 7.04771
      vertex 2.05297 -0.735444 -7.04771
      vertex 1.97915 -0.999087 -7.04771
    endloop
  endfacet
  facet normal -0.962351 0.269448 -0.035758
    outer loop
      vertex 2.10923 -0.534505 -7.04771
      vertex 2.92436 4.24736 7.04771
      vertex 3.0001 4.51787 7.04771
    endloop
  endfacet
  facet normal -0.962352 0.269445 -0.0357567
    outer loop
      vertex 2.92436 4.24736 7.04771
      vertex 2.10923 -0.534505 -7.04771
      vertex 2.05297 -0.735444 -7.04771
    endloop
  endfacet
  facet normal -0.996471 0.0759394 0.03576
    outer loop
      vertex 2.14589 -0.0534528 -7.04771
      vertex 3.0001 4.51787 7.04771
      vertex 3.03676 4.99892 7.04771
    endloop
  endfacet
  facet normal -0.996471 0.075939 0.0357601
    outer loop
      vertex 3.0001 4.51787 7.04771
      vertex 2.14589 -0.0534528 -7.04771
      vertex 2.10923 -0.534505 -7.04771
    endloop
  endfacet
  facet normal -0.987037 -0.12079 0.105679
    outer loop
      vertex 2.14216 -0.0229725 -7.04771
      vertex 3.03676 4.99892 7.04771
      vertex 3.03402 5.02131 7.04771
    endloop
  endfacet
  facet normal -0.987037 -0.120788 0.105679
    outer loop
      vertex 3.03676 4.99892 7.04771
      vertex 2.14216 -0.0229725 -7.04771
      vertex 2.14589 -0.0534528 -7.04771
    endloop
  endfacet
  facet normal -0.987042 -0.12076 0.105669
    outer loop
      vertex 2.13929 0.00049117 -7.04771
      vertex 3.03402 5.02131 7.04771
      vertex 3.03016 5.05286 7.04771
    endloop
  endfacet
  facet normal -0.987046 -0.120732 0.105659
    outer loop
      vertex 3.03402 5.02131 7.04771
      vertex 2.13929 0.00049117 -7.04771
      vertex 2.14216 -0.0229725 -7.04771
    endloop
  endfacet
  facet normal -0.163176 -0.925417 0.34202
    outer loop
      vertex 2.13929 0.00049117 -7.04771
      vertex 1.30835 5.35647 7.04771
      vertex -0.204931 0.41384 -7.04771
    endloop
  endfacet
  facet normal -0.16318 -0.925416 0.34202
    outer loop
      vertex 1.30835 5.35647 7.04771
      vertex 2.13929 0.00049117 -7.04771
      vertex 3.03016 5.05286 7.04771
    endloop
  endfacet
  facet normal -0.163176 -0.925416 0.34202
    outer loop
      vertex -0.204931 0.41384 -7.04771
      vertex -1.11924 5.78452 7.04771
      vertex -2.01011 0.732142 -7.04771
    endloop
  endfacet
  facet normal -0.163176 -0.925416 0.34202
    outer loop
      vertex -1.11924 5.78452 7.04771
      vertex -0.204931 0.41384 -7.04771
      vertex 1.30835 5.35647 7.04771
    endloop
  endfacet
  facet normal 0.88632 -0.450873 0.105593
    outer loop
      vertex -1.12947 5.76441 7.04771
      vertex -2.01011 0.732142 -7.04771
      vertex -1.11924 5.78452 7.04771
    endloop
  endfacet
  facet normal 0.886203 -0.451084 0.105676
    outer loop
      vertex -2.01011 0.732142 -7.04771
      vertex -1.12947 5.76441 7.04771
      vertex -2.02404 0.704775 -7.04771
    endloop
  endfacet
  facet normal 0.886205 -0.45108 0.105674
    outer loop
      vertex -1.14389 5.73608 7.04771
      vertex -2.02404 0.704775 -7.04771
      vertex -1.12947 5.76441 7.04771
    endloop
  endfacet
  facet normal 0.886253 -0.450994 0.105641
    outer loop
      vertex -2.02404 0.704775 -7.04771
      vertex -1.14389 5.73608 7.04771
      vertex -2.03476 0.683709 -7.04771
    endloop
  endfacet
  facet normal 0.962349 -0.269456 0.0357607
    outer loop
      vertex -1.19798 5.5429 7.04771
      vertex -2.03476 0.683709 -7.04771
      vertex -1.14389 5.73608 7.04771
    endloop
  endfacet
  facet normal 0.962353 -0.269441 0.0357553
    outer loop
      vertex -2.03476 0.683709 -7.04771
      vertex -1.19798 5.5429 7.04771
      vertex -2.10839 0.420727 -7.04771
    endloop
  endfacet
  facet normal 0.96235 -0.269451 0.0357592
    outer loop
      vertex -1.27397 5.2715 7.04771
      vertex -2.10839 0.420727 -7.04771
      vertex -1.19798 5.5429 7.04771
    endloop
  endfacet
  facet normal 0.962345 -0.269468 0.0357652
    outer loop
      vertex -2.10839 0.420727 -7.04771
      vertex -1.27397 5.2715 7.04771
      vertex -2.16484 0.219128 -7.04771
    endloop
  endfacet
  facet normal 0.996471 -0.0759394 -0.03576
    outer loop
      vertex -1.31063 4.79045 7.04771
      vertex -2.16484 0.219128 -7.04771
      vertex -1.27397 5.2715 7.04771
    endloop
  endfacet
  facet normal 0.996471 -0.0759389 -0.0357602
    outer loop
      vertex -2.16484 0.219128 -7.04771
      vertex -1.31063 4.79045 7.04771
      vertex -2.2015 -0.261925 -7.04771
    endloop
  endfacet
  facet normal 0.987035 0.120801 -0.105683
    outer loop
      vertex -1.25231 4.31393 7.04771
      vertex -2.2015 -0.261925 -7.04771
      vertex -1.31063 4.79045 7.04771
    endloop
  endfacet
  facet normal 0.987035 0.120802 -0.105684
    outer loop
      vertex -2.2015 -0.261925 -7.04771
      vertex -1.25231 4.31393 7.04771
      vertex -2.14318 -0.738439 -7.04771
    endloop
  endfacet
  facet normal 0.934446 0.312352 -0.171019
    outer loop
      vertex -1.18889 4.1242 7.04771
      vertex -2.14318 -0.738439 -7.04771
      vertex -1.25231 4.31393 7.04771
    endloop
  endfacet
  facet normal 0.93445 0.312342 -0.171016
    outer loop
      vertex -2.14318 -0.738439 -7.04771
      vertex -1.18889 4.1242 7.04771
      vertex -2.05711 -0.995939 -7.04771
    endloop
  endfacet
  facet normal 0.93445 0.312341 -0.171016
    outer loop
      vertex -1.10152 3.86281 7.04771
      vertex -2.05711 -0.995939 -7.04771
      vertex -1.18889 4.1242 7.04771
    endloop
  endfacet
  facet normal 0.934447 0.312349 -0.171018
    outer loop
      vertex -2.05711 -0.995939 -7.04771
      vertex -1.10152 3.86281 7.04771
      vertex -1.99239 -1.18956 -7.04771
    endloop
  endfacet
  facet normal 0.841026 0.490201 -0.228863
    outer loop
      vertex -1.00167 3.6915 7.04771
      vertex -1.99239 -1.18956 -7.04771
      vertex -1.10152 3.86281 7.04771
    endloop
  endfacet
  facet normal 0.841048 0.490168 -0.228853
    outer loop
      vertex -1.99239 -1.18956 -7.04771
      vertex -1.00167 3.6915 7.04771
      vertex -1.85701 -1.42185 -7.04771
    endloop
  endfacet
  facet normal 0.841059 0.490151 -0.228848
    outer loop
      vertex -0.864886 3.45679 7.04771
      vertex -1.85701 -1.42185 -7.04771
      vertex -1.00167 3.6915 7.04771
    endloop
  endfacet
  facet normal 0.84105 0.490165 -0.228852
    outer loop
      vertex -1.85701 -1.42185 -7.04771
      vertex -0.864886 3.45679 7.04771
      vertex -1.75576 -1.59558 -7.04771
    endloop
  endfacet
  facet normal 0.710859 0.646619 -0.276703
    outer loop
      vertex -0.846184 3.43623 7.04771
      vertex -1.75576 -1.59558 -7.04771
      vertex -0.864886 3.45679 7.04771
    endloop
  endfacet
  facet normal 0.71089 0.646588 -0.276694
    outer loop
      vertex -1.75576 -1.59558 -7.04771
      vertex -0.846184 3.43623 7.04771
      vertex -1.73042 -1.62344 -7.04771
    endloop
  endfacet
  facet normal 0.710864 0.646613 -0.276701
    outer loop
      vertex -0.820642 3.40815 7.04771
      vertex -1.73042 -1.62344 -7.04771
      vertex -0.846184 3.43623 7.04771
    endloop
  endfacet
  facet normal 0.710716 0.646758 -0.276743
    outer loop
      vertex -1.73042 -1.62344 -7.04771
      vertex -0.820642 3.40815 7.04771
      vertex -1.71151 -1.64422 -7.04771
    endloop
  endfacet
  facet normal 0.984808 -0.173648 -5.62946e-08
    outer loop
      vertex -1.46188 -0.228491 -1.31555
      vertex -0.820642 3.40815 7.04771
      vertex -0.933299 2.76924 7.04771
    endloop
  endfacet
  facet normal 0.984808 -0.173649 4.9643e-07
    outer loop
      vertex -1.46188 -0.228491 -1.31555
      vertex -1.71151 -1.64422 -7.04771
      vertex -0.820642 3.40815 7.04771
    endloop
  endfacet
  facet normal 0.984807 -0.173655 1.99583e-06
    outer loop
      vertex -1.82417 -2.28312 -7.04768
      vertex -1.71151 -1.64422 -7.04771
      vertex -1.46188 -0.228491 -1.31555
    endloop
  endfacet
  facet normal 0.983139 -0.173355 0.0581825
    outer loop
      vertex -1.71151 -1.64422 -7.04771
      vertex -1.82416 -2.28308 -7.04769
      vertex -1.82415 -2.28303 -7.04771
    endloop
  endfacet
  facet normal 0.945778 -0.16676 0.278738
    outer loop
      vertex -1.71151 -1.64422 -7.04771
      vertex -1.82417 -2.28312 -7.04768
      vertex -1.82416 -2.28308 -7.04769
    endloop
  endfacet
  facet normal -0.984807 0.173653 -1.08222e-06
    outer loop
      vertex 1.93681 2.92194 7.04771
      vertex 1.46186 0.228399 1.31558
      vertex 1.82415 2.28303 7.04771
    endloop
  endfacet
  facet normal -0.984806 0.173658 -3.6098e-06
    outer loop
      vertex 1.04594 -2.13044 -7.04771
      vertex 1.46186 0.228399 1.31558
      vertex 1.93681 2.92194 7.04771
    endloop
  endfacet
  facet normal -0.979551 0.172726 0.103175
    outer loop
      vertex 0.933293 -2.76928 -7.0477
      vertex 1.04594 -2.13044 -7.04771
      vertex 0.933299 -2.76924 -7.04771
    endloop
  endfacet
  facet normal -0.983139 0.173357 -0.0581782
    outer loop
      vertex 0.933283 -2.76933 -7.04768
      vertex 1.04594 -2.13044 -7.04771
      vertex 0.933293 -2.76928 -7.0477
    endloop
  endfacet
  facet normal -0.984807 0.173653 -2.32161e-06
    outer loop
      vertex 1.04594 -2.13044 -7.04771
      vertex 0.933283 -2.76933 -7.04768
      vertex 1.46186 0.228399 1.31558
    endloop
  endfacet
  facet normal 0.71074 -0.646736 -0.276735
    outer loop
      vertex 1.6895 8.54897 7.04771
      vertex 0.660958 13.45 -7.04771
      vertex 0.798633 13.6013 -7.04771
    endloop
  endfacet
  facet normal 0.710887 -0.64659 -0.276695
    outer loop
      vertex 0.660958 13.45 -7.04771
      vertex 1.6895 8.54897 7.04771
      vertex 1.55183 8.39761 7.04771
    endloop
  endfacet
  facet normal 0.841053 -0.490161 -0.228849
    outer loop
      vertex 1.91959 8.94376 7.04771
      vertex 0.798633 13.6013 -7.04771
      vertex 1.02872 13.9961 -7.04771
    endloop
  endfacet
  facet normal 0.841044 -0.490174 -0.228853
    outer loop
      vertex 0.798633 13.6013 -7.04771
      vertex 1.91959 8.94376 7.04771
      vertex 1.6895 8.54897 7.04771
    endloop
  endfacet
  facet normal 0.934469 -0.312292 -0.170999
    outer loop
      vertex 2.0662 9.38242 7.04771
      vertex 1.02872 13.9961 -7.04771
      vertex 1.17533 14.4348 -7.04771
    endloop
  endfacet
  facet normal 0.934459 -0.312317 -0.171007
    outer loop
      vertex 1.02872 13.9961 -7.04771
      vertex 2.0662 9.38242 7.04771
      vertex 1.91959 8.94376 7.04771
    endloop
  endfacet
  facet normal 0.987023 -0.120876 -0.10571
    outer loop
      vertex 2.09066 9.58217 7.04771
      vertex 1.17533 14.4348 -7.04771
      vertex 1.20831 14.7041 -7.04771
    endloop
  endfacet
  facet normal 0.987025 -0.120864 -0.105705
    outer loop
      vertex 1.17533 14.4348 -7.04771
      vertex 2.09066 9.58217 7.04771
      vertex 2.0662 9.38242 7.04771
    endloop
  endfacet
  facet normal 0.98703 -0.120835 -0.105695
    outer loop
      vertex 2.12293 9.84574 7.04771
      vertex 1.20831 14.7041 -7.04771
      vertex 1.23206 14.8981 -7.04771
    endloop
  endfacet
  facet normal 0.987028 -0.120846 -0.105699
    outer loop
      vertex 1.20831 14.7041 -7.04771
      vertex 2.12293 9.84574 7.04771
      vertex 2.09066 9.58217 7.04771
    endloop
  endfacet
  facet normal 0.996468 0.0759812 -0.0357447
    outer loop
      vertex 2.08726 10.3135 7.04771
      vertex 1.23206 14.8981 -7.04771
      vertex 1.19639 15.3659 -7.04771
    endloop
  endfacet
  facet normal 0.996468 0.0759877 -0.0357425
    outer loop
      vertex 1.23206 14.8981 -7.04771
      vertex 2.08726 10.3135 7.04771
      vertex 2.12293 9.84574 7.04771
    endloop
  endfacet
  facet normal 0.962322 0.269546 0.0357939
    outer loop
      vertex 2.04972 10.4476 7.04771
      vertex 1.19639 15.3659 -7.04771
      vertex 1.14586 15.5463 -7.04771
    endloop
  endfacet
  facet normal 0.962364 0.269404 0.035742
    outer loop
      vertex 1.19639 15.3659 -7.04771
      vertex 2.04972 10.4476 7.04771
      vertex 2.08726 10.3135 7.04771
    endloop
  endfacet
  facet normal 0.962409 0.26925 0.0356837
    outer loop
      vertex 2.00078 10.6224 7.04771
      vertex 1.14586 15.5463 -7.04771
      vertex 1.10991 15.6748 -7.04771
    endloop
  endfacet
  facet normal 0.962354 0.269437 0.0357524
    outer loop
      vertex 1.14586 15.5463 -7.04771
      vertex 2.00078 10.6224 7.04771
      vertex 2.04972 10.4476 7.04771
    endloop
  endfacet
  facet normal -0.163178 0.925416 0.342022
    outer loop
      vertex 1.10991 15.6748 -7.04771
      vertex 1.42742 10.5213 7.04771
      vertex 2.00078 10.6224 7.04771
    endloop
  endfacet
  facet normal -0.163193 0.925413 0.342021
    outer loop
      vertex 1.42742 10.5213 7.04771
      vertex 1.10991 15.6748 -7.04771
      vertex 0.338698 15.5388 -7.04771
    endloop
  endfacet
  facet normal -0.163198 0.925412 0.342021
    outer loop
      vertex 0.338698 15.5388 -7.04771
      vertex 0.681753 10.3898 7.04771
      vertex 1.42742 10.5213 7.04771
    endloop
  endfacet
  facet normal -0.163185 0.925414 0.342022
    outer loop
      vertex 0.681753 10.3898 7.04771
      vertex 0.338698 15.5388 -7.04771
      vertex -0.209116 15.4422 -7.04771
    endloop
  endfacet
  facet normal -0.886135 -0.451206 -0.105726
    outer loop
      vertex -0.141649 15.3097 -7.04771
      vertex 0.681753 10.3898 7.04771
      vertex -0.209116 15.4422 -7.04771
    endloop
  endfacet
  facet normal -0.886132 -0.451212 -0.105728
    outer loop
      vertex 0.681753 10.3898 7.04771
      vertex -0.141649 15.3097 -7.04771
      vertex 0.749221 10.2573 7.04771
    endloop
  endfacet
  facet normal -0.962374 -0.269369 -0.0357284
    outer loop
      vertex -0.113659 15.2097 -7.04771
      vertex 0.749221 10.2573 7.04771
      vertex -0.141649 15.3097 -7.04771
    endloop
  endfacet
  facet normal -0.962355 -0.269434 -0.0357524
    outer loop
      vertex 0.749221 10.2573 7.04771
      vertex -0.113659 15.2097 -7.04771
      vertex 0.770023 10.183 7.04771
    endloop
  endfacet
  facet normal -0.962397 -0.269292 -0.0356992
    outer loop
      vertex -0.0937083 15.1384 -7.04771
      vertex 0.770023 10.183 7.04771
      vertex -0.113659 15.2097 -7.04771
    endloop
  endfacet
  facet normal -0.962407 -0.269256 -0.035686
    outer loop
      vertex 0.770023 10.183 7.04771
      vertex -0.0937083 15.1384 -7.04771
      vertex 0.797161 10.086 7.04771
    endloop
  endfacet
  facet normal -0.996464 -0.0760455 0.0357213
    outer loop
      vertex -0.0858173 15.035 -7.04771
      vertex 0.797161 10.086 7.04771
      vertex -0.0937083 15.1384 -7.04771
    endloop
  endfacet
  facet normal -0.996463 -0.0760711 0.0357122
    outer loop
      vertex 0.797161 10.086 7.04771
      vertex -0.0858173 15.035 -7.04771
      vertex 0.803024 10.0092 7.04771
    endloop
  endfacet
  facet normal -0.996465 -0.0760267 0.0357283
    outer loop
      vertex -0.080179 14.9611 -7.04771
      vertex 0.803024 10.0092 7.04771
      vertex -0.0858173 15.035 -7.04771
    endloop
  endfacet
  facet normal -0.996467 -0.0760039 0.0357364
    outer loop
      vertex 0.803024 10.0092 7.04771
      vertex -0.080179 14.9611 -7.04771
      vertex 0.810691 9.90868 7.04771
    endloop
  endfacet
  facet normal -0.987035 0.120804 0.105685
    outer loop
      vertex -0.101683 14.7854 -7.04771
      vertex 0.810691 9.90868 7.04771
      vertex -0.080179 14.9611 -7.04771
    endloop
  endfacet
  facet normal -0.98703 0.120829 0.105693
    outer loop
      vertex 0.810691 9.90868 7.04771
      vertex -0.101683 14.7854 -7.04771
      vertex 0.789186 9.73301 7.04771
    endloop
  endfacet
  facet normal -0.934426 0.312401 0.171036
    outer loop
      vertex -0.157281 14.6191 -7.04771
      vertex 0.789186 9.73301 7.04771
      vertex -0.101683 14.7854 -7.04771
    endloop
  endfacet
  facet normal -0.934433 0.312384 0.17103
    outer loop
      vertex 0.789186 9.73301 7.04771
      vertex -0.157281 14.6191 -7.04771
      vertex 0.733588 9.5667 7.04771
    endloop
  endfacet
  facet normal -0.841157 0.490005 0.228802
    outer loop
      vertex -0.20802 14.532 -7.04771
      vertex 0.733588 9.5667 7.04771
      vertex -0.157281 14.6191 -7.04771
    endloop
  endfacet
  facet normal -0.84106 0.49015 0.228847
    outer loop
      vertex 0.733588 9.5667 7.04771
      vertex -0.20802 14.532 -7.04771
      vertex 0.695929 9.50208 7.04771
    endloop
  endfacet
  facet normal -0.840949 0.490316 0.228899
    outer loop
      vertex -0.244519 14.4694 -7.04771
      vertex 0.695929 9.50208 7.04771
      vertex -0.20802 14.532 -7.04771
    endloop
  endfacet
  facet normal -0.841077 0.490124 0.22884
    outer loop
      vertex 0.695929 9.50208 7.04771
      vertex -0.244519 14.4694 -7.04771
      vertex 0.64635 9.417 7.04771
    endloop
  endfacet
  facet normal -0.711175 0.646309 0.276613
    outer loop
      vertex -0.311406 14.3958 -7.04771
      vertex 0.64635 9.417 7.04771
      vertex -0.244519 14.4694 -7.04771
    endloop
  endfacet
  facet normal -0.710855 0.646623 0.276702
    outer loop
      vertex 0.64635 9.417 7.04771
      vertex -0.311406 14.3958 -7.04771
      vertex 0.59672 9.36244 7.04771
    endloop
  endfacet
  facet normal -0.710335 0.64713 0.27685
    outer loop
      vertex -0.359599 14.3429 -7.04771
      vertex 0.59672 9.36244 7.04771
      vertex -0.311406 14.3958 -7.04771
    endloop
  endfacet
  facet normal -0.710847 0.646629 0.276707
    outer loop
      vertex 0.59672 9.36244 7.04771
      vertex -0.359599 14.3429 -7.04771
      vertex 0.53127 9.29049 7.04771
    endloop
  endfacet
  facet normal -0.54962 0.774784 0.312454
    outer loop
      vertex -0.359599 14.3429 -7.04771
      vertex 0.393376 9.19267 7.04771
      vertex 0.53127 9.29049 7.04771
    endloop
  endfacet
  facet normal -0.549927 0.774588 0.312399
    outer loop
      vertex 0.393376 9.19267 7.04771
      vertex -0.359599 14.3429 -7.04771
      vertex -0.497494 14.245 -7.04771
    endloop
  endfacet
  facet normal -0.364372 0.869088 0.334543
    outer loop
      vertex -0.497494 14.245 -7.04771
      vertex 0.238698 9.12782 7.04771
      vertex 0.393376 9.19267 7.04771
    endloop
  endfacet
  facet normal -0.36413 0.869181 0.334564
    outer loop
      vertex 0.238698 9.12782 7.04771
      vertex -0.497494 14.245 -7.04771
      vertex -0.652172 14.1802 -7.04771
    endloop
  endfacet
  facet normal -0.163174 0.925417 0.342021
    outer loop
      vertex -0.652172 14.1802 -7.04771
      vertex 0.0740018 9.09878 7.04771
      vertex 0.238698 9.12782 7.04771
    endloop
  endfacet
  facet normal -0.163501 0.92536 0.342017
    outer loop
      vertex 0.0740018 9.09878 7.04771
      vertex -0.652172 14.1802 -7.04771
      vertex -0.816868 14.1511 -7.04771
    endloop
  endfacet
  facet normal 0.045118 0.941299 0.334545
    outer loop
      vertex -0.816868 14.1511 -7.04771
      vertex -0.0935284 9.10681 7.04771
      vertex 0.0740018 9.09878 7.04771
    endloop
  endfacet
  facet normal 0.0455109 0.941289 0.334521
    outer loop
      vertex -0.0935284 9.10681 7.04771
      vertex -0.816868 14.1511 -7.04771
      vertex -0.984398 14.1592 -7.04771
    endloop
  endfacet
  facet normal 0.251511 0.916034 0.312449
    outer loop
      vertex -0.984398 14.1592 -7.04771
      vertex -0.163785 9.1261 7.04771
      vertex -0.0935284 9.10681 7.04771
    endloop
  endfacet
  facet normal 0.251444 0.916049 0.312458
    outer loop
      vertex -0.163785 9.1261 7.04771
      vertex -0.984398 14.1592 -7.04771
      vertex -1.07912 14.1852 -7.04771
    endloop
  endfacet
  facet normal 0.251475 0.916042 0.312454
    outer loop
      vertex -1.07912 14.1852 -7.04771
      vertex -0.256564 9.15157 7.04771
      vertex -0.163785 9.1261 7.04771
    endloop
  endfacet
  facet normal 0.25081 0.916193 0.312546
    outer loop
      vertex -0.256564 9.15157 7.04771
      vertex -1.07912 14.1852 -7.04771
      vertex -1.14743 14.2039 -7.04771
    endloop
  endfacet
  facet normal 0.446809 0.850762 0.276706
    outer loop
      vertex -1.14743 14.2039 -7.04771
      vertex -0.321855 9.18586 7.04771
      vertex -0.256564 9.15157 7.04771
    endloop
  endfacet
  facet normal 0.44742 0.850484 0.276571
    outer loop
      vertex -0.321855 9.18586 7.04771
      vertex -1.14743 14.2039 -7.04771
      vertex -1.23544 14.2502 -7.04771
    endloop
  endfacet
  facet normal 0.446824 0.850754 0.276706
    outer loop
      vertex -1.23544 14.2502 -7.04771
      vertex -0.407973 9.23109 7.04771
      vertex -0.321855 9.18586 7.04771
    endloop
  endfacet
  facet normal 0.446843 0.850745 0.276702
    outer loop
      vertex -0.407973 9.23109 7.04771
      vertex -1.23544 14.2502 -7.04771
      vertex -1.29884 14.2835 -7.04771
    endloop
  endfacet
  facet normal 0.62273 0.748225 0.228838
    outer loop
      vertex -1.29884 14.2835 -7.04771
      vertex -0.54115 9.34193 7.04771
      vertex -0.407973 9.23109 7.04771
    endloop
  endfacet
  facet normal 0.622582 0.748334 0.228884
    outer loop
      vertex -0.54115 9.34193 7.04771
      vertex -1.29884 14.2835 -7.04771
      vertex -1.43202 14.3943 -7.04771
    endloop
  endfacet
  facet normal 0.771193 0.61319 0.171051
    outer loop
      vertex -0.588305 9.40124 7.04771
      vertex -1.43202 14.3943 -7.04771
      vertex -1.49555 14.4742 -7.04771
    endloop
  endfacet
  facet normal 0.771217 0.613164 0.17104
    outer loop
      vertex -1.43202 14.3943 -7.04771
      vertex -0.588305 9.40124 7.04771
      vertex -0.54115 9.34193 7.04771
    endloop
  endfacet
  facet normal 0.771471 0.612876 0.170922
    outer loop
      vertex -0.650277 9.47919 7.04771
      vertex -1.49555 14.4742 -7.04771
      vertex -1.54115 14.5316 -7.04771
    endloop
  endfacet
  facet normal 0.771232 0.613147 0.171032
    outer loop
      vertex -1.49555 14.4742 -7.04771
      vertex -0.650277 9.47919 7.04771
      vertex -0.588305 9.40124 7.04771
    endloop
  endfacet
  facet normal 0.886194 0.451101 0.105684
    outer loop
      vertex -0.685015 9.54743 7.04771
      vertex -1.54115 14.5316 -7.04771
      vertex -1.58793 14.6235 -7.04771
    endloop
  endfacet
  facet normal 0.886184 0.451118 0.105691
    outer loop
      vertex -1.54115 14.5316 -7.04771
      vertex -0.685015 9.54743 7.04771
      vertex -0.650277 9.47919 7.04771
    endloop
  endfacet
  facet normal 0.886102 0.451266 0.105748
    outer loop
      vertex -0.730566 9.63691 7.04771
      vertex -1.58793 14.6235 -7.04771
      vertex -1.62144 14.6893 -7.04771
    endloop
  endfacet
  facet normal 0.886181 0.451123 0.105693
    outer loop
      vertex -1.58793 14.6235 -7.04771
      vertex -0.730566 9.63691 7.04771
      vertex -0.685015 9.54743 7.04771
    endloop
  endfacet
  facet normal 0.962385 0.269333 0.035715
    outer loop
      vertex -0.778507 9.80819 7.04771
      vertex -1.62144 14.6893 -7.04771
      vertex -1.66938 14.8606 -7.04771
    endloop
  endfacet
  facet normal 0.962375 0.269367 0.0357274
    outer loop
      vertex -1.62144 14.6893 -7.04771
      vertex -0.778507 9.80819 7.04771
      vertex -0.730566 9.63691 7.04771
    endloop
  endfacet
  facet normal 0.996465 0.0760415 -0.0357233
    outer loop
      vertex -0.792036 9.98553 7.04771
      vertex -1.66938 14.8606 -7.04771
      vertex -1.68291 15.0379 -7.04771
    endloop
  endfacet
  facet normal 0.996466 0.0760189 -0.0357312
    outer loop
      vertex -1.66938 14.8606 -7.04771
      vertex -0.792036 9.98553 7.04771
      vertex -0.778507 9.80819 7.04771
    endloop
  endfacet
  facet normal 0.987039 -0.120778 -0.105675
    outer loop
      vertex -0.784188 10.0497 7.04771
      vertex -1.68291 15.0379 -7.04771
      vertex -1.67235 15.1242 -7.04771
    endloop
  endfacet
  facet normal 0.987049 -0.120716 -0.105654
    outer loop
      vertex -1.68291 15.0379 -7.04771
      vertex -0.784188 10.0497 7.04771
      vertex -0.792036 9.98553 7.04771
    endloop
  endfacet
  facet normal 0.987016 -0.120922 -0.105725
    outer loop
      vertex -0.77397 10.1332 7.04771
      vertex -1.67235 15.1242 -7.04771
      vertex -1.66484 15.1855 -7.04771
    endloop
  endfacet
  facet normal 0.987038 -0.120785 -0.105678
    outer loop
      vertex -1.67235 15.1242 -7.04771
      vertex -0.77397 10.1332 7.04771
      vertex -0.784188 10.0497 7.04771
    endloop
  endfacet
  facet normal -0.163211 0.925412 0.342016
    outer loop
      vertex -1.66484 15.1855 -7.04771
      vertex -2.09299 9.90057 7.04771
      vertex -0.77397 10.1332 7.04771
    endloop
  endfacet
  facet normal -0.16319 0.925415 0.342018
    outer loop
      vertex -2.09299 9.90057 7.04771
      vertex -1.66484 15.1855 -7.04771
      vertex -2.98386 14.9529 -7.04771
    endloop
  endfacet
  facet normal -0.996467 -0.075997 0.0357393
    outer loop
      vertex -2.95947 14.6331 -7.04771
      vertex -2.09299 9.90057 7.04771
      vertex -2.98386 14.9529 -7.04771
    endloop
  endfacet
  facet normal -0.996468 -0.0759828 0.0357442
    outer loop
      vertex -2.09299 9.90057 7.04771
      vertex -2.95947 14.6331 -7.04771
      vertex -2.0686 9.58071 7.04771
    endloop
  endfacet
  facet normal -0.962364 -0.269403 -0.0357414
    outer loop
      vertex -2.88579 14.3699 -7.04771
      vertex -2.0686 9.58071 7.04771
      vertex -2.95947 14.6331 -7.04771
    endloop
  endfacet
  facet normal -0.96237 -0.269381 -0.0357334
    outer loop
      vertex -2.0686 9.58071 7.04771
      vertex -2.88579 14.3699 -7.04771
      vertex -2.01386 9.38515 7.04771
    endloop
  endfacet
  facet normal -0.962387 -0.269325 -0.0357127
    outer loop
      vertex -2.83301 14.1813 -7.04771
      vertex -2.01386 9.38515 7.04771
      vertex -2.88579 14.3699 -7.04771
    endloop
  endfacet
  facet normal -0.962362 -0.269412 -0.0357435
    outer loop
      vertex -2.01386 9.38515 7.04771
      vertex -2.83301 14.1813 -7.04771
      vertex -1.94214 9.12896 7.04771
    endloop
  endfacet
  facet normal -0.886151 -0.451178 -0.105712
    outer loop
      vertex -2.70995 13.9396 -7.04771
      vertex -1.94214 9.12896 7.04771
      vertex -2.83301 14.1813 -7.04771
    endloop
  endfacet
  facet normal -0.886163 -0.451156 -0.105704
    outer loop
      vertex -1.94214 9.12896 7.04771
      vertex -2.70995 13.9396 -7.04771
      vertex -1.85079 8.94953 7.04771
    endloop
  endfacet
  facet normal -0.886113 -0.451246 -0.105739
    outer loop
      vertex -2.62124 13.7654 -7.04771
      vertex -1.85079 8.94953 7.04771
      vertex -2.70995 13.9396 -7.04771
    endloop
  endfacet
  facet normal -0.88618 -0.451126 -0.105694
    outer loop
      vertex -1.85079 8.94953 7.04771
      vertex -2.62124 13.7654 -7.04771
      vertex -1.73037 8.71298 7.04771
    endloop
  endfacet
  facet normal -0.771318 -0.61305 -0.170995
    outer loop
      vertex -2.33344 13.4033 -7.04771
      vertex -1.73037 8.71298 7.04771
      vertex -2.62124 13.7654 -7.04771
    endloop
  endfacet
  facet normal -0.771283 -0.613089 -0.171009
    outer loop
      vertex -1.73037 8.71298 7.04771
      vertex -2.33344 13.4033 -7.04771
      vertex -1.44257 8.35092 7.04771
    endloop
  endfacet
  facet normal -0.622783 -0.748187 -0.228819
    outer loop
      vertex -2.13029 13.2342 -7.04771
      vertex -1.44257 8.35092 7.04771
      vertex -2.33344 13.4033 -7.04771
    endloop
  endfacet
  facet normal -0.622692 -0.748254 -0.228847
    outer loop
      vertex -1.44257 8.35092 7.04771
      vertex -2.13029 13.2342 -7.04771
      vertex -1.29204 8.22565 7.04771
    endloop
  endfacet
  facet normal -0.622568 -0.748345 -0.228887
    outer loop
      vertex -1.9822 13.111 -7.04771
      vertex -1.29204 8.22565 7.04771
      vertex -2.13029 13.2342 -7.04771
    endloop
  endfacet
  facet normal -0.62267 -0.74827 -0.228856
    outer loop
      vertex -1.29204 8.22565 7.04771
      vertex -1.9822 13.111 -7.04771
      vertex -1.09133 8.05863 7.04771
    endloop
  endfacet
  facet normal -0.446686 -0.850817 -0.276735
    outer loop
      vertex -1.80106 13.0159 -7.04771
      vertex -1.09133 8.05863 7.04771
      vertex -1.9822 13.111 -7.04771
    endloop
  endfacet
  facet normal -0.446841 -0.850746 -0.276703
    outer loop
      vertex -1.09133 8.05863 7.04771
      vertex -1.80106 13.0159 -7.04771
      vertex -0.910192 7.96349 7.04771
    endloop
  endfacet
  facet normal -0.984812 -0.173626 7.78013e-06
    outer loop
      vertex -1.70806 12.4884 -7.04771
      vertex -0.910192 7.96349 7.04771
      vertex -1.80106 13.0159 -7.04771
    endloop
  endfacet
  facet normal -0.984808 -0.173648 1.93583e-07
    outer loop
      vertex -0.910192 7.96349 7.04771
      vertex -1.70806 12.4884 -7.04771
      vertex -0.841345 7.57304 7.04771
    endloop
  endfacet
  facet normal -0.49194 -0.0866308 0.866308
    outer loop
      vertex -1.70806 12.4884 -7.04771
      vertex -1.67645 12.3091 -7.04769
      vertex -1.67645 12.3092 -7.04768
    endloop
  endfacet
  facet normal -0.883504 -0.155808 -0.441752
    outer loop
      vertex -1.67645 12.3091 -7.04769
      vertex -1.70806 12.4884 -7.04771
      vertex -1.67644 12.3091 -7.04771
    endloop
  endfacet
  facet normal -0.984796 -0.173713 -2.63176e-05
    outer loop
      vertex -1.30526 10.204 -1.1746
      vertex -1.70806 12.4884 -7.04771
      vertex -1.67645 12.3092 -7.04768
    endloop
  endfacet
  facet normal -0.98481 -0.173635 4.9484e-06
    outer loop
      vertex -1.30526 10.204 -1.1746
      vertex -0.841345 7.57304 7.04771
      vertex -1.70806 12.4884 -7.04771
    endloop
  endfacet
  facet normal -0.984808 -0.173646 1.3328e-06
    outer loop
      vertex -0.841345 7.57304 7.04771
      vertex -1.30526 10.204 -1.1746
      vertex -0.785584 7.2568 7.04771
    endloop
  endfacet
  facet normal 0.984811 0.173631 -6.23097e-06
    outer loop
      vertex 0.729449 13.0616 -7.04771
      vertex 1.30524 9.79608 1.17463
      vertex 0.785568 12.7433 -7.04768
    endloop
  endfacet
  facet normal 0.984809 0.17364 -2.37182e-06
    outer loop
      vertex 1.64463 7.87129 7.04771
      vertex 1.30524 9.79608 1.17463
      vertex 0.729449 13.0616 -7.04771
    endloop
  endfacet
  facet normal 0.984801 0.173689 1.41217e-05
    outer loop
      vertex 1.30524 9.79608 1.17463
      vertex 1.64463 7.87129 7.04771
      vertex 1.67644 7.69093 7.04771
    endloop
  endfacet
  facet normal 0.921939 0.162513 -0.351593
    outer loop
      vertex 0.785578 12.7432 -7.0477
      vertex 0.729449 13.0616 -7.04771
      vertex 0.785568 12.7433 -7.04768
    endloop
  endfacet
  facet normal 0.847859 0.14948 0.508715
    outer loop
      vertex 0.729449 13.0616 -7.04771
      vertex 0.785578 12.7432 -7.0477
      vertex 0.785584 12.7432 -7.04771
    endloop
  endfacet
  facet normal 0.984805 0.173662 5.13726e-06
    outer loop
      vertex 1.55183 8.39761 7.04771
      vertex 0.729449 13.0616 -7.04771
      vertex 0.660958 13.45 -7.04771
    endloop
  endfacet
  facet normal 0.984809 0.17364 -2.29598e-06
    outer loop
      vertex 0.729449 13.0616 -7.04771
      vertex 1.55183 8.39761 7.04771
      vertex 1.64463 7.87129 7.04771
    endloop
  endfacet
endsolid OpenSCAD_Model
