solid OpenSCAD_Model
  facet normal 0 0 -1
    outer loop
      vertex 5.33 2.25999 0
      vertex 3.56248 4.56345 0
      vertex 5.37743 2.71115 0
    endloop
  endfacet
  facet normal 0 0 -1
    outer loop
      vertex 6.04799 0.647385 0
      vertex 6.10001 0.609589 0
      vertex 6.10001 -1.52588e-05 0
    endloop
  endfacet
  facet normal 0 0 -1
    outer loop
      vertex 5.37743 2.71115 0
      vertex 3.56248 4.56345 0
      vertex 4.01054 4.49249 0
    endloop
  endfacet
  facet normal -0 -0 -1
    outer loop
      vertex 6.04799 0.647385 0
      vertex 6.10001 -1.52588e-05 0
      vertex 5.74445 0.984512 0
    endloop
  endfacet
  facet normal 0 0 -1
    outer loop
      vertex 0 0 0
      vertex 5.51761 1.37738 0
      vertex 5.74445 0.984512 0
    endloop
  endfacet
  facet normal -0 0 -1
    outer loop
      vertex 5.3933 2.75999 0
      vertex 5.37743 2.71115 0
      vertex 4.06183 4.49518 0
    endloop
  endfacet
  facet normal 0 -0 -1
    outer loop
      vertex 5.15234 8.56502 0
      vertex 5.3933 2.75999 0
      vertex 4.06183 4.49518 0
    endloop
  endfacet
  facet normal 0 0 -1
    outer loop
      vertex 5.15234 8.56502 0
      vertex 9.6067 2.75999 0
      vertex 5.3933 2.75999 0
    endloop
  endfacet
  facet normal 0 -0 -1
    outer loop
      vertex 14.9027 7.18433 0
      vertex 15.0517 7.1084 0
      vertex 14.5823 5.88541 0
    endloop
  endfacet
  facet normal 0 0 -1
    outer loop
      vertex 9.67 2.25999 0
      vertex 9.62257 2.71115 0
      vertex 13.3825 6.03705 0
    endloop
  endfacet
  facet normal 0 0 -1
    outer loop
      vertex 15.0001 1.52588e-05 0
      vertex 9.67 2.25999 0
      vertex 13.3825 6.03705 0
    endloop
  endfacet
  facet normal 0 0 -1
    outer loop
      vertex 15.0001 1.52588e-05 0
      vertex 9.62257 1.80884 0
      vertex 9.67 2.25999 0
    endloop
  endfacet
  facet normal 0 0 -1
    outer loop
      vertex 15.0001 1.52588e-05 0
      vertex 9.48239 1.37738 0
      vertex 9.62257 1.80884 0
    endloop
  endfacet
  facet normal 0 0 -1
    outer loop
      vertex 8.89999 0 0
      vertex 9.25555 0.984512 0
      vertex 15.0001 1.52588e-05 0
    endloop
  endfacet
  facet normal 0 0 -1
    outer loop
      vertex 8.89999 0 0
      vertex 8.95201 0.647385 0
      vertex 9.25555 0.984512 0
    endloop
  endfacet
  facet normal 0 0 -1
    outer loop
      vertex 8.89999 0 0
      vertex 8.89999 0.609589 0
      vertex 8.95201 0.647385 0
    endloop
  endfacet
  facet normal 0 0 -1
    outer loop
      vertex 15.0001 1.52588e-05 0
      vertex 9.25555 0.984512 0
      vertex 9.48239 1.37738 0
    endloop
  endfacet
  facet normal 0 0 -1
    outer loop
      vertex 13.3867 8.62639 0
      vertex 14.5657 8.0623 0
      vertex 14.5395 7.89711 0
    endloop
  endfacet
  facet normal 0 0 -1
    outer loop
      vertex 13.3825 6.03705 0
      vertex 9.62257 2.71115 0
      vertex 9.6067 2.75999 0
    endloop
  endfacet
  facet normal 0 0 -1
    outer loop
      vertex 15.2133 7.06509 0
      vertex 15.0083 5.77124 0
      vertex 14.5823 5.88541 0
    endloop
  endfacet
  facet normal -0 0 -1
    outer loop
      vertex 15.8845 5.81715 0
      vertex 15.4489 5.74814 0
      vertex 15.3803 7.05635 0
    endloop
  endfacet
  facet normal 0 -0 -1
    outer loop
      vertex 15.5455 7.08252 0
      vertex 15.8845 5.81715 0
      vertex 15.3803 7.05635 0
    endloop
  endfacet
  facet normal 0 -0 -1
    outer loop
      vertex 15.7016 7.14244 0
      vertex 16.1661 5.92525 0
      vertex 15.5455 7.08252 0
    endloop
  endfacet
  facet normal 0 0 -1
    outer loop
      vertex 15.7016 7.14244 0
      vertex 15.8195 7.21898 0
      vertex 16.1661 5.92525 0
    endloop
  endfacet
  facet normal 0 0 -1
    outer loop
      vertex 15.5455 7.08252 0
      vertex 16.1661 5.92525 0
      vertex 15.8845 5.81715 0
    endloop
  endfacet
  facet normal -0 -0 -1
    outer loop
      vertex 15.3803 7.05635 0
      vertex 15.4489 5.74814 0
      vertex 15.2133 7.06509 0
    endloop
  endfacet
  facet normal 0 -0 -1
    outer loop
      vertex 15.2133 7.06509 0
      vertex 15.4489 5.74814 0
      vertex 15.0083 5.77124 0
    endloop
  endfacet
  facet normal 0 -0 -1
    outer loop
      vertex 15.0517 7.1084 0
      vertex 15.2133 7.06509 0
      vertex 14.5823 5.88541 0
    endloop
  endfacet
  facet normal 0 0 -1
    outer loop
      vertex 14.0338 6.21156 0
      vertex 14.9027 7.18433 0
      vertex 14.1892 6.08565 0
    endloop
  endfacet
  facet normal 0 0 -1
    outer loop
      vertex 14.9027 7.18433 0
      vertex 14.5823 5.88541 0
      vertex 14.1892 6.08565 0
    endloop
  endfacet
  facet normal 0 0 -1
    outer loop
      vertex 14.0338 6.21156 0
      vertex 14.7728 7.28957 0
      vertex 14.9027 7.18433 0
    endloop
  endfacet
  facet normal 0 0 -1
    outer loop
      vertex 14.0338 6.21156 0
      vertex 14.6675 7.41954 0
      vertex 14.7728 7.28957 0
    endloop
  endfacet
  facet normal 0 0 -1
    outer loop
      vertex 14.0338 6.21156 0
      vertex 14.5916 7.56856 0
      vertex 14.6675 7.41954 0
    endloop
  endfacet
  facet normal -0 0 -1
    outer loop
      vertex 14.0338 6.21156 0
      vertex 13.3825 6.03705 0
      vertex 14.5916 7.56856 0
    endloop
  endfacet
  facet normal -0 0 -1
    outer loop
      vertex 14.5916 7.56856 0
      vertex 13.3825 6.03705 0
      vertex 14.5483 7.7301 0
    endloop
  endfacet
  facet normal -0 0 -1
    outer loop
      vertex 14.6256 8.21843 0
      vertex 14.5657 8.0623 0
      vertex 13.3867 8.62639 0
    endloop
  endfacet
  facet normal 0 -0 -1
    outer loop
      vertex 13.6987 9.18311 0
      vertex 14.6256 8.21843 0
      vertex 13.4584 8.81317 0
    endloop
  endfacet
  facet normal 0 0 -1
    outer loop
      vertex 14.835 8.47696 0
      vertex 13.6987 9.18311 0
      vertex 14.0106 9.49501 0
    endloop
  endfacet
  facet normal -0 0 -1
    outer loop
      vertex 14.9752 8.56805 0
      vertex 14.835 8.47696 0
      vertex 14.0106 9.49501 0
    endloop
  endfacet
  facet normal 0 -0 -1
    outer loop
      vertex 14.3805 9.73526 0
      vertex 14.9752 8.56805 0
      vertex 14.0106 9.49501 0
    endloop
  endfacet
  facet normal 0 0 -1
    outer loop
      vertex 14.3805 9.73526 0
      vertex 14.7923 9.89334 0
      vertex 14.9752 8.56805 0
    endloop
  endfacet
  facet normal 0 0 -1
    outer loop
      vertex 14.9752 8.56805 0
      vertex 14.7923 9.89334 0
      vertex 15.1314 8.62798 0
    endloop
  endfacet
  facet normal -0 0 -1
    outer loop
      vertex 14.835 8.47696 0
      vertex 14.7167 8.35869 0
      vertex 13.6987 9.18311 0
    endloop
  endfacet
  facet normal 0 -0 -1
    outer loop
      vertex 15.0902 9.94052 0
      vertex 15.1314 8.62798 0
      vertex 14.7923 9.89334 0
    endloop
  endfacet
  facet normal 0 0 -1
    outer loop
      vertex 15.0902 9.94052 0
      vertex 15.2965 8.65414 0
      vertex 15.1314 8.62798 0
    endloop
  endfacet
  facet normal 0 0 -1
    outer loop
      vertex 15.0902 9.94052 0
      vertex 15.4369 8.64679 0
      vertex 15.2965 8.65414 0
    endloop
  endfacet
  facet normal 0 0 -1
    outer loop
      vertex 13.6987 9.18311 0
      vertex 14.7167 8.35869 0
      vertex 14.6256 8.21843 0
    endloop
  endfacet
  facet normal 0 -0 -1
    outer loop
      vertex 13.4584 8.81317 0
      vertex 14.6256 8.21843 0
      vertex 13.3867 8.62639 0
    endloop
  endfacet
  facet normal 0 0 -1
    outer loop
      vertex 2.8923 8.43895 0
      vertex 2.30348 8.59673 0
      vertex 2.94228 8.47942 0
    endloop
  endfacet
  facet normal 0 0 -1
    outer loop
      vertex 13.3867 8.62639 0
      vertex 14.5395 7.89711 0
      vertex 14.5483 7.7301 0
    endloop
  endfacet
  facet normal 0 0 -1
    outer loop
      vertex 13.3825 6.03705 0
      vertex 12.7354 8.45187 0
      vertex 14.5483 7.7301 0
    endloop
  endfacet
  facet normal -0 0 -1
    outer loop
      vertex 13.3825 6.03705 0
      vertex 9.6067 2.75999 0
      vertex 12.7354 8.45187 0
    endloop
  endfacet
  facet normal 0 0 -1
    outer loop
      vertex 12.7354 8.45187 0
      vertex 13.3867 8.62639 0
      vertex 14.5483 7.7301 0
    endloop
  endfacet
  facet normal -0 0 -1
    outer loop
      vertex 12.7354 8.45187 0
      vertex 9.6067 2.75999 0
      vertex 5.15234 8.56502 0
    endloop
  endfacet
  facet normal 0 0 -1
    outer loop
      vertex 5.37743 2.71115 0
      vertex 4.01054 4.49249 0
      vertex 4.06183 4.49518 0
    endloop
  endfacet
  facet normal -0 0 -1
    outer loop
      vertex 3.34647 8.68536 0
      vertex 2.30348 8.59673 0
      vertex 3.88228 14.4889 0
    endloop
  endfacet
  facet normal 0 0 -1
    outer loop
      vertex 2.94228 8.47942 0
      vertex 2.30348 8.59673 0
      vertex 3.34647 8.68536 0
    endloop
  endfacet
  facet normal 0 0 -1
    outer loop
      vertex 3.34647 8.68536 0
      vertex 3.88228 14.4889 0
      vertex 3.78467 8.80278 0
    endloop
  endfacet
  facet normal 0 0 -1
    outer loop
      vertex 3.78467 8.80278 0
      vertex 3.88228 14.4889 0
      vertex 4.2377 8.82652 0
    endloop
  endfacet
  facet normal 0 0 -1
    outer loop
      vertex 4.68576 8.75557 0
      vertex 3.88228 14.4889 0
      vertex 5.10927 8.59299 0
    endloop
  endfacet
  facet normal 0 0 -1
    outer loop
      vertex 4.2377 8.82652 0
      vertex 3.88228 14.4889 0
      vertex 4.68576 8.75557 0
    endloop
  endfacet
  facet normal 0 0 -1
    outer loop
      vertex 5.10927 8.59299 0
      vertex 3.88228 14.4889 0
      vertex 5.15234 8.56502 0
    endloop
  endfacet
  facet normal 0 0 -1
    outer loop
      vertex 5.15234 8.56502 0
      vertex 3.88228 14.4889 0
      vertex 11.1178 14.4889 0
    endloop
  endfacet
  facet normal 0 0 -1
    outer loop
      vertex 12.7354 8.45187 0
      vertex 5.15234 8.56502 0
      vertex 11.1178 14.4889 0
    endloop
  endfacet
  facet normal 0 0 -1
    outer loop
      vertex 0 0 0
      vertex 3.13898 4.72603 0
      vertex 3.56248 4.56345 0
    endloop
  endfacet
  facet normal 0 0 -1
    outer loop
      vertex 0 0 0
      vertex 3.56248 4.56345 0
      vertex 5.33 2.25999 0
    endloop
  endfacet
  facet normal 0 0 -1
    outer loop
      vertex 0 0 0
      vertex 2.7585 4.9731 0
      vertex 3.13898 4.72603 0
    endloop
  endfacet
  facet normal -0 0 -1
    outer loop
      vertex 5.37743 1.80884 0
      vertex 0 0 0
      vertex 5.33 2.25999 0
    endloop
  endfacet
  facet normal 0 -0 -1
    outer loop
      vertex 5.37743 1.80884 0
      vertex 5.51761 1.37738 0
      vertex 0 0 0
    endloop
  endfacet
  facet normal -0 0 -1
    outer loop
      vertex 2.43773 5.29388 0
      vertex 0 0 0
      vertex 1.5788 5.89215 0
    endloop
  endfacet
  facet normal 0 -0 -1
    outer loop
      vertex 2.43773 5.29388 0
      vertex 2.7585 4.9731 0
      vertex 0 0 0
    endloop
  endfacet
  facet normal 0 0 -1
    outer loop
      vertex 1.5788 5.89215 0
      vertex 2.19066 5.67435 0
      vertex 2.43773 5.29388 0
    endloop
  endfacet
  facet normal 0 0 -1
    outer loop
      vertex 1.5788 5.89215 0
      vertex 2.1676 5.73438 0
      vertex 2.19066 5.67435 0
    endloop
  endfacet
  facet normal 0 0 -1
    outer loop
      vertex 0 0 0
      vertex 5.74445 0.984512 0
      vertex 6.10001 -1.52588e-05 0
    endloop
  endfacet
  facet normal 0 0 1
    outer loop
      vertex 5.37743 2.71115 15
      vertex 3.56248 4.56345 15
      vertex 5.33 2.25999 15
    endloop
  endfacet
  facet normal 0 -0 1
    outer loop
      vertex 6.10001 -1.52588e-05 15
      vertex 6.10001 0.609589 15
      vertex 6.04799 0.647385 15
    endloop
  endfacet
  facet normal 0 0 1
    outer loop
      vertex 4.01054 4.49249 15
      vertex 3.56248 4.56345 15
      vertex 5.37743 2.71115 15
    endloop
  endfacet
  facet normal 0 0 1
    outer loop
      vertex 5.74445 0.984512 15
      vertex 6.10001 -1.52588e-05 15
      vertex 6.04799 0.647385 15
    endloop
  endfacet
  facet normal 0 0 1
    outer loop
      vertex 5.74445 0.984512 15
      vertex 5.51761 1.37738 15
      vertex 0 0 15
    endloop
  endfacet
  facet normal 0 0 1
    outer loop
      vertex 4.06183 4.49518 15
      vertex 5.37743 2.71115 15
      vertex 5.3933 2.75999 15
    endloop
  endfacet
  facet normal -0 0 1
    outer loop
      vertex 4.06183 4.49518 15
      vertex 5.3933 2.75999 15
      vertex 5.15234 8.56502 15
    endloop
  endfacet
  facet normal 0 -0 1
    outer loop
      vertex 5.3933 2.75999 15
      vertex 9.6067 2.75999 15
      vertex 5.15234 8.56502 15
    endloop
  endfacet
  facet normal 0 0 1
    outer loop
      vertex 14.5823 5.88541 15
      vertex 15.0517 7.1084 15
      vertex 14.9027 7.18433 15
    endloop
  endfacet
  facet normal 0 0 1
    outer loop
      vertex 13.3825 6.03705 15
      vertex 9.62257 2.71115 15
      vertex 9.67 2.25999 15
    endloop
  endfacet
  facet normal 0 0 1
    outer loop
      vertex 13.3825 6.03705 15
      vertex 9.67 2.25999 15
      vertex 15.0001 1.52588e-05 15
    endloop
  endfacet
  facet normal 0 0 1
    outer loop
      vertex 9.67 2.25999 15
      vertex 9.62257 1.80884 15
      vertex 15.0001 1.52588e-05 15
    endloop
  endfacet
  facet normal 0 0 1
    outer loop
      vertex 9.62257 1.80884 15
      vertex 9.48239 1.37738 15
      vertex 15.0001 1.52588e-05 15
    endloop
  endfacet
  facet normal 0 0 1
    outer loop
      vertex 15.0001 1.52588e-05 15
      vertex 9.25555 0.984512 15
      vertex 8.89999 0 15
    endloop
  endfacet
  facet normal 0 0 1
    outer loop
      vertex 9.25555 0.984512 15
      vertex 8.95201 0.647385 15
      vertex 8.89999 0 15
    endloop
  endfacet
  facet normal 0 0 1
    outer loop
      vertex 8.95201 0.647385 15
      vertex 8.89999 0.609589 15
      vertex 8.89999 0 15
    endloop
  endfacet
  facet normal 0 0 1
    outer loop
      vertex 9.48239 1.37738 15
      vertex 9.25555 0.984512 15
      vertex 15.0001 1.52588e-05 15
    endloop
  endfacet
  facet normal 0 -0 1
    outer loop
      vertex 14.5395 7.89711 15
      vertex 14.5657 8.0623 15
      vertex 13.3867 8.62639 15
    endloop
  endfacet
  facet normal -0 0 1
    outer loop
      vertex 9.6067 2.75999 15
      vertex 9.62257 2.71115 15
      vertex 13.3825 6.03705 15
    endloop
  endfacet
  facet normal -0 0 1
    outer loop
      vertex 14.5823 5.88541 15
      vertex 15.0083 5.77124 15
      vertex 15.2133 7.06509 15
    endloop
  endfacet
  facet normal 0 0 1
    outer loop
      vertex 15.3803 7.05635 15
      vertex 15.4489 5.74814 15
      vertex 15.8845 5.81715 15
    endloop
  endfacet
  facet normal -0 0 1
    outer loop
      vertex 15.3803 7.05635 15
      vertex 15.8845 5.81715 15
      vertex 15.5455 7.08252 15
    endloop
  endfacet
  facet normal -0 0 1
    outer loop
      vertex 15.5455 7.08252 15
      vertex 16.1661 5.92525 15
      vertex 15.7016 7.14244 15
    endloop
  endfacet
  facet normal 0 0 1
    outer loop
      vertex 16.1661 5.92525 15
      vertex 15.8195 7.21898 15
      vertex 15.7016 7.14244 15
    endloop
  endfacet
  facet normal 0 -0 1
    outer loop
      vertex 15.8845 5.81715 15
      vertex 16.1661 5.92525 15
      vertex 15.5455 7.08252 15
    endloop
  endfacet
  facet normal 0 0 1
    outer loop
      vertex 15.2133 7.06509 15
      vertex 15.4489 5.74814 15
      vertex 15.3803 7.05635 15
    endloop
  endfacet
  facet normal -0 0 1
    outer loop
      vertex 15.0083 5.77124 15
      vertex 15.4489 5.74814 15
      vertex 15.2133 7.06509 15
    endloop
  endfacet
  facet normal 0 0 1
    outer loop
      vertex 14.5823 5.88541 15
      vertex 15.2133 7.06509 15
      vertex 15.0517 7.1084 15
    endloop
  endfacet
  facet normal 0 -0 1
    outer loop
      vertex 14.1892 6.08565 15
      vertex 14.9027 7.18433 15
      vertex 14.0338 6.21156 15
    endloop
  endfacet
  facet normal -0 0 1
    outer loop
      vertex 14.1892 6.08565 15
      vertex 14.5823 5.88541 15
      vertex 14.9027 7.18433 15
    endloop
  endfacet
  facet normal 0 0 1
    outer loop
      vertex 14.9027 7.18433 15
      vertex 14.7728 7.28957 15
      vertex 14.0338 6.21156 15
    endloop
  endfacet
  facet normal 0 0 1
    outer loop
      vertex 14.7728 7.28957 15
      vertex 14.6675 7.41954 15
      vertex 14.0338 6.21156 15
    endloop
  endfacet
  facet normal 0 0 1
    outer loop
      vertex 14.6675 7.41954 15
      vertex 14.5916 7.56856 15
      vertex 14.0338 6.21156 15
    endloop
  endfacet
  facet normal 0 0 1
    outer loop
      vertex 14.5916 7.56856 15
      vertex 13.3825 6.03705 15
      vertex 14.0338 6.21156 15
    endloop
  endfacet
  facet normal 0 0 1
    outer loop
      vertex 14.5483 7.7301 15
      vertex 13.3825 6.03705 15
      vertex 14.5916 7.56856 15
    endloop
  endfacet
  facet normal 0 0 1
    outer loop
      vertex 13.3867 8.62639 15
      vertex 14.5657 8.0623 15
      vertex 14.6256 8.21843 15
    endloop
  endfacet
  facet normal -0 0 1
    outer loop
      vertex 13.4584 8.81317 15
      vertex 14.6256 8.21843 15
      vertex 13.6987 9.18311 15
    endloop
  endfacet
  facet normal 0 0 1
    outer loop
      vertex 14.0106 9.49501 15
      vertex 13.6987 9.18311 15
      vertex 14.835 8.47696 15
    endloop
  endfacet
  facet normal 0 0 1
    outer loop
      vertex 14.0106 9.49501 15
      vertex 14.835 8.47696 15
      vertex 14.9752 8.56805 15
    endloop
  endfacet
  facet normal -0 0 1
    outer loop
      vertex 14.0106 9.49501 15
      vertex 14.9752 8.56805 15
      vertex 14.3805 9.73526 15
    endloop
  endfacet
  facet normal 0 0 1
    outer loop
      vertex 14.9752 8.56805 15
      vertex 14.7923 9.89334 15
      vertex 14.3805 9.73526 15
    endloop
  endfacet
  facet normal 0 0 1
    outer loop
      vertex 15.1314 8.62798 15
      vertex 14.7923 9.89334 15
      vertex 14.9752 8.56805 15
    endloop
  endfacet
  facet normal 0 0 1
    outer loop
      vertex 13.6987 9.18311 15
      vertex 14.7167 8.35869 15
      vertex 14.835 8.47696 15
    endloop
  endfacet
  facet normal -0 0 1
    outer loop
      vertex 14.7923 9.89334 15
      vertex 15.1314 8.62798 15
      vertex 15.0902 9.94052 15
    endloop
  endfacet
  facet normal 0 -0 1
    outer loop
      vertex 15.1314 8.62798 15
      vertex 15.2965 8.65414 15
      vertex 15.0902 9.94052 15
    endloop
  endfacet
  facet normal -0 -0 1
    outer loop
      vertex 15.2965 8.65414 15
      vertex 15.4369 8.64679 15
      vertex 15.0902 9.94052 15
    endloop
  endfacet
  facet normal 0 -0 1
    outer loop
      vertex 14.6256 8.21843 15
      vertex 14.7167 8.35869 15
      vertex 13.6987 9.18311 15
    endloop
  endfacet
  facet normal -0 0 1
    outer loop
      vertex 13.3867 8.62639 15
      vertex 14.6256 8.21843 15
      vertex 13.4584 8.81317 15
    endloop
  endfacet
  facet normal 0 0 1
    outer loop
      vertex 2.94228 8.47942 15
      vertex 2.30348 8.59673 15
      vertex 2.8923 8.43895 15
    endloop
  endfacet
  facet normal 0 0 1
    outer loop
      vertex 14.5483 7.7301 15
      vertex 14.5395 7.89711 15
      vertex 13.3867 8.62639 15
    endloop
  endfacet
  facet normal 0 0 1
    outer loop
      vertex 14.5483 7.7301 15
      vertex 12.7354 8.45187 15
      vertex 13.3825 6.03705 15
    endloop
  endfacet
  facet normal 0 0 1
    outer loop
      vertex 12.7354 8.45187 15
      vertex 9.6067 2.75999 15
      vertex 13.3825 6.03705 15
    endloop
  endfacet
  facet normal 0 0 1
    outer loop
      vertex 14.5483 7.7301 15
      vertex 13.3867 8.62639 15
      vertex 12.7354 8.45187 15
    endloop
  endfacet
  facet normal 0 0 1
    outer loop
      vertex 5.15234 8.56502 15
      vertex 9.6067 2.75999 15
      vertex 12.7354 8.45187 15
    endloop
  endfacet
  facet normal 0 0 1
    outer loop
      vertex 4.06183 4.49518 15
      vertex 4.01054 4.49249 15
      vertex 5.37743 2.71115 15
    endloop
  endfacet
  facet normal 0 0 1
    outer loop
      vertex 3.88228 14.4889 15
      vertex 2.30348 8.59673 15
      vertex 3.34647 8.68536 15
    endloop
  endfacet
  facet normal 0 0 1
    outer loop
      vertex 3.34647 8.68536 15
      vertex 2.30348 8.59673 15
      vertex 2.94228 8.47942 15
    endloop
  endfacet
  facet normal 0 -0 1
    outer loop
      vertex 3.78467 8.80278 15
      vertex 3.88228 14.4889 15
      vertex 3.34647 8.68536 15
    endloop
  endfacet
  facet normal 0 0 1
    outer loop
      vertex 4.2377 8.82652 15
      vertex 3.88228 14.4889 15
      vertex 3.78467 8.80278 15
    endloop
  endfacet
  facet normal 0 0 1
    outer loop
      vertex 5.10927 8.59299 15
      vertex 3.88228 14.4889 15
      vertex 4.68576 8.75557 15
    endloop
  endfacet
  facet normal 0 0 1
    outer loop
      vertex 4.68576 8.75557 15
      vertex 3.88228 14.4889 15
      vertex 4.2377 8.82652 15
    endloop
  endfacet
  facet normal 0 0 1
    outer loop
      vertex 5.15234 8.56502 15
      vertex 3.88228 14.4889 15
      vertex 5.10927 8.59299 15
    endloop
  endfacet
  facet normal 0 0 1
    outer loop
      vertex 11.1178 14.4889 15
      vertex 3.88228 14.4889 15
      vertex 5.15234 8.56502 15
    endloop
  endfacet
  facet normal 0 0 1
    outer loop
      vertex 11.1178 14.4889 15
      vertex 5.15234 8.56502 15
      vertex 12.7354 8.45187 15
    endloop
  endfacet
  facet normal 0 0 1
    outer loop
      vertex 3.56248 4.56345 15
      vertex 3.13898 4.72603 15
      vertex 0 0 15
    endloop
  endfacet
  facet normal 0 0 1
    outer loop
      vertex 5.33 2.25999 15
      vertex 3.56248 4.56345 15
      vertex 0 0 15
    endloop
  endfacet
  facet normal 0 0 1
    outer loop
      vertex 3.13898 4.72603 15
      vertex 2.7585 4.9731 15
      vertex 0 0 15
    endloop
  endfacet
  facet normal 0 0 1
    outer loop
      vertex 5.33 2.25999 15
      vertex 0 0 15
      vertex 5.37743 1.80884 15
    endloop
  endfacet
  facet normal 0 0 1
    outer loop
      vertex 0 0 15
      vertex 5.51761 1.37738 15
      vertex 5.37743 1.80884 15
    endloop
  endfacet
  facet normal 0 0 1
    outer loop
      vertex 1.5788 5.89215 15
      vertex 0 0 15
      vertex 2.43773 5.29388 15
    endloop
  endfacet
  facet normal 0 0 1
    outer loop
      vertex 0 0 15
      vertex 2.7585 4.9731 15
      vertex 2.43773 5.29388 15
    endloop
  endfacet
  facet normal 0 0 1
    outer loop
      vertex 2.43773 5.29388 15
      vertex 2.19066 5.67435 15
      vertex 1.5788 5.89215 15
    endloop
  endfacet
  facet normal 0 0 1
    outer loop
      vertex 2.19066 5.67435 15
      vertex 2.1676 5.73438 15
      vertex 1.5788 5.89215 15
    endloop
  endfacet
  facet normal 0 0 1
    outer loop
      vertex 6.10001 -1.52588e-05 15
      vertex 5.74445 0.984512 15
      vertex 0 0 15
    endloop
  endfacet
  facet normal 0.587798 0.809008 0
    outer loop
      vertex 6.04799 0.647385 0
      vertex 6.10001 0.609589 15
      vertex 6.10001 0.609589 0
    endloop
  endfacet
  facet normal 0.587798 0.809008 -0
    outer loop
      vertex 6.04799 0.647385 0
      vertex 6.04799 0.647385 15
      vertex 6.10001 0.609589 15
    endloop
  endfacet
  facet normal 0.743156 0.669118 0
    outer loop
      vertex 5.74445 0.984512 0
      vertex 6.04799 0.647385 15
      vertex 6.04799 0.647385 0
    endloop
  endfacet
  facet normal 0.743156 0.669118 -0
    outer loop
      vertex 5.74445 0.984512 0
      vertex 5.74445 0.984512 15
      vertex 6.04799 0.647385 15
    endloop
  endfacet
  facet normal 0.866009 0.500029 0
    outer loop
      vertex 5.51761 1.37738 0
      vertex 5.74445 0.984512 15
      vertex 5.74445 0.984512 0
    endloop
  endfacet
  facet normal 0.866009 0.500029 -0
    outer loop
      vertex 5.51761 1.37738 0
      vertex 5.51761 1.37738 15
      vertex 5.74445 0.984512 15
    endloop
  endfacet
  facet normal 0.951063 0.308997 0
    outer loop
      vertex 5.37743 1.80884 0
      vertex 5.51761 1.37738 15
      vertex 5.51761 1.37738 0
    endloop
  endfacet
  facet normal 0.951063 0.308997 -0
    outer loop
      vertex 5.37743 1.80884 0
      vertex 5.37743 1.80884 15
      vertex 5.51761 1.37738 15
    endloop
  endfacet
  facet normal 0.994519 0.104555 0
    outer loop
      vertex 5.33 2.25999 0
      vertex 5.37743 1.80884 15
      vertex 5.37743 1.80884 0
    endloop
  endfacet
  facet normal 0.994519 0.104555 -0
    outer loop
      vertex 5.33 2.25999 0
      vertex 5.33 2.25999 15
      vertex 5.37743 1.80884 15
    endloop
  endfacet
  facet normal 0.994519 -0.104553 0
    outer loop
      vertex 5.37743 2.71115 0
      vertex 5.33 2.25999 15
      vertex 5.33 2.25999 0
    endloop
  endfacet
  facet normal 0.994519 -0.104553 0
    outer loop
      vertex 5.37743 2.71115 0
      vertex 5.37743 2.71115 15
      vertex 5.33 2.25999 15
    endloop
  endfacet
  facet normal 0.951051 -0.309033 0
    outer loop
      vertex 5.3933 2.75999 0
      vertex 5.37743 2.71115 15
      vertex 5.37743 2.71115 0
    endloop
  endfacet
  facet normal 0.951051 -0.309033 0
    outer loop
      vertex 5.3933 2.75999 0
      vertex 5.3933 2.75999 15
      vertex 5.37743 2.71115 15
    endloop
  endfacet
  facet normal 0 -1 0
    outer loop
      vertex 9.6067 2.75999 0
      vertex 5.3933 2.75999 15
      vertex 5.3933 2.75999 0
    endloop
  endfacet
  facet normal 0 -1 0
    outer loop
      vertex 9.6067 2.75999 0
      vertex 9.6067 2.75999 15
      vertex 5.3933 2.75999 15
    endloop
  endfacet
  facet normal -0.951051 -0.309033 0
    outer loop
      vertex 9.62257 2.71115 0
      vertex 9.6067 2.75999 15
      vertex 9.6067 2.75999 0
    endloop
  endfacet
  facet normal -0.951051 -0.309033 0
    outer loop
      vertex 9.62257 2.71115 0
      vertex 9.62257 2.71115 15
      vertex 9.6067 2.75999 15
    endloop
  endfacet
  facet normal -0.994519 -0.104553 0
    outer loop
      vertex 9.67 2.25999 0
      vertex 9.62257 2.71115 15
      vertex 9.62257 2.71115 0
    endloop
  endfacet
  facet normal -0.994519 -0.104553 0
    outer loop
      vertex 9.67 2.25999 0
      vertex 9.67 2.25999 15
      vertex 9.62257 2.71115 15
    endloop
  endfacet
  facet normal -0.994519 0.104555 0
    outer loop
      vertex 9.62257 1.80884 0
      vertex 9.67 2.25999 15
      vertex 9.67 2.25999 0
    endloop
  endfacet
  facet normal -0.994519 0.104555 0
    outer loop
      vertex 9.62257 1.80884 0
      vertex 9.62257 1.80884 15
      vertex 9.67 2.25999 15
    endloop
  endfacet
  facet normal -0.951063 0.308997 0
    outer loop
      vertex 9.48239 1.37738 0
      vertex 9.62257 1.80884 15
      vertex 9.62257 1.80884 0
    endloop
  endfacet
  facet normal -0.951063 0.308997 0
    outer loop
      vertex 9.48239 1.37738 0
      vertex 9.48239 1.37738 15
      vertex 9.62257 1.80884 15
    endloop
  endfacet
  facet normal -0.866009 0.500029 0
    outer loop
      vertex 9.25555 0.984512 0
      vertex 9.48239 1.37738 15
      vertex 9.48239 1.37738 0
    endloop
  endfacet
  facet normal -0.866009 0.500029 0
    outer loop
      vertex 9.25555 0.984512 0
      vertex 9.25555 0.984512 15
      vertex 9.48239 1.37738 15
    endloop
  endfacet
  facet normal -0.743156 0.669118 0
    outer loop
      vertex 8.95201 0.647385 0
      vertex 9.25555 0.984512 15
      vertex 9.25555 0.984512 0
    endloop
  endfacet
  facet normal -0.743156 0.669118 0
    outer loop
      vertex 8.95201 0.647385 0
      vertex 8.95201 0.647385 15
      vertex 9.25555 0.984512 15
    endloop
  endfacet
  facet normal -0.587798 0.809008 0
    outer loop
      vertex 8.89999 0.609589 0
      vertex 8.95201 0.647385 15
      vertex 8.95201 0.647385 0
    endloop
  endfacet
  facet normal -0.587798 0.809008 0
    outer loop
      vertex 8.89999 0.609589 0
      vertex 8.89999 0.609589 15
      vertex 8.95201 0.647385 15
    endloop
  endfacet
  facet normal -1 0 0
    outer loop
      vertex 8.89999 0 0
      vertex 8.89999 0.609589 15
      vertex 8.89999 0.609589 0
    endloop
  endfacet
  facet normal -1 0 0
    outer loop
      vertex 8.89999 0 0
      vertex 8.89999 0 15
      vertex 8.89999 0.609589 15
    endloop
  endfacet
  facet normal 2.5014e-06 -1 0
    outer loop
      vertex 15.0001 1.52588e-05 0
      vertex 8.89999 0 15
      vertex 8.89999 0 0
    endloop
  endfacet
  facet normal 2.5014e-06 -1 0
    outer loop
      vertex 15.0001 1.52588e-05 0
      vertex 15.0001 1.52588e-05 15
      vertex 8.89999 0 15
    endloop
  endfacet
  facet normal 0.965927 0.258816 0
    outer loop
      vertex 13.3825 6.03705 0
      vertex 15.0001 1.52588e-05 15
      vertex 15.0001 1.52588e-05 0
    endloop
  endfacet
  facet normal 0.965927 0.258816 -0
    outer loop
      vertex 13.3825 6.03705 0
      vertex 13.3825 6.03705 15
      vertex 15.0001 1.52588e-05 15
    endloop
  endfacet
  facet normal 0.258812 -0.965928 0
    outer loop
      vertex 14.0338 6.21156 0
      vertex 13.3825 6.03705 15
      vertex 13.3825 6.03705 0
    endloop
  endfacet
  facet normal 0.258812 -0.965928 0
    outer loop
      vertex 14.0338 6.21156 0
      vertex 14.0338 6.21156 15
      vertex 13.3825 6.03705 15
    endloop
  endfacet
  facet normal -0.62953 -0.776976 0
    outer loop
      vertex 14.1892 6.08565 0
      vertex 14.0338 6.21156 15
      vertex 14.0338 6.21156 0
    endloop
  endfacet
  facet normal -0.62953 -0.776976 0
    outer loop
      vertex 14.1892 6.08565 0
      vertex 14.1892 6.08565 15
      vertex 14.0338 6.21156 15
    endloop
  endfacet
  facet normal -0.453893 -0.891056 0
    outer loop
      vertex 14.5823 5.88541 0
      vertex 14.1892 6.08565 15
      vertex 14.1892 6.08565 0
    endloop
  endfacet
  facet normal -0.453893 -0.891056 0
    outer loop
      vertex 14.5823 5.88541 0
      vertex 14.5823 5.88541 15
      vertex 14.1892 6.08565 15
    endloop
  endfacet
  facet normal -0.258869 -0.965912 0
    outer loop
      vertex 15.0083 5.77124 0
      vertex 14.5823 5.88541 15
      vertex 14.5823 5.88541 0
    endloop
  endfacet
  facet normal -0.258869 -0.965912 0
    outer loop
      vertex 15.0083 5.77124 0
      vertex 15.0083 5.77124 15
      vertex 14.5823 5.88541 15
    endloop
  endfacet
  facet normal -0.0523566 -0.998628 0
    outer loop
      vertex 15.4489 5.74814 0
      vertex 15.0083 5.77124 15
      vertex 15.0083 5.77124 0
    endloop
  endfacet
  facet normal -0.0523566 -0.998628 0
    outer loop
      vertex 15.4489 5.74814 0
      vertex 15.4489 5.74814 15
      vertex 15.0083 5.77124 15
    endloop
  endfacet
  facet normal 0.156474 -0.987682 0
    outer loop
      vertex 15.8845 5.81715 0
      vertex 15.4489 5.74814 15
      vertex 15.4489 5.74814 0
    endloop
  endfacet
  facet normal 0.156474 -0.987682 0
    outer loop
      vertex 15.8845 5.81715 0
      vertex 15.8845 5.81715 15
      vertex 15.4489 5.74814 15
    endloop
  endfacet
  facet normal 0.358379 -0.933576 0
    outer loop
      vertex 16.1661 5.92525 0
      vertex 15.8845 5.81715 15
      vertex 15.8845 5.81715 0
    endloop
  endfacet
  facet normal 0.358379 -0.933576 0
    outer loop
      vertex 16.1661 5.92525 0
      vertex 16.1661 5.92525 15
      vertex 15.8845 5.81715 15
    endloop
  endfacet
  facet normal 0.965936 0.258781 0
    outer loop
      vertex 15.8195 7.21898 0
      vertex 16.1661 5.92525 15
      vertex 16.1661 5.92525 0
    endloop
  endfacet
  facet normal 0.965936 0.258781 -0
    outer loop
      vertex 15.8195 7.21898 0
      vertex 15.8195 7.21898 15
      vertex 16.1661 5.92525 15
    endloop
  endfacet
  facet normal -0.544513 0.838752 0
    outer loop
      vertex 15.7016 7.14244 0
      vertex 15.8195 7.21898 15
      vertex 15.8195 7.21898 0
    endloop
  endfacet
  facet normal -0.544513 0.838752 0
    outer loop
      vertex 15.7016 7.14244 0
      vertex 15.7016 7.14244 15
      vertex 15.8195 7.21898 15
    endloop
  endfacet
  facet normal -0.358362 0.933583 0
    outer loop
      vertex 15.5455 7.08252 0
      vertex 15.7016 7.14244 15
      vertex 15.7016 7.14244 0
    endloop
  endfacet
  facet normal -0.358362 0.933583 0
    outer loop
      vertex 15.5455 7.08252 0
      vertex 15.5455 7.08252 15
      vertex 15.7016 7.14244 15
    endloop
  endfacet
  facet normal -0.156463 0.987684 0
    outer loop
      vertex 15.3803 7.05635 0
      vertex 15.5455 7.08252 15
      vertex 15.5455 7.08252 0
    endloop
  endfacet
  facet normal -0.156463 0.987684 0
    outer loop
      vertex 15.3803 7.05635 0
      vertex 15.3803 7.05635 15
      vertex 15.5455 7.08252 15
    endloop
  endfacet
  facet normal 0.0522638 0.998633 0
    outer loop
      vertex 15.2133 7.06509 0
      vertex 15.3803 7.05635 15
      vertex 15.3803 7.05635 0
    endloop
  endfacet
  facet normal 0.0522638 0.998633 -0
    outer loop
      vertex 15.2133 7.06509 0
      vertex 15.2133 7.06509 15
      vertex 15.3803 7.05635 15
    endloop
  endfacet
  facet normal 0.258872 0.965912 0
    outer loop
      vertex 15.0517 7.1084 0
      vertex 15.2133 7.06509 15
      vertex 15.2133 7.06509 0
    endloop
  endfacet
  facet normal 0.258872 0.965912 -0
    outer loop
      vertex 15.0517 7.1084 0
      vertex 15.0517 7.1084 15
      vertex 15.2133 7.06509 15
    endloop
  endfacet
  facet normal 0.454041 0.890981 0
    outer loop
      vertex 14.9027 7.18433 0
      vertex 15.0517 7.1084 15
      vertex 15.0517 7.1084 0
    endloop
  endfacet
  facet normal 0.454041 0.890981 -0
    outer loop
      vertex 14.9027 7.18433 0
      vertex 14.9027 7.18433 15
      vertex 15.0517 7.1084 15
    endloop
  endfacet
  facet normal 0.629498 0.777002 0
    outer loop
      vertex 14.7728 7.28957 0
      vertex 14.9027 7.18433 15
      vertex 14.9027 7.18433 0
    endloop
  endfacet
  facet normal 0.629498 0.777002 -0
    outer loop
      vertex 14.7728 7.28957 0
      vertex 14.7728 7.28957 15
      vertex 14.9027 7.18433 15
    endloop
  endfacet
  facet normal 0.776993 0.629509 0
    outer loop
      vertex 14.6675 7.41954 0
      vertex 14.7728 7.28957 15
      vertex 14.7728 7.28957 0
    endloop
  endfacet
  facet normal 0.776993 0.629509 -0
    outer loop
      vertex 14.6675 7.41954 0
      vertex 14.6675 7.41954 15
      vertex 14.7728 7.28957 15
    endloop
  endfacet
  facet normal 0.891078 0.453851 0
    outer loop
      vertex 14.5916 7.56856 0
      vertex 14.6675 7.41954 15
      vertex 14.6675 7.41954 0
    endloop
  endfacet
  facet normal 0.891078 0.453851 -0
    outer loop
      vertex 14.5916 7.56856 0
      vertex 14.5916 7.56856 15
      vertex 14.6675 7.41954 15
    endloop
  endfacet
  facet normal 0.965903 0.258905 0
    outer loop
      vertex 14.5483 7.7301 0
      vertex 14.5916 7.56856 15
      vertex 14.5916 7.56856 0
    endloop
  endfacet
  facet normal 0.965903 0.258905 -0
    outer loop
      vertex 14.5483 7.7301 0
      vertex 14.5483 7.7301 15
      vertex 14.5916 7.56856 15
    endloop
  endfacet
  facet normal 0.998615 0.0526185 0
    outer loop
      vertex 14.5395 7.89711 0
      vertex 14.5483 7.7301 15
      vertex 14.5483 7.7301 0
    endloop
  endfacet
  facet normal 0.998615 0.0526185 -0
    outer loop
      vertex 14.5395 7.89711 0
      vertex 14.5395 7.89711 15
      vertex 14.5483 7.7301 15
    endloop
  endfacet
  facet normal 0.987655 -0.156647 0
    outer loop
      vertex 14.5657 8.0623 0
      vertex 14.5395 7.89711 15
      vertex 14.5395 7.89711 0
    endloop
  endfacet
  facet normal 0.987655 -0.156647 0
    outer loop
      vertex 14.5657 8.0623 0
      vertex 14.5657 8.0623 15
      vertex 14.5395 7.89711 15
    endloop
  endfacet
  facet normal 0.933646 -0.358198 0
    outer loop
      vertex 14.6256 8.21843 0
      vertex 14.5657 8.0623 15
      vertex 14.5657 8.0623 0
    endloop
  endfacet
  facet normal 0.933646 -0.358198 0
    outer loop
      vertex 14.6256 8.21843 0
      vertex 14.6256 8.21843 15
      vertex 14.5657 8.0623 15
    endloop
  endfacet
  facet normal 0.838632 -0.544698 0
    outer loop
      vertex 14.7167 8.35869 0
      vertex 14.6256 8.21843 15
      vertex 14.6256 8.21843 0
    endloop
  endfacet
  facet normal 0.838632 -0.544698 0
    outer loop
      vertex 14.7167 8.35869 0
      vertex 14.7167 8.35869 15
      vertex 14.6256 8.21843 15
    endloop
  endfacet
  facet normal 0.707017 -0.707196 0
    outer loop
      vertex 14.835 8.47696 0
      vertex 14.7167 8.35869 15
      vertex 14.7167 8.35869 0
    endloop
  endfacet
  facet normal 0.707017 -0.707196 0
    outer loop
      vertex 14.835 8.47696 0
      vertex 14.835 8.47696 15
      vertex 14.7167 8.35869 15
    endloop
  endfacet
  facet normal 0.54482 -0.838553 0
    outer loop
      vertex 14.9752 8.56805 0
      vertex 14.835 8.47696 15
      vertex 14.835 8.47696 0
    endloop
  endfacet
  facet normal 0.54482 -0.838553 0
    outer loop
      vertex 14.9752 8.56805 0
      vertex 14.9752 8.56805 15
      vertex 14.835 8.47696 15
    endloop
  endfacet
  facet normal 0.358214 -0.93364 0
    outer loop
      vertex 15.1314 8.62798 0
      vertex 14.9752 8.56805 15
      vertex 14.9752 8.56805 0
    endloop
  endfacet
  facet normal 0.358214 -0.93364 0
    outer loop
      vertex 15.1314 8.62798 0
      vertex 15.1314 8.62798 15
      vertex 14.9752 8.56805 15
    endloop
  endfacet
  facet normal 0.156497 -0.987678 0
    outer loop
      vertex 15.2965 8.65414 0
      vertex 15.1314 8.62798 15
      vertex 15.1314 8.62798 0
    endloop
  endfacet
  facet normal 0.156497 -0.987678 0
    outer loop
      vertex 15.2965 8.65414 0
      vertex 15.2965 8.65414 15
      vertex 15.1314 8.62798 15
    endloop
  endfacet
  facet normal -0.0522788 -0.998633 0
    outer loop
      vertex 15.4369 8.64679 0
      vertex 15.2965 8.65414 15
      vertex 15.2965 8.65414 0
    endloop
  endfacet
  facet normal -0.0522788 -0.998633 0
    outer loop
      vertex 15.4369 8.64679 0
      vertex 15.4369 8.64679 15
      vertex 15.2965 8.65414 15
    endloop
  endfacet
  facet normal 0.965917 0.258851 0
    outer loop
      vertex 15.0902 9.94052 0
      vertex 15.4369 8.64679 15
      vertex 15.4369 8.64679 0
    endloop
  endfacet
  facet normal 0.965917 0.258851 -0
    outer loop
      vertex 15.0902 9.94052 0
      vertex 15.0902 9.94052 15
      vertex 15.4369 8.64679 15
    endloop
  endfacet
  facet normal -0.156426 0.98769 0
    outer loop
      vertex 14.7923 9.89334 0
      vertex 15.0902 9.94052 15
      vertex 15.0902 9.94052 0
    endloop
  endfacet
  facet normal -0.156426 0.98769 0
    outer loop
      vertex 14.7923 9.89334 0
      vertex 14.7923 9.89334 15
      vertex 15.0902 9.94052 15
    endloop
  endfacet
  facet normal -0.358377 0.933577 0
    outer loop
      vertex 14.3805 9.73526 0
      vertex 14.7923 9.89334 15
      vertex 14.7923 9.89334 0
    endloop
  endfacet
  facet normal -0.358377 0.933577 0
    outer loop
      vertex 14.3805 9.73526 0
      vertex 14.3805 9.73526 15
      vertex 14.7923 9.89334 15
    endloop
  endfacet
  facet normal -0.544693 0.838635 0
    outer loop
      vertex 14.0106 9.49501 0
      vertex 14.3805 9.73526 15
      vertex 14.3805 9.73526 0
    endloop
  endfacet
  facet normal -0.544693 0.838635 0
    outer loop
      vertex 14.0106 9.49501 0
      vertex 14.0106 9.49501 15
      vertex 14.3805 9.73526 15
    endloop
  endfacet
  facet normal -0.707107 0.707107 0
    outer loop
      vertex 13.6987 9.18311 0
      vertex 14.0106 9.49501 15
      vertex 14.0106 9.49501 0
    endloop
  endfacet
  facet normal -0.707107 0.707107 0
    outer loop
      vertex 13.6987 9.18311 0
      vertex 13.6987 9.18311 15
      vertex 14.0106 9.49501 15
    endloop
  endfacet
  facet normal -0.83861 0.544732 0
    outer loop
      vertex 13.4584 8.81317 0
      vertex 13.6987 9.18311 15
      vertex 13.6987 9.18311 0
    endloop
  endfacet
  facet normal -0.83861 0.544732 0
    outer loop
      vertex 13.4584 8.81317 0
      vertex 13.4584 8.81317 15
      vertex 13.6987 9.18311 15
    endloop
  endfacet
  facet normal -0.933577 0.358376 0
    outer loop
      vertex 13.3867 8.62639 0
      vertex 13.4584 8.81317 15
      vertex 13.4584 8.81317 0
    endloop
  endfacet
  facet normal -0.933577 0.358376 0
    outer loop
      vertex 13.3867 8.62639 0
      vertex 13.3867 8.62639 15
      vertex 13.4584 8.81317 15
    endloop
  endfacet
  facet normal -0.258826 0.965924 0
    outer loop
      vertex 12.7354 8.45187 0
      vertex 13.3867 8.62639 15
      vertex 13.3867 8.62639 0
    endloop
  endfacet
  facet normal -0.258826 0.965924 0
    outer loop
      vertex 12.7354 8.45187 0
      vertex 12.7354 8.45187 15
      vertex 13.3867 8.62639 15
    endloop
  endfacet
  facet normal 0.965927 0.258816 0
    outer loop
      vertex 11.1178 14.4889 0
      vertex 12.7354 8.45187 15
      vertex 12.7354 8.45187 0
    endloop
  endfacet
  facet normal 0.965927 0.258816 -0
    outer loop
      vertex 11.1178 14.4889 0
      vertex 11.1178 14.4889 15
      vertex 12.7354 8.45187 15
    endloop
  endfacet
  facet normal 0 1 0
    outer loop
      vertex 3.88228 14.4889 0
      vertex 11.1178 14.4889 15
      vertex 11.1178 14.4889 0
    endloop
  endfacet
  facet normal 0 1 0
    outer loop
      vertex 3.88228 14.4889 0
      vertex 3.88228 14.4889 15
      vertex 11.1178 14.4889 15
    endloop
  endfacet
  facet normal -0.965926 0.258819 0
    outer loop
      vertex 2.30348 8.59673 0
      vertex 3.88228 14.4889 15
      vertex 3.88228 14.4889 0
    endloop
  endfacet
  facet normal -0.965926 0.258819 0
    outer loop
      vertex 2.30348 8.59673 0
      vertex 2.30348 8.59673 15
      vertex 3.88228 14.4889 15
    endloop
  endfacet
  facet normal -0.258828 -0.965923 0
    outer loop
      vertex 2.8923 8.43895 0
      vertex 2.30348 8.59673 15
      vertex 2.30348 8.59673 0
    endloop
  endfacet
  facet normal -0.258828 -0.965923 0
    outer loop
      vertex 2.8923 8.43895 0
      vertex 2.8923 8.43895 15
      vertex 2.30348 8.59673 15
    endloop
  endfacet
  facet normal 0.629292 -0.777169 0
    outer loop
      vertex 2.94228 8.47942 0
      vertex 2.8923 8.43895 15
      vertex 2.8923 8.43895 0
    endloop
  endfacet
  facet normal 0.629292 -0.777169 0
    outer loop
      vertex 2.94228 8.47942 0
      vertex 2.94228 8.47942 15
      vertex 2.8923 8.43895 15
    endloop
  endfacet
  facet normal 0.453982 -0.891011 0
    outer loop
      vertex 3.34647 8.68536 0
      vertex 2.94228 8.47942 15
      vertex 2.94228 8.47942 0
    endloop
  endfacet
  facet normal 0.453982 -0.891011 0
    outer loop
      vertex 3.34647 8.68536 0
      vertex 3.34647 8.68536 15
      vertex 2.94228 8.47942 15
    endloop
  endfacet
  facet normal 0.258829 -0.965923 0
    outer loop
      vertex 3.78467 8.80278 0
      vertex 3.34647 8.68536 15
      vertex 3.34647 8.68536 0
    endloop
  endfacet
  facet normal 0.258829 -0.965923 0
    outer loop
      vertex 3.78467 8.80278 0
      vertex 3.78467 8.80278 15
      vertex 3.34647 8.68536 15
    endloop
  endfacet
  facet normal 0.0523309 -0.99863 0
    outer loop
      vertex 4.2377 8.82652 0
      vertex 3.78467 8.80278 15
      vertex 3.78467 8.80278 0
    endloop
  endfacet
  facet normal 0.0523309 -0.99863 0
    outer loop
      vertex 4.2377 8.82652 0
      vertex 4.2377 8.82652 15
      vertex 3.78467 8.80278 15
    endloop
  endfacet
  facet normal -0.156401 -0.987694 0
    outer loop
      vertex 4.68576 8.75557 0
      vertex 4.2377 8.82652 15
      vertex 4.2377 8.82652 0
    endloop
  endfacet
  facet normal -0.156401 -0.987694 0
    outer loop
      vertex 4.68576 8.75557 0
      vertex 4.68576 8.75557 15
      vertex 4.2377 8.82652 15
    endloop
  endfacet
  facet normal -0.358387 -0.933573 0
    outer loop
      vertex 5.10927 8.59299 0
      vertex 4.68576 8.75557 15
      vertex 4.68576 8.75557 0
    endloop
  endfacet
  facet normal -0.358387 -0.933573 0
    outer loop
      vertex 5.10927 8.59299 0
      vertex 5.10927 8.59299 15
      vertex 4.68576 8.75557 15
    endloop
  endfacet
  facet normal -0.544639 -0.83867 0
    outer loop
      vertex 5.15234 8.56502 0
      vertex 5.10927 8.59299 15
      vertex 5.10927 8.59299 0
    endloop
  endfacet
  facet normal -0.544639 -0.83867 0
    outer loop
      vertex 5.15234 8.56502 0
      vertex 5.15234 8.56502 15
      vertex 5.10927 8.59299 15
    endloop
  endfacet
  facet normal -0.965926 0.258819 0
    outer loop
      vertex 4.06183 4.49518 0
      vertex 5.15234 8.56502 15
      vertex 5.15234 8.56502 0
    endloop
  endfacet
  facet normal -0.965926 0.258819 0
    outer loop
      vertex 4.06183 4.49518 0
      vertex 4.06183 4.49518 15
      vertex 5.15234 8.56502 15
    endloop
  endfacet
  facet normal -0.0523749 0.998627 0
    outer loop
      vertex 4.01054 4.49249 0
      vertex 4.06183 4.49518 15
      vertex 4.06183 4.49518 0
    endloop
  endfacet
  facet normal -0.0523749 0.998627 0
    outer loop
      vertex 4.01054 4.49249 0
      vertex 4.01054 4.49249 15
      vertex 4.06183 4.49518 15
    endloop
  endfacet
  facet normal 0.156422 0.98769 0
    outer loop
      vertex 3.56248 4.56345 0
      vertex 4.01054 4.49249 15
      vertex 4.01054 4.49249 0
    endloop
  endfacet
  facet normal 0.156422 0.98769 -0
    outer loop
      vertex 3.56248 4.56345 0
      vertex 3.56248 4.56345 15
      vertex 4.01054 4.49249 15
    endloop
  endfacet
  facet normal 0.358394 0.93357 0
    outer loop
      vertex 3.13898 4.72603 0
      vertex 3.56248 4.56345 15
      vertex 3.56248 4.56345 0
    endloop
  endfacet
  facet normal 0.358394 0.93357 -0
    outer loop
      vertex 3.13898 4.72603 0
      vertex 3.13898 4.72603 15
      vertex 3.56248 4.56345 15
    endloop
  endfacet
  facet normal 0.544613 0.838687 0
    outer loop
      vertex 2.7585 4.9731 0
      vertex 3.13898 4.72603 15
      vertex 3.13898 4.72603 0
    endloop
  endfacet
  facet normal 0.544613 0.838687 -0
    outer loop
      vertex 2.7585 4.9731 0
      vertex 2.7585 4.9731 15
      vertex 3.13898 4.72603 15
    endloop
  endfacet
  facet normal 0.707118 0.707096 0
    outer loop
      vertex 2.43773 5.29388 0
      vertex 2.7585 4.9731 15
      vertex 2.7585 4.9731 0
    endloop
  endfacet
  facet normal 0.707118 0.707096 -0
    outer loop
      vertex 2.43773 5.29388 0
      vertex 2.43773 5.29388 15
      vertex 2.7585 4.9731 15
    endloop
  endfacet
  facet normal 0.838681 0.544623 0
    outer loop
      vertex 2.19066 5.67435 0
      vertex 2.43773 5.29388 15
      vertex 2.43773 5.29388 0
    endloop
  endfacet
  facet normal 0.838681 0.544623 -0
    outer loop
      vertex 2.19066 5.67435 0
      vertex 2.19066 5.67435 15
      vertex 2.43773 5.29388 15
    endloop
  endfacet
  facet normal 0.933494 0.358593 0
    outer loop
      vertex 2.1676 5.73438 0
      vertex 2.19066 5.67435 15
      vertex 2.19066 5.67435 0
    endloop
  endfacet
  facet normal 0.933494 0.358593 -0
    outer loop
      vertex 2.1676 5.73438 0
      vertex 2.1676 5.73438 15
      vertex 2.19066 5.67435 15
    endloop
  endfacet
  facet normal 0.258821 0.965925 0
    outer loop
      vertex 1.5788 5.89215 0
      vertex 2.1676 5.73438 15
      vertex 2.1676 5.73438 0
    endloop
  endfacet
  facet normal 0.258821 0.965925 -0
    outer loop
      vertex 1.5788 5.89215 0
      vertex 1.5788 5.89215 15
      vertex 2.1676 5.73438 15
    endloop
  endfacet
  facet normal -0.965926 0.25882 0
    outer loop
      vertex 0 0 0
      vertex 1.5788 5.89215 15
      vertex 1.5788 5.89215 0
    endloop
  endfacet
  facet normal -0.965926 0.25882 0
    outer loop
      vertex 0 0 0
      vertex 0 0 15
      vertex 1.5788 5.89215 15
    endloop
  endfacet
  facet normal -2.50144e-06 -1 0
    outer loop
      vertex 6.10001 -1.52588e-05 0
      vertex 0 0 15
      vertex 0 0 0
    endloop
  endfacet
  facet normal -2.50144e-06 -1 0
    outer loop
      vertex 6.10001 -1.52588e-05 0
      vertex 6.10001 -1.52588e-05 15
      vertex 0 0 15
    endloop
  endfacet
  facet normal 1 0 0
    outer loop
      vertex 6.10001 0.609589 0
      vertex 6.10001 -1.52588e-05 15
      vertex 6.10001 -1.52588e-05 0
    endloop
  endfacet
  facet normal 1 0 -0
    outer loop
      vertex 6.10001 0.609589 0
      vertex 6.10001 0.609589 15
      vertex 6.10001 -1.52588e-05 15
    endloop
  endfacet
endsolid OpenSCAD_Model
