solid OpenSCAD_Model
  facet normal -0 0 -1
    outer loop
      vertex 15.0001 3.05176e-05 0
      vertex 15 0 0
      vertex 12.8625 5.87311 0
    endloop
  endfacet
  facet normal -0 -0 -1
    outer loop
      vertex 6.10001 0.609589 0
      vertex 6.10001 -1.52588e-05 0
      vertex 6.04799 0.647385 0
    endloop
  endfacet
  facet normal -0 0 -1
    outer loop
      vertex 6.10001 -1.52588e-05 0
      vertex 9.15527e-05 -3.05176e-05 0
      vertex 5.74445 0.984512 0
    endloop
  endfacet
  facet normal 0 0 -1
    outer loop
      vertex 6.10001 -1.52588e-05 0
      vertex 5.74445 0.984512 0
      vertex 6.04799 0.647385 0
    endloop
  endfacet
  facet normal -0 0 -1
    outer loop
      vertex 5.74445 0.984512 0
      vertex 9.15527e-05 -3.05176e-05 0
      vertex 5.51761 1.37738 0
    endloop
  endfacet
  facet normal -0 0 -1
    outer loop
      vertex 5.51761 1.37738 0
      vertex 9.15527e-05 -3.05176e-05 0
      vertex 5.37743 1.80884 0
    endloop
  endfacet
  facet normal 0 0 -1
    outer loop
      vertex 5.37743 1.80884 0
      vertex 3.94666 4.2356 0
      vertex 5.33 2.25999 0
    endloop
  endfacet
  facet normal 0 0 -1
    outer loop
      vertex 4.38683 4.12585 0
      vertex 4.43816 4.12405 0
      vertex 5.37743 2.71115 0
    endloop
  endfacet
  facet normal 0 0 -1
    outer loop
      vertex 5.37743 2.71115 0
      vertex 4.43816 4.12405 0
      vertex 5.3933 2.75999 0
    endloop
  endfacet
  facet normal 0 0 -1
    outer loop
      vertex 13.9335 7.50417 0
      vertex 13.4961 6.10371 0
      vertex 12.8625 5.87311 0
    endloop
  endfacet
  facet normal 0 0 -1
    outer loop
      vertex 13.853 7.82693 0
      vertex 12.641 8.45294 0
      vertex 13.8647 7.99376 0
    endloop
  endfacet
  facet normal 0 -0 -1
    outer loop
      vertex 12.8625 5.87311 0
      vertex 15 0 0
      vertex 9.67 2.25999 0
    endloop
  endfacet
  facet normal 0 -0 -1
    outer loop
      vertex 9.67 2.25999 0
      vertex 15 0 0
      vertex 9.62257 1.80884 0
    endloop
  endfacet
  facet normal 0 -0 -1
    outer loop
      vertex 9.62257 1.80884 0
      vertex 15 0 0
      vertex 9.48239 1.37738 0
    endloop
  endfacet
  facet normal -0 0 -1
    outer loop
      vertex 15 0 0
      vertex 8.89999 -1.52588e-05 0
      vertex 9.25555 0.984512 0
    endloop
  endfacet
  facet normal 0 0 -1
    outer loop
      vertex 9.25555 0.984512 0
      vertex 8.89999 -1.52588e-05 0
      vertex 8.95201 0.647385 0
    endloop
  endfacet
  facet normal 0 -0 -1
    outer loop
      vertex 14.2769 7.1485 0
      vertex 14.432 7.08586 0
      vertex 14.0709 5.8266 0
    endloop
  endfacet
  facet normal 0 0 -1
    outer loop
      vertex 8.95201 0.647385 0
      vertex 8.89999 -1.52588e-05 0
      vertex 8.89999 0.609589 0
    endloop
  endfacet
  facet normal 0 -0 -1
    outer loop
      vertex 9.48239 1.37738 0
      vertex 15 0 0
      vertex 9.25555 0.984512 0
    endloop
  endfacet
  facet normal 0 0 -1
    outer loop
      vertex 12.8625 5.87311 0
      vertex 9.67 2.25999 0
      vertex 9.62257 2.71115 0
    endloop
  endfacet
  facet normal 0 0 -1
    outer loop
      vertex 9.6067 2.75999 0
      vertex 12.8625 5.87311 0
      vertex 9.62257 2.71115 0
    endloop
  endfacet
  facet normal 0 0 -1
    outer loop
      vertex 14.0709 5.8266 0
      vertex 14.5967 7.05681 0
      vertex 14.5053 5.75002 0
    endloop
  endfacet
  facet normal 0 0 -1
    outer loop
      vertex 14.7639 7.06264 0
      vertex 15.3742 5.87212 0
      vertex 14.9462 5.76538 0
    endloop
  endfacet
  facet normal 0 0 -1
    outer loop
      vertex 12.9032 9.03474 0
      vertex 13.9893 8.3022 0
      vertex 13.9108 8.15453 0
    endloop
  endfacet
  facet normal 0 0 -1
    outer loop
      vertex 14.7639 7.06264 0
      vertex 14.9261 7.1031 0
      vertex 15.3742 5.87212 0
    endloop
  endfacet
  facet normal 0 0 -1
    outer loop
      vertex 14.9261 7.1031 0
      vertex 15.0764 7.17641 0
      vertex 15.6453 6.00433 0
    endloop
  endfacet
  facet normal 0 0 -1
    outer loop
      vertex 15.6453 6.00433 0
      vertex 15.0764 7.17641 0
      vertex 15.1872 7.26294 0
    endloop
  endfacet
  facet normal 0 0 -1
    outer loop
      vertex 15.3742 5.87212 0
      vertex 14.9261 7.1031 0
      vertex 15.6453 6.00433 0
    endloop
  endfacet
  facet normal 0 0 -1
    outer loop
      vertex 14.5053 5.75002 0
      vertex 14.5967 7.05681 0
      vertex 14.7639 7.06264 0
    endloop
  endfacet
  facet normal 0 0 -1
    outer loop
      vertex 14.5053 5.75002 0
      vertex 14.7639 7.06264 0
      vertex 14.9462 5.76538 0
    endloop
  endfacet
  facet normal 0 0 -1
    outer loop
      vertex 14.0709 5.8266 0
      vertex 14.432 7.08586 0
      vertex 14.5967 7.05681 0
    endloop
  endfacet
  facet normal 0 0 -1
    outer loop
      vertex 13.6619 5.99184 0
      vertex 14.2769 7.1485 0
      vertex 14.0709 5.8266 0
    endloop
  endfacet
  facet normal 0 0 -1
    outer loop
      vertex 13.6619 5.99184 0
      vertex 13.4961 6.10371 0
      vertex 14.2769 7.1485 0
    endloop
  endfacet
  facet normal 0 0 -1
    outer loop
      vertex 13.9308 9.83759 0
      vertex 14.2235 9.91057 0
      vertex 14.3789 8.6066 0
    endloop
  endfacet
  facet normal -0 0 -1
    outer loop
      vertex 14.2769 7.1485 0
      vertex 13.4961 6.10371 0
      vertex 14.1383 7.24202 0
    endloop
  endfacet
  facet normal -0 0 -1
    outer loop
      vertex 14.1383 7.24202 0
      vertex 13.4961 6.10371 0
      vertex 14.0221 7.36234 0
    endloop
  endfacet
  facet normal -0 0 -1
    outer loop
      vertex 14.0221 7.36234 0
      vertex 13.4961 6.10371 0
      vertex 13.9335 7.50417 0
    endloop
  endfacet
  facet normal 0 0 -1
    outer loop
      vertex 13.9335 7.50417 0
      vertex 12.0074 8.22234 0
      vertex 13.8763 7.66132 0
    endloop
  endfacet
  facet normal -0 0 -1
    outer loop
      vertex 13.9108 8.15453 0
      vertex 13.8647 7.99376 0
      vertex 12.641 8.45294 0
    endloop
  endfacet
  facet normal 0 -0 -1
    outer loop
      vertex 12.9032 9.03474 0
      vertex 13.9108 8.15453 0
      vertex 12.6962 8.64528 0
    endloop
  endfacet
  facet normal -0 0 -1
    outer loop
      vertex 14.0968 8.43033 0
      vertex 13.9893 8.3022 0
      vertex 12.9032 9.03474 0
    endloop
  endfacet
  facet normal 0 -0 -1
    outer loop
      vertex 13.1868 9.37265 0
      vertex 14.0968 8.43033 0
      vertex 12.9032 9.03474 0
    endloop
  endfacet
  facet normal 0 -0 -1
    outer loop
      vertex 13.5344 9.64423 0
      vertex 14.2286 8.53329 0
      vertex 13.1868 9.37265 0
    endloop
  endfacet
  facet normal 0 0 -1
    outer loop
      vertex 13.5344 9.64423 0
      vertex 13.9308 9.83759 0
      vertex 14.2286 8.53329 0
    endloop
  endfacet
  facet normal 0 0 -1
    outer loop
      vertex 14.2286 8.53329 0
      vertex 13.9308 9.83759 0
      vertex 14.3789 8.6066 0
    endloop
  endfacet
  facet normal 0 0 -1
    outer loop
      vertex 13.1868 9.37265 0
      vertex 14.2286 8.53329 0
      vertex 14.0968 8.43033 0
    endloop
  endfacet
  facet normal 0 0 -1
    outer loop
      vertex 14.3789 8.6066 0
      vertex 14.2235 9.91057 0
      vertex 14.5412 8.64706 0
    endloop
  endfacet
  facet normal 0 0 -1
    outer loop
      vertex 14.5412 8.64706 0
      vertex 14.2235 9.91057 0
      vertex 14.6816 8.65196 0
    endloop
  endfacet
  facet normal 0 -0 -1
    outer loop
      vertex 12.6962 8.64528 0
      vertex 13.9108 8.15453 0
      vertex 12.641 8.45294 0
    endloop
  endfacet
  facet normal 0 0 -1
    outer loop
      vertex 3.61679 8.15475 0
      vertex 3.04398 8.36325 0
      vertex 3.6701 8.19072 0
    endloop
  endfacet
  facet normal 0 0 -1
    outer loop
      vertex 12.641 8.45294 0
      vertex 13.853 7.82693 0
      vertex 13.8763 7.66132 0
    endloop
  endfacet
  facet normal 0 0 -1
    outer loop
      vertex 12.8625 5.87311 0
      vertex 12.0074 8.22234 0
      vertex 13.9335 7.50417 0
    endloop
  endfacet
  facet normal -0 0 -1
    outer loop
      vertex 12.8625 5.87311 0
      vertex 9.6067 2.75999 0
      vertex 12.0074 8.22234 0
    endloop
  endfacet
  facet normal 0 0 -1
    outer loop
      vertex 12.0074 8.22234 0
      vertex 12.641 8.45294 0
      vertex 13.8763 7.66132 0
    endloop
  endfacet
  facet normal 0 0 -1
    outer loop
      vertex 12.0074 8.22234 0
      vertex 9.6067 2.75999 0
      vertex 5.87923 8.08337 0
    endloop
  endfacet
  facet normal 0 0 -1
    outer loop
      vertex 3.6701 8.19072 0
      vertex 3.04398 8.36325 0
      vertex 4.09071 8.36064 0
    endloop
  endfacet
  facet normal 0 -0 -1
    outer loop
      vertex 5.87923 8.08337 0
      vertex 9.6067 2.75999 0
      vertex 5.3933 2.75999 0
    endloop
  endfacet
  facet normal 0 0 -1
    outer loop
      vertex 3.04398 8.36325 0
      vertex 5.13029 14.0954 0
      vertex 4.09071 8.36064 0
    endloop
  endfacet
  facet normal 0 0 -1
    outer loop
      vertex 4.09071 8.36064 0
      vertex 5.13029 14.0954 0
      vertex 4.53748 8.43944 0
    endloop
  endfacet
  facet normal 0 0 -1
    outer loop
      vertex 4.99086 8.4236 0
      vertex 5.13029 14.0954 0
      vertex 5.43103 8.31386 0
    endloop
  endfacet
  facet normal 0 0 -1
    outer loop
      vertex 4.53748 8.43944 0
      vertex 5.13029 14.0954 0
      vertex 4.99086 8.4236 0
    endloop
  endfacet
  facet normal 0 0 -1
    outer loop
      vertex 5.43103 8.31386 0
      vertex 5.13029 14.0954 0
      vertex 5.83876 8.11499 0
    endloop
  endfacet
  facet normal 0 0 -1
    outer loop
      vertex 5.83876 8.11499 0
      vertex 5.13029 14.0954 0
      vertex 9.86978 14.0954 0
    endloop
  endfacet
  facet normal 0 0 -1
    outer loop
      vertex 5.87923 8.08337 0
      vertex 5.83876 8.11499 0
      vertex 9.86978 14.0954 0
    endloop
  endfacet
  facet normal -0 0 -1
    outer loop
      vertex 12.0074 8.22234 0
      vertex 5.87923 8.08337 0
      vertex 9.86978 14.0954 0
    endloop
  endfacet
  facet normal 0 0 -1
    outer loop
      vertex 4.38683 4.12585 0
      vertex 5.37743 2.71115 0
      vertex 5.33 2.25999 0
    endloop
  endfacet
  facet normal 0 0 -1
    outer loop
      vertex 4.43816 4.12405 0
      vertex 5.87923 8.08337 0
      vertex 5.3933 2.75999 0
    endloop
  endfacet
  facet normal 0 0 -1
    outer loop
      vertex 3.94666 4.2356 0
      vertex 4.38683 4.12585 0
      vertex 5.33 2.25999 0
    endloop
  endfacet
  facet normal 0 0 -1
    outer loop
      vertex 3.53893 4.43446 0
      vertex 3.94666 4.2356 0
      vertex 5.37743 1.80884 0
    endloop
  endfacet
  facet normal 0 0 -1
    outer loop
      vertex 9.15527e-05 -3.05176e-05 0
      vertex 3.53893 4.43446 0
      vertex 5.37743 1.80884 0
    endloop
  endfacet
  facet normal 0 0 -1
    outer loop
      vertex 9.15527e-05 -3.05176e-05 0
      vertex 3.18144 4.71376 0
      vertex 3.53893 4.43446 0
    endloop
  endfacet
  facet normal 0 0 -1
    outer loop
      vertex 0 0 0
      vertex 2.88985 5.06128 0
      vertex 3.18144 4.71376 0
    endloop
  endfacet
  facet normal 0 0 -1
    outer loop
      vertex 2.08632 5.73213 0
      vertex 2.67686 5.46182 0
      vertex 2.88985 5.06128 0
    endloop
  endfacet
  facet normal 0 0 -1
    outer loop
      vertex 2.08632 5.73213 0
      vertex 2.65915 5.52364 0
      vertex 2.67686 5.46182 0
    endloop
  endfacet
  facet normal 0 0 -1
    outer loop
      vertex 0 0 0
      vertex 2.08632 5.73213 0
      vertex 2.88985 5.06128 0
    endloop
  endfacet
  facet normal 0 0 -1
    outer loop
      vertex 9.15527e-05 -3.05176e-05 0
      vertex 0 0 0
      vertex 3.18144 4.71376 0
    endloop
  endfacet
  facet normal 0 0 1
    outer loop
      vertex 12.8625 5.87311 15
      vertex 15 0 15
      vertex 15.0001 3.05176e-05 15
    endloop
  endfacet
  facet normal 0 0 1
    outer loop
      vertex 6.04799 0.647385 15
      vertex 6.10001 -1.52588e-05 15
      vertex 6.10001 0.609589 15
    endloop
  endfacet
  facet normal 0 0 1
    outer loop
      vertex 5.74445 0.984512 15
      vertex 9.15527e-05 -3.05176e-05 15
      vertex 6.10001 -1.52588e-05 15
    endloop
  endfacet
  facet normal 0 0 1
    outer loop
      vertex 6.04799 0.647385 15
      vertex 5.74445 0.984512 15
      vertex 6.10001 -1.52588e-05 15
    endloop
  endfacet
  facet normal 0 0 1
    outer loop
      vertex 5.51761 1.37738 15
      vertex 9.15527e-05 -3.05176e-05 15
      vertex 5.74445 0.984512 15
    endloop
  endfacet
  facet normal 0 0 1
    outer loop
      vertex 5.37743 1.80884 15
      vertex 9.15527e-05 -3.05176e-05 15
      vertex 5.51761 1.37738 15
    endloop
  endfacet
  facet normal 0 0 1
    outer loop
      vertex 5.33 2.25999 15
      vertex 3.94666 4.2356 15
      vertex 5.37743 1.80884 15
    endloop
  endfacet
  facet normal 0 0 1
    outer loop
      vertex 5.37743 2.71115 15
      vertex 4.43816 4.12405 15
      vertex 4.38683 4.12585 15
    endloop
  endfacet
  facet normal 0 0 1
    outer loop
      vertex 5.3933 2.75999 15
      vertex 4.43816 4.12405 15
      vertex 5.37743 2.71115 15
    endloop
  endfacet
  facet normal 0 0 1
    outer loop
      vertex 12.8625 5.87311 15
      vertex 13.4961 6.10371 15
      vertex 13.9335 7.50417 15
    endloop
  endfacet
  facet normal 0 0 1
    outer loop
      vertex 13.8647 7.99376 15
      vertex 12.641 8.45294 15
      vertex 13.853 7.82693 15
    endloop
  endfacet
  facet normal -0 0 1
    outer loop
      vertex 9.67 2.25999 15
      vertex 15 0 15
      vertex 12.8625 5.87311 15
    endloop
  endfacet
  facet normal -0 0 1
    outer loop
      vertex 9.62257 1.80884 15
      vertex 15 0 15
      vertex 9.67 2.25999 15
    endloop
  endfacet
  facet normal -0 0 1
    outer loop
      vertex 9.48239 1.37738 15
      vertex 15 0 15
      vertex 9.62257 1.80884 15
    endloop
  endfacet
  facet normal 0 0 1
    outer loop
      vertex 9.25555 0.984512 15
      vertex 8.89999 -1.52588e-05 15
      vertex 15 0 15
    endloop
  endfacet
  facet normal -0 0 1
    outer loop
      vertex 8.95201 0.647385 15
      vertex 8.89999 -1.52588e-05 15
      vertex 9.25555 0.984512 15
    endloop
  endfacet
  facet normal 0 0 1
    outer loop
      vertex 14.0709 5.8266 15
      vertex 14.432 7.08586 15
      vertex 14.2769 7.1485 15
    endloop
  endfacet
  facet normal -0 0 1
    outer loop
      vertex 8.89999 0.609589 15
      vertex 8.89999 -1.52588e-05 15
      vertex 8.95201 0.647385 15
    endloop
  endfacet
  facet normal -0 0 1
    outer loop
      vertex 9.25555 0.984512 15
      vertex 15 0 15
      vertex 9.48239 1.37738 15
    endloop
  endfacet
  facet normal -0 0 1
    outer loop
      vertex 9.62257 2.71115 15
      vertex 9.67 2.25999 15
      vertex 12.8625 5.87311 15
    endloop
  endfacet
  facet normal 0 -0 1
    outer loop
      vertex 9.62257 2.71115 15
      vertex 12.8625 5.87311 15
      vertex 9.6067 2.75999 15
    endloop
  endfacet
  facet normal 0 -0 1
    outer loop
      vertex 14.5053 5.75002 15
      vertex 14.5967 7.05681 15
      vertex 14.0709 5.8266 15
    endloop
  endfacet
  facet normal 0 -0 1
    outer loop
      vertex 14.9462 5.76538 15
      vertex 15.3742 5.87212 15
      vertex 14.7639 7.06264 15
    endloop
  endfacet
  facet normal 0 -0 1
    outer loop
      vertex 13.9108 8.15453 15
      vertex 13.9893 8.3022 15
      vertex 12.9032 9.03474 15
    endloop
  endfacet
  facet normal 0 0 1
    outer loop
      vertex 15.3742 5.87212 15
      vertex 14.9261 7.1031 15
      vertex 14.7639 7.06264 15
    endloop
  endfacet
  facet normal 0 0 1
    outer loop
      vertex 15.6453 6.00433 15
      vertex 15.0764 7.17641 15
      vertex 14.9261 7.1031 15
    endloop
  endfacet
  facet normal 0 0 1
    outer loop
      vertex 15.1872 7.26294 15
      vertex 15.0764 7.17641 15
      vertex 15.6453 6.00433 15
    endloop
  endfacet
  facet normal 0 0 1
    outer loop
      vertex 15.6453 6.00433 15
      vertex 14.9261 7.1031 15
      vertex 15.3742 5.87212 15
    endloop
  endfacet
  facet normal 0 0 1
    outer loop
      vertex 14.7639 7.06264 15
      vertex 14.5967 7.05681 15
      vertex 14.5053 5.75002 15
    endloop
  endfacet
  facet normal 0 0 1
    outer loop
      vertex 14.9462 5.76538 15
      vertex 14.7639 7.06264 15
      vertex 14.5053 5.75002 15
    endloop
  endfacet
  facet normal 0 0 1
    outer loop
      vertex 14.5967 7.05681 15
      vertex 14.432 7.08586 15
      vertex 14.0709 5.8266 15
    endloop
  endfacet
  facet normal 0 -0 1
    outer loop
      vertex 14.0709 5.8266 15
      vertex 14.2769 7.1485 15
      vertex 13.6619 5.99184 15
    endloop
  endfacet
  facet normal 0 0 1
    outer loop
      vertex 14.2769 7.1485 15
      vertex 13.4961 6.10371 15
      vertex 13.6619 5.99184 15
    endloop
  endfacet
  facet normal 0 0 1
    outer loop
      vertex 14.3789 8.6066 15
      vertex 14.2235 9.91057 15
      vertex 13.9308 9.83759 15
    endloop
  endfacet
  facet normal 0 0 1
    outer loop
      vertex 14.1383 7.24202 15
      vertex 13.4961 6.10371 15
      vertex 14.2769 7.1485 15
    endloop
  endfacet
  facet normal 0 0 1
    outer loop
      vertex 14.0221 7.36234 15
      vertex 13.4961 6.10371 15
      vertex 14.1383 7.24202 15
    endloop
  endfacet
  facet normal 0 0 1
    outer loop
      vertex 13.9335 7.50417 15
      vertex 13.4961 6.10371 15
      vertex 14.0221 7.36234 15
    endloop
  endfacet
  facet normal 0 0 1
    outer loop
      vertex 13.8763 7.66132 15
      vertex 12.0074 8.22234 15
      vertex 13.9335 7.50417 15
    endloop
  endfacet
  facet normal 0 0 1
    outer loop
      vertex 12.641 8.45294 15
      vertex 13.8647 7.99376 15
      vertex 13.9108 8.15453 15
    endloop
  endfacet
  facet normal -0 0 1
    outer loop
      vertex 12.6962 8.64528 15
      vertex 13.9108 8.15453 15
      vertex 12.9032 9.03474 15
    endloop
  endfacet
  facet normal 0 0 1
    outer loop
      vertex 12.9032 9.03474 15
      vertex 13.9893 8.3022 15
      vertex 14.0968 8.43033 15
    endloop
  endfacet
  facet normal -0 0 1
    outer loop
      vertex 12.9032 9.03474 15
      vertex 14.0968 8.43033 15
      vertex 13.1868 9.37265 15
    endloop
  endfacet
  facet normal -0 0 1
    outer loop
      vertex 13.1868 9.37265 15
      vertex 14.2286 8.53329 15
      vertex 13.5344 9.64423 15
    endloop
  endfacet
  facet normal 0 0 1
    outer loop
      vertex 14.2286 8.53329 15
      vertex 13.9308 9.83759 15
      vertex 13.5344 9.64423 15
    endloop
  endfacet
  facet normal 0 0 1
    outer loop
      vertex 14.3789 8.6066 15
      vertex 13.9308 9.83759 15
      vertex 14.2286 8.53329 15
    endloop
  endfacet
  facet normal 0 -0 1
    outer loop
      vertex 14.0968 8.43033 15
      vertex 14.2286 8.53329 15
      vertex 13.1868 9.37265 15
    endloop
  endfacet
  facet normal 0 0 1
    outer loop
      vertex 14.5412 8.64706 15
      vertex 14.2235 9.91057 15
      vertex 14.3789 8.6066 15
    endloop
  endfacet
  facet normal 0 0 1
    outer loop
      vertex 14.6816 8.65196 15
      vertex 14.2235 9.91057 15
      vertex 14.5412 8.64706 15
    endloop
  endfacet
  facet normal -0 0 1
    outer loop
      vertex 12.641 8.45294 15
      vertex 13.9108 8.15453 15
      vertex 12.6962 8.64528 15
    endloop
  endfacet
  facet normal 0 0 1
    outer loop
      vertex 3.6701 8.19072 15
      vertex 3.04398 8.36325 15
      vertex 3.61679 8.15475 15
    endloop
  endfacet
  facet normal 0 0 1
    outer loop
      vertex 13.8763 7.66132 15
      vertex 13.853 7.82693 15
      vertex 12.641 8.45294 15
    endloop
  endfacet
  facet normal 0 0 1
    outer loop
      vertex 13.9335 7.50417 15
      vertex 12.0074 8.22234 15
      vertex 12.8625 5.87311 15
    endloop
  endfacet
  facet normal 0 0 1
    outer loop
      vertex 12.0074 8.22234 15
      vertex 9.6067 2.75999 15
      vertex 12.8625 5.87311 15
    endloop
  endfacet
  facet normal 0 0 1
    outer loop
      vertex 13.8763 7.66132 15
      vertex 12.641 8.45294 15
      vertex 12.0074 8.22234 15
    endloop
  endfacet
  facet normal -0 0 1
    outer loop
      vertex 5.87923 8.08337 15
      vertex 9.6067 2.75999 15
      vertex 12.0074 8.22234 15
    endloop
  endfacet
  facet normal 0 0 1
    outer loop
      vertex 4.09071 8.36064 15
      vertex 3.04398 8.36325 15
      vertex 3.6701 8.19072 15
    endloop
  endfacet
  facet normal 0 0 1
    outer loop
      vertex 5.3933 2.75999 15
      vertex 9.6067 2.75999 15
      vertex 5.87923 8.08337 15
    endloop
  endfacet
  facet normal 0 -0 1
    outer loop
      vertex 4.09071 8.36064 15
      vertex 5.13029 14.0954 15
      vertex 3.04398 8.36325 15
    endloop
  endfacet
  facet normal 0 -0 1
    outer loop
      vertex 4.53748 8.43944 15
      vertex 5.13029 14.0954 15
      vertex 4.09071 8.36064 15
    endloop
  endfacet
  facet normal 0 0 1
    outer loop
      vertex 5.43103 8.31386 15
      vertex 5.13029 14.0954 15
      vertex 4.99086 8.4236 15
    endloop
  endfacet
  facet normal 0 -0 1
    outer loop
      vertex 4.99086 8.4236 15
      vertex 5.13029 14.0954 15
      vertex 4.53748 8.43944 15
    endloop
  endfacet
  facet normal 0 0 1
    outer loop
      vertex 5.83876 8.11499 15
      vertex 5.13029 14.0954 15
      vertex 5.43103 8.31386 15
    endloop
  endfacet
  facet normal 0 0 1
    outer loop
      vertex 9.86978 14.0954 15
      vertex 5.13029 14.0954 15
      vertex 5.83876 8.11499 15
    endloop
  endfacet
  facet normal 0 0 1
    outer loop
      vertex 9.86978 14.0954 15
      vertex 5.83876 8.11499 15
      vertex 5.87923 8.08337 15
    endloop
  endfacet
  facet normal 0 0 1
    outer loop
      vertex 9.86978 14.0954 15
      vertex 5.87923 8.08337 15
      vertex 12.0074 8.22234 15
    endloop
  endfacet
  facet normal 0 -0 1
    outer loop
      vertex 5.33 2.25999 15
      vertex 5.37743 2.71115 15
      vertex 4.38683 4.12585 15
    endloop
  endfacet
  facet normal 0 -0 1
    outer loop
      vertex 5.3933 2.75999 15
      vertex 5.87923 8.08337 15
      vertex 4.43816 4.12405 15
    endloop
  endfacet
  facet normal 0 0 1
    outer loop
      vertex 5.33 2.25999 15
      vertex 4.38683 4.12585 15
      vertex 3.94666 4.2356 15
    endloop
  endfacet
  facet normal 0 0 1
    outer loop
      vertex 5.37743 1.80884 15
      vertex 3.94666 4.2356 15
      vertex 3.53893 4.43446 15
    endloop
  endfacet
  facet normal 0 0 1
    outer loop
      vertex 5.37743 1.80884 15
      vertex 3.53893 4.43446 15
      vertex 9.15527e-05 -3.05176e-05 15
    endloop
  endfacet
  facet normal 0 0 1
    outer loop
      vertex 3.53893 4.43446 15
      vertex 3.18144 4.71376 15
      vertex 9.15527e-05 -3.05176e-05 15
    endloop
  endfacet
  facet normal 0 0 1
    outer loop
      vertex 3.18144 4.71376 15
      vertex 2.88985 5.06128 15
      vertex 0 0 15
    endloop
  endfacet
  facet normal 0 0 1
    outer loop
      vertex 2.88985 5.06128 15
      vertex 2.67686 5.46182 15
      vertex 2.08632 5.73213 15
    endloop
  endfacet
  facet normal 0 0 1
    outer loop
      vertex 2.67686 5.46182 15
      vertex 2.65915 5.52364 15
      vertex 2.08632 5.73213 15
    endloop
  endfacet
  facet normal 0 0 1
    outer loop
      vertex 2.88985 5.06128 15
      vertex 2.08632 5.73213 15
      vertex 0 0 15
    endloop
  endfacet
  facet normal 0 0 1
    outer loop
      vertex 3.18144 4.71376 15
      vertex 0 0 15
      vertex 9.15527e-05 -3.05176e-05 15
    endloop
  endfacet
  facet normal 1 0 0
    outer loop
      vertex 6.10001 0.609589 0
      vertex 6.10001 -1.52588e-05 15
      vertex 6.10001 -1.52588e-05 0
    endloop
  endfacet
  facet normal 1 0 -0
    outer loop
      vertex 6.10001 0.609589 0
      vertex 6.10001 0.609589 15
      vertex 6.10001 -1.52588e-05 15
    endloop
  endfacet
  facet normal 0.587798 0.809008 0
    outer loop
      vertex 6.04799 0.647385 0
      vertex 6.10001 0.609589 15
      vertex 6.10001 0.609589 0
    endloop
  endfacet
  facet normal 0.587798 0.809008 -0
    outer loop
      vertex 6.04799 0.647385 0
      vertex 6.04799 0.647385 15
      vertex 6.10001 0.609589 15
    endloop
  endfacet
  facet normal 0.743156 0.669118 0
    outer loop
      vertex 5.74445 0.984512 0
      vertex 6.04799 0.647385 15
      vertex 6.04799 0.647385 0
    endloop
  endfacet
  facet normal 0.743156 0.669118 -0
    outer loop
      vertex 5.74445 0.984512 0
      vertex 5.74445 0.984512 15
      vertex 6.04799 0.647385 15
    endloop
  endfacet
  facet normal 0.866009 0.500029 0
    outer loop
      vertex 5.51761 1.37738 0
      vertex 5.74445 0.984512 15
      vertex 5.74445 0.984512 0
    endloop
  endfacet
  facet normal 0.866009 0.500029 -0
    outer loop
      vertex 5.51761 1.37738 0
      vertex 5.51761 1.37738 15
      vertex 5.74445 0.984512 15
    endloop
  endfacet
  facet normal 0.951063 0.308997 0
    outer loop
      vertex 5.37743 1.80884 0
      vertex 5.51761 1.37738 15
      vertex 5.51761 1.37738 0
    endloop
  endfacet
  facet normal 0.951063 0.308997 -0
    outer loop
      vertex 5.37743 1.80884 0
      vertex 5.37743 1.80884 15
      vertex 5.51761 1.37738 15
    endloop
  endfacet
  facet normal 0.994519 0.104555 0
    outer loop
      vertex 5.33 2.25999 0
      vertex 5.37743 1.80884 15
      vertex 5.37743 1.80884 0
    endloop
  endfacet
  facet normal 0.994519 0.104555 -0
    outer loop
      vertex 5.33 2.25999 0
      vertex 5.33 2.25999 15
      vertex 5.37743 1.80884 15
    endloop
  endfacet
  facet normal 0.994519 -0.104553 0
    outer loop
      vertex 5.37743 2.71115 0
      vertex 5.33 2.25999 15
      vertex 5.33 2.25999 0
    endloop
  endfacet
  facet normal 0.994519 -0.104553 0
    outer loop
      vertex 5.37743 2.71115 0
      vertex 5.37743 2.71115 15
      vertex 5.33 2.25999 15
    endloop
  endfacet
  facet normal 0.951051 -0.309033 0
    outer loop
      vertex 5.3933 2.75999 0
      vertex 5.37743 2.71115 15
      vertex 5.37743 2.71115 0
    endloop
  endfacet
  facet normal 0.951051 -0.309033 0
    outer loop
      vertex 5.3933 2.75999 0
      vertex 5.3933 2.75999 15
      vertex 5.37743 2.71115 15
    endloop
  endfacet
  facet normal 0 -1 0
    outer loop
      vertex 9.6067 2.75999 0
      vertex 5.3933 2.75999 15
      vertex 5.3933 2.75999 0
    endloop
  endfacet
  facet normal 0 -1 0
    outer loop
      vertex 9.6067 2.75999 0
      vertex 9.6067 2.75999 15
      vertex 5.3933 2.75999 15
    endloop
  endfacet
  facet normal -0.951051 -0.309033 0
    outer loop
      vertex 9.62257 2.71115 0
      vertex 9.6067 2.75999 15
      vertex 9.6067 2.75999 0
    endloop
  endfacet
  facet normal -0.951051 -0.309033 0
    outer loop
      vertex 9.62257 2.71115 0
      vertex 9.62257 2.71115 15
      vertex 9.6067 2.75999 15
    endloop
  endfacet
  facet normal -0.994519 -0.104553 0
    outer loop
      vertex 9.67 2.25999 0
      vertex 9.62257 2.71115 15
      vertex 9.62257 2.71115 0
    endloop
  endfacet
  facet normal -0.994519 -0.104553 0
    outer loop
      vertex 9.67 2.25999 0
      vertex 9.67 2.25999 15
      vertex 9.62257 2.71115 15
    endloop
  endfacet
  facet normal -0.994519 0.104555 0
    outer loop
      vertex 9.62257 1.80884 0
      vertex 9.67 2.25999 15
      vertex 9.67 2.25999 0
    endloop
  endfacet
  facet normal -0.994519 0.104555 0
    outer loop
      vertex 9.62257 1.80884 0
      vertex 9.62257 1.80884 15
      vertex 9.67 2.25999 15
    endloop
  endfacet
  facet normal -0.951063 0.308997 0
    outer loop
      vertex 9.48239 1.37738 0
      vertex 9.62257 1.80884 15
      vertex 9.62257 1.80884 0
    endloop
  endfacet
  facet normal -0.951063 0.308997 0
    outer loop
      vertex 9.48239 1.37738 0
      vertex 9.48239 1.37738 15
      vertex 9.62257 1.80884 15
    endloop
  endfacet
  facet normal -0.866009 0.500029 0
    outer loop
      vertex 9.25555 0.984512 0
      vertex 9.48239 1.37738 15
      vertex 9.48239 1.37738 0
    endloop
  endfacet
  facet normal -0.866009 0.500029 0
    outer loop
      vertex 9.25555 0.984512 0
      vertex 9.25555 0.984512 15
      vertex 9.48239 1.37738 15
    endloop
  endfacet
  facet normal -0.743156 0.669118 0
    outer loop
      vertex 8.95201 0.647385 0
      vertex 9.25555 0.984512 15
      vertex 9.25555 0.984512 0
    endloop
  endfacet
  facet normal -0.743156 0.669118 0
    outer loop
      vertex 8.95201 0.647385 0
      vertex 8.95201 0.647385 15
      vertex 9.25555 0.984512 15
    endloop
  endfacet
  facet normal -0.587798 0.809008 0
    outer loop
      vertex 8.89999 0.609589 0
      vertex 8.95201 0.647385 15
      vertex 8.95201 0.647385 0
    endloop
  endfacet
  facet normal -0.587798 0.809008 0
    outer loop
      vertex 8.89999 0.609589 0
      vertex 8.89999 0.609589 15
      vertex 8.95201 0.647385 15
    endloop
  endfacet
  facet normal -1 0 0
    outer loop
      vertex 8.89999 -1.52588e-05 0
      vertex 8.89999 0.609589 15
      vertex 8.89999 0.609589 0
    endloop
  endfacet
  facet normal -1 0 0
    outer loop
      vertex 8.89999 -1.52588e-05 0
      vertex 8.89999 -1.52588e-05 15
      vertex 8.89999 0.609589 15
    endloop
  endfacet
  facet normal 2.50144e-06 -1 0
    outer loop
      vertex 15 0 0
      vertex 8.89999 -1.52588e-05 15
      vertex 8.89999 -1.52588e-05 0
    endloop
  endfacet
  facet normal 2.50144e-06 -1 0
    outer loop
      vertex 15 0 0
      vertex 15 0 15
      vertex 8.89999 -1.52588e-05 15
    endloop
  endfacet
  facet normal 0.291886 -0.956453 0
    outer loop
      vertex 15.0001 3.05176e-05 0
      vertex 15 0 15
      vertex 15 0 0
    endloop
  endfacet
  facet normal 0.291886 -0.956453 0
    outer loop
      vertex 15.0001 3.05176e-05 0
      vertex 15.0001 3.05176e-05 15
      vertex 15 0 15
    endloop
  endfacet
  facet normal 0.939694 0.342016 0
    outer loop
      vertex 12.8625 5.87311 0
      vertex 15.0001 3.05176e-05 15
      vertex 15.0001 3.05176e-05 0
    endloop
  endfacet
  facet normal 0.939694 0.342016 -0
    outer loop
      vertex 12.8625 5.87311 0
      vertex 12.8625 5.87311 15
      vertex 15.0001 3.05176e-05 15
    endloop
  endfacet
  facet normal 0.342005 -0.939698 0
    outer loop
      vertex 13.4961 6.10371 0
      vertex 12.8625 5.87311 15
      vertex 12.8625 5.87311 0
    endloop
  endfacet
  facet normal 0.342005 -0.939698 0
    outer loop
      vertex 13.4961 6.10371 0
      vertex 13.4961 6.10371 15
      vertex 12.8625 5.87311 15
    endloop
  endfacet
  facet normal -0.559318 -0.828953 0
    outer loop
      vertex 13.6619 5.99184 0
      vertex 13.4961 6.10371 15
      vertex 13.4961 6.10371 0
    endloop
  endfacet
  facet normal -0.559318 -0.828953 0
    outer loop
      vertex 13.6619 5.99184 0
      vertex 13.6619 5.99184 15
      vertex 13.4961 6.10371 15
    endloop
  endfacet
  facet normal -0.374593 -0.927189 0
    outer loop
      vertex 14.0709 5.8266 0
      vertex 13.6619 5.99184 15
      vertex 13.6619 5.99184 0
    endloop
  endfacet
  facet normal -0.374593 -0.927189 0
    outer loop
      vertex 14.0709 5.8266 0
      vertex 14.0709 5.8266 15
      vertex 13.6619 5.99184 15
    endloop
  endfacet
  facet normal -0.173612 -0.984814 0
    outer loop
      vertex 14.5053 5.75002 0
      vertex 14.0709 5.8266 15
      vertex 14.0709 5.8266 0
    endloop
  endfacet
  facet normal -0.173612 -0.984814 0
    outer loop
      vertex 14.5053 5.75002 0
      vertex 14.5053 5.75002 15
      vertex 14.0709 5.8266 15
    endloop
  endfacet
  facet normal 0.0348167 -0.999394 0
    outer loop
      vertex 14.9462 5.76538 0
      vertex 14.5053 5.75002 15
      vertex 14.5053 5.75002 0
    endloop
  endfacet
  facet normal 0.0348167 -0.999394 0
    outer loop
      vertex 14.9462 5.76538 0
      vertex 14.9462 5.76538 15
      vertex 14.5053 5.75002 15
    endloop
  endfacet
  facet normal 0.241981 -0.970281 0
    outer loop
      vertex 15.3742 5.87212 0
      vertex 14.9462 5.76538 15
      vertex 14.9462 5.76538 0
    endloop
  endfacet
  facet normal 0.241981 -0.970281 0
    outer loop
      vertex 15.3742 5.87212 0
      vertex 15.3742 5.87212 15
      vertex 14.9462 5.76538 15
    endloop
  endfacet
  facet normal 0.438333 -0.898813 0
    outer loop
      vertex 15.6453 6.00433 0
      vertex 15.3742 5.87212 15
      vertex 15.3742 5.87212 0
    endloop
  endfacet
  facet normal 0.438333 -0.898813 0
    outer loop
      vertex 15.6453 6.00433 0
      vertex 15.6453 6.00433 15
      vertex 15.3742 5.87212 15
    endloop
  endfacet
  facet normal 0.939692 0.342022 0
    outer loop
      vertex 15.1872 7.26294 0
      vertex 15.6453 6.00433 15
      vertex 15.6453 6.00433 0
    endloop
  endfacet
  facet normal 0.939692 0.342022 -0
    outer loop
      vertex 15.1872 7.26294 0
      vertex 15.1872 7.26294 15
      vertex 15.6453 6.00433 15
    endloop
  endfacet
  facet normal -0.6155 0.788137 0
    outer loop
      vertex 15.0764 7.17641 0
      vertex 15.1872 7.26294 15
      vertex 15.1872 7.26294 0
    endloop
  endfacet
  facet normal -0.6155 0.788137 0
    outer loop
      vertex 15.0764 7.17641 0
      vertex 15.0764 7.17641 15
      vertex 15.1872 7.26294 15
    endloop
  endfacet
  facet normal -0.438389 0.898785 0
    outer loop
      vertex 14.9261 7.1031 0
      vertex 15.0764 7.17641 15
      vertex 15.0764 7.17641 0
    endloop
  endfacet
  facet normal -0.438389 0.898785 0
    outer loop
      vertex 14.9261 7.1031 0
      vertex 14.9261 7.1031 15
      vertex 15.0764 7.17641 15
    endloop
  endfacet
  facet normal -0.242029 0.970269 0
    outer loop
      vertex 14.7639 7.06264 0
      vertex 14.9261 7.1031 15
      vertex 14.9261 7.1031 0
    endloop
  endfacet
  facet normal -0.242029 0.970269 0
    outer loop
      vertex 14.7639 7.06264 0
      vertex 14.7639 7.06264 15
      vertex 14.9261 7.1031 15
    endloop
  endfacet
  facet normal -0.0348472 0.999393 0
    outer loop
      vertex 14.5967 7.05681 0
      vertex 14.7639 7.06264 15
      vertex 14.7639 7.06264 0
    endloop
  endfacet
  facet normal -0.0348472 0.999393 0
    outer loop
      vertex 14.5967 7.05681 0
      vertex 14.5967 7.05681 15
      vertex 14.7639 7.06264 15
    endloop
  endfacet
  facet normal 0.1737 0.984799 0
    outer loop
      vertex 14.432 7.08586 0
      vertex 14.5967 7.05681 15
      vertex 14.5967 7.05681 0
    endloop
  endfacet
  facet normal 0.1737 0.984799 -0
    outer loop
      vertex 14.432 7.08586 0
      vertex 14.432 7.08586 15
      vertex 14.5967 7.05681 15
    endloop
  endfacet
  facet normal 0.374481 0.927235 0
    outer loop
      vertex 14.2769 7.1485 0
      vertex 14.432 7.08586 15
      vertex 14.432 7.08586 0
    endloop
  endfacet
  facet normal 0.374481 0.927235 -0
    outer loop
      vertex 14.2769 7.1485 0
      vertex 14.2769 7.1485 15
      vertex 14.432 7.08586 15
    endloop
  endfacet
  facet normal 0.559329 0.828946 0
    outer loop
      vertex 14.1383 7.24202 0
      vertex 14.2769 7.1485 15
      vertex 14.2769 7.1485 0
    endloop
  endfacet
  facet normal 0.559329 0.828946 -0
    outer loop
      vertex 14.1383 7.24202 0
      vertex 14.1383 7.24202 15
      vertex 14.2769 7.1485 15
    endloop
  endfacet
  facet normal 0.719315 0.694684 0
    outer loop
      vertex 14.0221 7.36234 0
      vertex 14.1383 7.24202 15
      vertex 14.1383 7.24202 0
    endloop
  endfacet
  facet normal 0.719315 0.694684 -0
    outer loop
      vertex 14.0221 7.36234 0
      vertex 14.0221 7.36234 15
      vertex 14.1383 7.24202 15
    endloop
  endfacet
  facet normal 0.848116 0.529811 0
    outer loop
      vertex 13.9335 7.50417 0
      vertex 14.0221 7.36234 15
      vertex 14.0221 7.36234 0
    endloop
  endfacet
  facet normal 0.848116 0.529811 -0
    outer loop
      vertex 13.9335 7.50417 0
      vertex 13.9335 7.50417 15
      vertex 14.0221 7.36234 15
    endloop
  endfacet
  facet normal 0.939689 0.342031 0
    outer loop
      vertex 13.8763 7.66132 0
      vertex 13.9335 7.50417 15
      vertex 13.9335 7.50417 0
    endloop
  endfacet
  facet normal 0.939689 0.342031 -0
    outer loop
      vertex 13.8763 7.66132 0
      vertex 13.8763 7.66132 15
      vertex 13.9335 7.50417 15
    endloop
  endfacet
  facet normal 0.990247 0.13932 0
    outer loop
      vertex 13.853 7.82693 0
      vertex 13.8763 7.66132 15
      vertex 13.8763 7.66132 0
    endloop
  endfacet
  facet normal 0.990247 0.13932 -0
    outer loop
      vertex 13.853 7.82693 0
      vertex 13.853 7.82693 15
      vertex 13.8763 7.66132 15
    endloop
  endfacet
  facet normal 0.99755 -0.0699594 0
    outer loop
      vertex 13.8647 7.99376 0
      vertex 13.853 7.82693 15
      vertex 13.853 7.82693 0
    endloop
  endfacet
  facet normal 0.99755 -0.0699594 0
    outer loop
      vertex 13.8647 7.99376 0
      vertex 13.8647 7.99376 15
      vertex 13.853 7.82693 15
    endloop
  endfacet
  facet normal 0.961262 -0.275637 0
    outer loop
      vertex 13.9108 8.15453 0
      vertex 13.8647 7.99376 15
      vertex 13.8647 7.99376 0
    endloop
  endfacet
  facet normal 0.961262 -0.275637 0
    outer loop
      vertex 13.9108 8.15453 0
      vertex 13.9108 8.15453 15
      vertex 13.8647 7.99376 15
    endloop
  endfacet
  facet normal 0.882991 -0.46939 0
    outer loop
      vertex 13.9893 8.3022 0
      vertex 13.9108 8.15453 15
      vertex 13.9108 8.15453 0
    endloop
  endfacet
  facet normal 0.882991 -0.46939 0
    outer loop
      vertex 13.9893 8.3022 0
      vertex 13.9893 8.3022 15
      vertex 13.9108 8.15453 15
    endloop
  endfacet
  facet normal 0.766085 -0.642739 0
    outer loop
      vertex 14.0968 8.43033 0
      vertex 13.9893 8.3022 15
      vertex 13.9893 8.3022 0
    endloop
  endfacet
  facet normal 0.766085 -0.642739 0
    outer loop
      vertex 14.0968 8.43033 0
      vertex 14.0968 8.43033 15
      vertex 13.9893 8.3022 15
    endloop
  endfacet
  facet normal 0.615612 -0.78805 0
    outer loop
      vertex 14.2286 8.53329 0
      vertex 14.0968 8.43033 15
      vertex 14.0968 8.43033 0
    endloop
  endfacet
  facet normal 0.615612 -0.78805 0
    outer loop
      vertex 14.2286 8.53329 0
      vertex 14.2286 8.53329 15
      vertex 14.0968 8.43033 15
    endloop
  endfacet
  facet normal 0.438389 -0.898785 0
    outer loop
      vertex 14.3789 8.6066 0
      vertex 14.2286 8.53329 15
      vertex 14.2286 8.53329 0
    endloop
  endfacet
  facet normal 0.438389 -0.898785 0
    outer loop
      vertex 14.3789 8.6066 0
      vertex 14.3789 8.6066 15
      vertex 14.2286 8.53329 15
    endloop
  endfacet
  facet normal 0.241888 -0.970304 0
    outer loop
      vertex 14.5412 8.64706 0
      vertex 14.3789 8.6066 15
      vertex 14.3789 8.6066 0
    endloop
  endfacet
  facet normal 0.241888 -0.970304 0
    outer loop
      vertex 14.5412 8.64706 0
      vertex 14.5412 8.64706 15
      vertex 14.3789 8.6066 15
    endloop
  endfacet
  facet normal 0.034879 -0.999392 0
    outer loop
      vertex 14.6816 8.65196 0
      vertex 14.5412 8.64706 15
      vertex 14.5412 8.64706 0
    endloop
  endfacet
  facet normal 0.034879 -0.999392 0
    outer loop
      vertex 14.6816 8.65196 0
      vertex 14.6816 8.65196 15
      vertex 14.5412 8.64706 15
    endloop
  endfacet
  facet normal 0.939692 0.342022 0
    outer loop
      vertex 14.2235 9.91057 0
      vertex 14.6816 8.65196 15
      vertex 14.6816 8.65196 0
    endloop
  endfacet
  facet normal 0.939692 0.342022 -0
    outer loop
      vertex 14.2235 9.91057 0
      vertex 14.2235 9.91057 15
      vertex 14.6816 8.65196 15
    endloop
  endfacet
  facet normal -0.241927 0.970294 0
    outer loop
      vertex 13.9308 9.83759 0
      vertex 14.2235 9.91057 15
      vertex 14.2235 9.91057 0
    endloop
  endfacet
  facet normal -0.241927 0.970294 0
    outer loop
      vertex 13.9308 9.83759 0
      vertex 13.9308 9.83759 15
      vertex 14.2235 9.91057 15
    endloop
  endfacet
  facet normal -0.438413 0.898774 0
    outer loop
      vertex 13.5344 9.64423 0
      vertex 13.9308 9.83759 15
      vertex 13.9308 9.83759 0
    endloop
  endfacet
  facet normal -0.438413 0.898774 0
    outer loop
      vertex 13.5344 9.64423 0
      vertex 13.5344 9.64423 15
      vertex 13.9308 9.83759 15
    endloop
  endfacet
  facet normal -0.615669 0.788005 0
    outer loop
      vertex 13.1868 9.37265 0
      vertex 13.5344 9.64423 15
      vertex 13.5344 9.64423 0
    endloop
  endfacet
  facet normal -0.615669 0.788005 0
    outer loop
      vertex 13.1868 9.37265 0
      vertex 13.1868 9.37265 15
      vertex 13.5344 9.64423 15
    endloop
  endfacet
  facet normal -0.765978 0.642867 0
    outer loop
      vertex 12.9032 9.03474 0
      vertex 13.1868 9.37265 15
      vertex 13.1868 9.37265 0
    endloop
  endfacet
  facet normal -0.765978 0.642867 0
    outer loop
      vertex 12.9032 9.03474 0
      vertex 12.9032 9.03474 15
      vertex 13.1868 9.37265 15
    endloop
  endfacet
  facet normal -0.883022 0.469331 0
    outer loop
      vertex 12.6962 8.64528 0
      vertex 12.9032 9.03474 15
      vertex 12.9032 9.03474 0
    endloop
  endfacet
  facet normal -0.883022 0.469331 0
    outer loop
      vertex 12.6962 8.64528 0
      vertex 12.6962 8.64528 15
      vertex 12.9032 9.03474 15
    endloop
  endfacet
  facet normal -0.961199 0.275856 0
    outer loop
      vertex 12.641 8.45294 0
      vertex 12.6962 8.64528 15
      vertex 12.6962 8.64528 0
    endloop
  endfacet
  facet normal -0.961199 0.275856 0
    outer loop
      vertex 12.641 8.45294 0
      vertex 12.641 8.45294 15
      vertex 12.6962 8.64528 15
    endloop
  endfacet
  facet normal -0.342005 0.939698 0
    outer loop
      vertex 12.0074 8.22234 0
      vertex 12.641 8.45294 15
      vertex 12.641 8.45294 0
    endloop
  endfacet
  facet normal -0.342005 0.939698 0
    outer loop
      vertex 12.0074 8.22234 0
      vertex 12.0074 8.22234 15
      vertex 12.641 8.45294 15
    endloop
  endfacet
  facet normal 0.939693 0.34202 0
    outer loop
      vertex 9.86978 14.0954 0
      vertex 12.0074 8.22234 15
      vertex 12.0074 8.22234 0
    endloop
  endfacet
  facet normal 0.939693 0.34202 -0
    outer loop
      vertex 9.86978 14.0954 0
      vertex 9.86978 14.0954 15
      vertex 12.0074 8.22234 15
    endloop
  endfacet
  facet normal 0 1 0
    outer loop
      vertex 5.13029 14.0954 0
      vertex 9.86978 14.0954 15
      vertex 9.86978 14.0954 0
    endloop
  endfacet
  facet normal 0 1 0
    outer loop
      vertex 5.13029 14.0954 0
      vertex 5.13029 14.0954 15
      vertex 9.86978 14.0954 15
    endloop
  endfacet
  facet normal -0.939694 0.342017 0
    outer loop
      vertex 3.04398 8.36325 0
      vertex 5.13029 14.0954 15
      vertex 5.13029 14.0954 0
    endloop
  endfacet
  facet normal -0.939694 0.342017 0
    outer loop
      vertex 3.04398 8.36325 0
      vertex 3.04398 8.36325 15
      vertex 5.13029 14.0954 15
    endloop
  endfacet
  facet normal -0.342041 -0.939685 0
    outer loop
      vertex 3.61679 8.15475 0
      vertex 3.04398 8.36325 15
      vertex 3.04398 8.36325 0
    endloop
  endfacet
  facet normal -0.342041 -0.939685 0
    outer loop
      vertex 3.61679 8.15475 0
      vertex 3.61679 8.15475 15
      vertex 3.04398 8.36325 15
    endloop
  endfacet
  facet normal 0.559321 -0.828951 0
    outer loop
      vertex 3.6701 8.19072 0
      vertex 3.61679 8.15475 15
      vertex 3.61679 8.15475 0
    endloop
  endfacet
  facet normal 0.559321 -0.828951 0
    outer loop
      vertex 3.6701 8.19072 0
      vertex 3.6701 8.19072 15
      vertex 3.61679 8.15475 15
    endloop
  endfacet
  facet normal 0.374573 -0.927197 0
    outer loop
      vertex 4.09071 8.36064 0
      vertex 3.6701 8.19072 15
      vertex 3.6701 8.19072 0
    endloop
  endfacet
  facet normal 0.374573 -0.927197 0
    outer loop
      vertex 4.09071 8.36064 0
      vertex 4.09071 8.36064 15
      vertex 3.6701 8.19072 15
    endloop
  endfacet
  facet normal 0.173696 -0.984799 0
    outer loop
      vertex 4.53748 8.43944 0
      vertex 4.09071 8.36064 15
      vertex 4.09071 8.36064 0
    endloop
  endfacet
  facet normal 0.173696 -0.984799 0
    outer loop
      vertex 4.53748 8.43944 0
      vertex 4.53748 8.43944 15
      vertex 4.09071 8.36064 15
    endloop
  endfacet
  facet normal -0.0349163 -0.99939 0
    outer loop
      vertex 4.99086 8.4236 0
      vertex 4.53748 8.43944 15
      vertex 4.53748 8.43944 0
    endloop
  endfacet
  facet normal -0.0349163 -0.99939 0
    outer loop
      vertex 4.99086 8.4236 0
      vertex 4.99086 8.4236 15
      vertex 4.53748 8.43944 15
    endloop
  endfacet
  facet normal -0.241908 -0.970299 0
    outer loop
      vertex 5.43103 8.31386 0
      vertex 4.99086 8.4236 15
      vertex 4.99086 8.4236 0
    endloop
  endfacet
  facet normal -0.241908 -0.970299 0
    outer loop
      vertex 5.43103 8.31386 0
      vertex 5.43103 8.31386 15
      vertex 4.99086 8.4236 15
    endloop
  endfacet
  facet normal -0.438383 -0.898788 0
    outer loop
      vertex 5.83876 8.11499 0
      vertex 5.43103 8.31386 15
      vertex 5.43103 8.31386 0
    endloop
  endfacet
  facet normal -0.438383 -0.898788 0
    outer loop
      vertex 5.83876 8.11499 0
      vertex 5.83876 8.11499 15
      vertex 5.43103 8.31386 15
    endloop
  endfacet
  facet normal -0.615678 -0.787998 0
    outer loop
      vertex 5.87923 8.08337 0
      vertex 5.83876 8.11499 15
      vertex 5.83876 8.11499 0
    endloop
  endfacet
  facet normal -0.615678 -0.787998 0
    outer loop
      vertex 5.87923 8.08337 0
      vertex 5.87923 8.08337 15
      vertex 5.83876 8.11499 15
    endloop
  endfacet
  facet normal -0.939693 0.342019 0
    outer loop
      vertex 4.43816 4.12405 0
      vertex 5.87923 8.08337 15
      vertex 5.87923 8.08337 0
    endloop
  endfacet
  facet normal -0.939693 0.342019 0
    outer loop
      vertex 4.43816 4.12405 0
      vertex 4.43816 4.12405 15
      vertex 5.87923 8.08337 15
    endloop
  endfacet
  facet normal 0.0350457 0.999386 0
    outer loop
      vertex 4.38683 4.12585 0
      vertex 4.43816 4.12405 15
      vertex 4.43816 4.12405 0
    endloop
  endfacet
  facet normal 0.0350457 0.999386 -0
    outer loop
      vertex 4.38683 4.12585 0
      vertex 4.38683 4.12585 15
      vertex 4.43816 4.12405 15
    endloop
  endfacet
  facet normal 0.241929 0.970294 0
    outer loop
      vertex 3.94666 4.2356 0
      vertex 4.38683 4.12585 15
      vertex 4.38683 4.12585 0
    endloop
  endfacet
  facet normal 0.241929 0.970294 -0
    outer loop
      vertex 3.94666 4.2356 0
      vertex 3.94666 4.2356 15
      vertex 4.38683 4.12585 15
    endloop
  endfacet
  facet normal 0.438365 0.898797 0
    outer loop
      vertex 3.53893 4.43446 0
      vertex 3.94666 4.2356 15
      vertex 3.94666 4.2356 0
    endloop
  endfacet
  facet normal 0.438365 0.898797 -0
    outer loop
      vertex 3.53893 4.43446 0
      vertex 3.53893 4.43446 15
      vertex 3.94666 4.2356 15
    endloop
  endfacet
  facet normal 0.615659 0.788013 0
    outer loop
      vertex 3.18144 4.71376 0
      vertex 3.53893 4.43446 15
      vertex 3.53893 4.43446 0
    endloop
  endfacet
  facet normal 0.615659 0.788013 -0
    outer loop
      vertex 3.18144 4.71376 0
      vertex 3.18144 4.71376 15
      vertex 3.53893 4.43446 15
    endloop
  endfacet
  facet normal 0.76606 0.64277 0
    outer loop
      vertex 2.88985 5.06128 0
      vertex 3.18144 4.71376 15
      vertex 3.18144 4.71376 0
    endloop
  endfacet
  facet normal 0.76606 0.64277 -0
    outer loop
      vertex 2.88985 5.06128 0
      vertex 2.88985 5.06128 15
      vertex 3.18144 4.71376 15
    endloop
  endfacet
  facet normal 0.88293 0.469504 0
    outer loop
      vertex 2.67686 5.46182 0
      vertex 2.88985 5.06128 15
      vertex 2.88985 5.06128 0
    endloop
  endfacet
  facet normal 0.88293 0.469504 -0
    outer loop
      vertex 2.67686 5.46182 0
      vertex 2.67686 5.46182 15
      vertex 2.88985 5.06128 15
    endloop
  endfacet
  facet normal 0.96133 0.275399 0
    outer loop
      vertex 2.65915 5.52364 0
      vertex 2.67686 5.46182 15
      vertex 2.67686 5.46182 0
    endloop
  endfacet
  facet normal 0.96133 0.275399 -0
    outer loop
      vertex 2.65915 5.52364 0
      vertex 2.65915 5.52364 15
      vertex 2.67686 5.46182 15
    endloop
  endfacet
  facet normal 0.342016 0.939694 0
    outer loop
      vertex 2.08632 5.73213 0
      vertex 2.65915 5.52364 15
      vertex 2.65915 5.52364 0
    endloop
  endfacet
  facet normal 0.342016 0.939694 -0
    outer loop
      vertex 2.08632 5.73213 0
      vertex 2.08632 5.73213 15
      vertex 2.65915 5.52364 15
    endloop
  endfacet
  facet normal -0.939693 0.342019 0
    outer loop
      vertex 0 0 0
      vertex 2.08632 5.73213 15
      vertex 2.08632 5.73213 0
    endloop
  endfacet
  facet normal -0.939693 0.342019 0
    outer loop
      vertex 0 0 0
      vertex 0 0 15
      vertex 2.08632 5.73213 15
    endloop
  endfacet
  facet normal -0.316228 -0.948683 0
    outer loop
      vertex 9.15527e-05 -3.05176e-05 0
      vertex 0 0 15
      vertex 0 0 0
    endloop
  endfacet
  facet normal -0.316228 -0.948683 0
    outer loop
      vertex 9.15527e-05 -3.05176e-05 0
      vertex 9.15527e-05 -3.05176e-05 15
      vertex 0 0 15
    endloop
  endfacet
  facet normal 2.50148e-06 -1 0
    outer loop
      vertex 6.10001 -1.52588e-05 0
      vertex 9.15527e-05 -3.05176e-05 15
      vertex 9.15527e-05 -3.05176e-05 0
    endloop
  endfacet
  facet normal 2.50148e-06 -1 0
    outer loop
      vertex 6.10001 -1.52588e-05 0
      vertex 6.10001 -1.52588e-05 15
      vertex 9.15527e-05 -3.05176e-05 15
    endloop
  endfacet
endsolid OpenSCAD_Model
